G04 CAM350 V9.0 (Build 156) Date:  Fri Jul 26 11:33:24 2019 *
G04 Database: C:\1\626\100.0000626.cam *
G04 Layer 4: 1000000626-SMB *
%FSLAX25Y25*%
%MOIN*%
%SFA1.000B1.000*%

%MIA0B0*%
%IPPOS*%
%ADD11C,0.03937*%
%ADD15C,0.00394*%
%ADD17R,0.05400X0.03800*%
%ADD22R,0.11811X0.11811*%
%ADD23R,0.11811X0.11811*%
%ADD27C,0.10787*%
%ADD39R,0.03976X0.03583*%
%ADD40R,0.03583X0.03976*%
%ADD41R,0.02756X0.06693*%
%ADD42R,0.06693X0.02756*%
%ADD43R,0.03800X0.05400*%
%ADD44R,0.03937X0.07087*%
%ADD45R,0.09055X0.12598*%
%ADD46R,0.05905X0.08858*%
%ADD47R,0.09055X0.07480*%
%ADD48R,0.05315X0.05709*%
%ADD49R,0.07677X0.11221*%
%ADD114R,0.36024X0.06693*%
%LN1000000626-SMB*%
%LPD*%
G36*
X594480Y292697D02*
G01X594496D01*
X604397Y292499*
X604413*
X614298Y291907*
X614313Y291906*
X624167Y290921*
X624183Y290919*
X633990Y289542*
X634005Y289540*
X643749Y287773*
X643928Y287691*
X644069Y287334*
X640137Y257845*
X640082Y257691*
X639747Y257503*
X639687Y257508*
X629706Y259058*
X619681Y260223*
X609619Y261000*
X599534Y261388*
X589442*
X579357Y261000*
X569295Y260223*
X559270Y259058*
X549290Y257508*
X549229Y257503*
X549069Y257537*
X548839Y257845*
X544907Y287334*
X544931Y287529*
X545227Y287773*
X554971Y289540*
X554987Y289542*
X564794Y290919*
X564809Y290921*
X574663Y291906*
X574679Y291907*
X584564Y292499*
X584579*
X594480Y292697*
G37*
G36*
X594496Y-292697D02*
G01X594480D01*
X584579Y-292499*
X584564*
X574679Y-291907*
X574663Y-291906*
X564809Y-290921*
X564794Y-290919*
X554987Y-289542*
X554971Y-289540*
X545227Y-287773*
X545049Y-287691*
X544907Y-287334*
X548839Y-257845*
X548894Y-257691*
X549229Y-257503*
X549290Y-257508*
X559270Y-259058*
X569295Y-260223*
X579357Y-261000*
X589442Y-261388*
X599534*
X609619Y-261000*
X619681Y-260223*
X629706Y-259058*
X639687Y-257508*
X639747Y-257503*
X639907Y-257537*
X640137Y-257845*
X644069Y-287334*
X644046Y-287529*
X643749Y-287773*
X634005Y-289540*
X633990Y-289542*
X624183Y-290919*
X624167Y-290921*
X614313Y-291906*
X614298Y-291907*
X604413Y-292499*
X604397*
X594496Y-292697*
G37*
G36*
X-8Y292697D02*
G01X8D01*
X9909Y292499*
X9924*
X19810Y291907*
X19825Y291906*
X29679Y290921*
X29695Y290919*
X39501Y289542*
X39517Y289540*
X49261Y287773*
X49440Y287691*
X49581Y287334*
X45649Y257845*
X45594Y257691*
X45259Y257503*
X45198Y257508*
X35218Y259058*
X25193Y260223*
X15131Y261000*
X5046Y261388*
X-5046*
X-15131Y261000*
X-25193Y260223*
X-35218Y259058*
X-45198Y257508*
X-45259Y257503*
X-45419Y257537*
X-45649Y257845*
X-49581Y287334*
X-49557Y287529*
X-49261Y287773*
X-39517Y289540*
X-39501Y289542*
X-29695Y290919*
X-29679Y290921*
X-19825Y291906*
X-19810Y291907*
X-9924Y292499*
X-9909*
X-8Y292697*
G37*
G36*
X8Y-292697D02*
G01X-8D01*
X-9909Y-292499*
X-9924*
X-19810Y-291907*
X-19825Y-291906*
X-29679Y-290921*
X-29695Y-290919*
X-39501Y-289542*
X-39517Y-289540*
X-49261Y-287773*
X-49440Y-287691*
X-49581Y-287334*
X-45649Y-257845*
X-45594Y-257691*
X-45259Y-257503*
X-45198Y-257508*
X-35218Y-259058*
X-25193Y-260223*
X-15131Y-261000*
X-5046Y-261388*
X5046*
X15131Y-261000*
X25193Y-260223*
X35218Y-259058*
X45198Y-257508*
X45259Y-257503*
X45419Y-257537*
X45649Y-257845*
X49581Y-287334*
X49557Y-287529*
X49261Y-287773*
X39517Y-289540*
X39501Y-289542*
X29695Y-290919*
X29679Y-290921*
X19825Y-291906*
X19810Y-291907*
X9924Y-292499*
X9909*
X8Y-292697*
G37*
G36*
X301791Y8D02*
G01X301989Y9909D01*
Y9924*
X302581Y19810*
X302582Y19825*
X303567Y29679*
X303569Y29695*
X304946Y39501*
X304948Y39517*
X306715Y49261*
X306959Y49557*
X307154Y49581*
X336643Y45649*
X336951Y45419*
X336985Y45259*
X336980Y45198*
X335430Y35218*
X334266Y25193*
X333489Y15131*
X333100Y5046*
Y-5046*
X333489Y-15131*
X334266Y-25193*
X335430Y-35218*
X336980Y-45198*
X336985Y-45259*
X336798Y-45594*
X336643Y-45649*
X307154Y-49581*
X306797Y-49440*
X306715Y-49261*
X304948Y-39517*
X304946Y-39501*
X303569Y-29695*
X303567Y-29679*
X302582Y-19825*
X302581Y-19810*
X301989Y-9924*
Y-9909*
X301791Y-8*
Y8*
G37*
G36*
X887185D02*
G01Y-8D01*
X886988Y-9909*
X886987Y-9924*
X886395Y-19810*
X886394Y-19825*
X885409Y-29679*
X885407Y-29695*
X884030Y-39501*
X884028Y-39517*
X882261Y-49261*
X882179Y-49440*
X881822Y-49581*
X852333Y-45649*
X852179Y-45594*
X851991Y-45259*
X851996Y-45198*
X853547Y-35218*
X854711Y-25193*
X855488Y-15131*
X855877Y-5046*
Y5046*
X855488Y15131*
X854711Y25193*
X853547Y35218*
X851996Y45198*
X851991Y45259*
X852026Y45419*
X852333Y45649*
X881822Y49581*
X882017Y49557*
X882261Y49261*
X884028Y39517*
X884030Y39501*
X885407Y29695*
X885409Y29679*
X886394Y19825*
X886395Y19810*
X886987Y9924*
X886988Y9909*
X887185Y8*
G37*
G36*
X-292697D02*
G01X-292499Y9909D01*
Y9924*
X-291907Y19810*
X-291906Y19825*
X-290921Y29679*
X-290919Y29695*
X-289542Y39501*
X-289540Y39517*
X-287773Y49261*
X-287529Y49557*
X-287334Y49581*
X-257845Y45649*
X-257537Y45419*
X-257503Y45259*
X-257508Y45198*
X-259058Y35218*
X-260223Y25193*
X-261000Y15131*
X-261388Y5046*
Y-5046*
X-261000Y-15131*
X-260223Y-25193*
X-259058Y-35218*
X-257508Y-45198*
X-257503Y-45259*
X-257691Y-45594*
X-257845Y-45649*
X-287334Y-49581*
X-287691Y-49440*
X-287773Y-49261*
X-289540Y-39517*
X-289542Y-39501*
X-290919Y-29695*
X-290921Y-29679*
X-291906Y-19825*
X-291907Y-19810*
X-292499Y-9924*
Y-9909*
X-292697Y-8*
Y8*
G37*
G36*
X292697D02*
G01Y-8D01*
X292499Y-9909*
Y-9924*
X291907Y-19810*
X291906Y-19825*
X290921Y-29679*
X290919Y-29695*
X289542Y-39501*
X289540Y-39517*
X287773Y-49261*
X287691Y-49440*
X287334Y-49581*
X257845Y-45649*
X257691Y-45594*
X257503Y-45259*
X257508Y-45198*
X259058Y-35218*
X260223Y-25193*
X261000Y-15131*
X261388Y-5046*
Y5046*
X261000Y15131*
X260223Y25193*
X259058Y35218*
X257508Y45198*
X257503Y45259*
X257537Y45419*
X257845Y45649*
X287334Y49581*
X287529Y49557*
X287773Y49261*
X289540Y39517*
X289542Y39501*
X290919Y29695*
X290921Y29679*
X291906Y19825*
X291907Y19810*
X292499Y9924*
Y9909*
X292697Y8*
G37*
G36*
X847975Y146342D02*
G01X852755Y137668D01*
X852762Y137655*
X857192Y128798*
X857199Y128784*
X861273Y119758*
X861279Y119743*
X864990Y110562*
X864995Y110547*
X868338Y101225*
X868274Y100847*
X868117Y100729*
X840613Y89389*
X840232Y89435*
X840122Y89556*
X840096Y89611*
X836449Y99029*
X832444Y108293*
X828086Y117396*
X823380Y126324*
X818334Y135064*
X812955Y143604*
X807251Y151929*
X801230Y160029*
X794897Y167897*
X794863Y167947*
X794858Y168331*
X794964Y168456*
X818536Y186605*
X818916Y186661*
X819077Y186548*
X825479Y178992*
X825488Y178980*
X831584Y171176*
X831594Y171163*
X837374Y163122*
X837382Y163109*
X842837Y154844*
X842846Y154831*
X847967Y146355*
X847975Y146342*
G37*
G36*
X341001D02*
G01X341009Y146355D01*
X346131Y154831*
X346139Y154844*
X351594Y163109*
X351603Y163122*
X357383Y171163*
X357392Y171176*
X363488Y178980*
X363498Y178992*
X369900Y186548*
X370060Y186661*
X370440Y186605*
X394012Y168456*
X394119Y168331*
X394113Y167947*
X394079Y167897*
X387746Y160029*
X381726Y151929*
X376021Y143604*
X370642Y135064*
X365596Y126324*
X360891Y117396*
X356532Y108293*
X352528Y99029*
X348881Y89611*
X348854Y89556*
X348745Y89435*
X348363Y89389*
X320859Y100729*
X320702Y100847*
X320639Y101225*
X323981Y110547*
X323987Y110562*
X327698Y119743*
X327704Y119758*
X331778Y128784*
X331784Y128798*
X336215Y137655*
X336222Y137668*
X341001Y146342*
G37*
G36*
Y-146342D02*
G01X336222Y-137668D01*
X336215Y-137655*
X331784Y-128798*
X331778Y-128784*
X327704Y-119758*
X327698Y-119743*
X323987Y-110562*
X323981Y-110547*
X320639Y-101225*
X320702Y-100847*
X320859Y-100729*
X348363Y-89389*
X348745Y-89435*
X348854Y-89556*
X348881Y-89611*
X352528Y-99029*
X356532Y-108293*
X360891Y-117396*
X365596Y-126324*
X370642Y-135064*
X376021Y-143604*
X381726Y-151929*
X387746Y-160029*
X394079Y-167897*
X394113Y-167947*
X394119Y-168331*
X394012Y-168456*
X370440Y-186605*
X370060Y-186661*
X369900Y-186548*
X363498Y-178992*
X363488Y-178980*
X357392Y-171176*
X357383Y-171163*
X351603Y-163122*
X351594Y-163109*
X346139Y-154844*
X346131Y-154831*
X341009Y-146355*
X341001Y-146342*
G37*
G36*
X847975D02*
G01X847967Y-146355D01*
X842846Y-154831*
X842837Y-154844*
X837382Y-163109*
X837374Y-163122*
X831594Y-171163*
X831584Y-171176*
X825488Y-178980*
X825479Y-178992*
X819077Y-186548*
X818916Y-186661*
X818536Y-186605*
X794964Y-168456*
X794858Y-168331*
X794863Y-167947*
X794897Y-167897*
X801230Y-160029*
X807251Y-151929*
X812955Y-143604*
X818334Y-135064*
X823380Y-126324*
X828086Y-117396*
X832444Y-108293*
X836449Y-99029*
X840096Y-89611*
X840122Y-89556*
X840232Y-89435*
X840613Y-89389*
X868117Y-100729*
X868274Y-100847*
X868338Y-101225*
X864995Y-110547*
X864990Y-110562*
X861279Y-119743*
X861273Y-119758*
X857199Y-128784*
X857192Y-128798*
X852762Y-137655*
X852755Y-137668*
X847975Y-146342*
G37*
G36*
X253487Y146342D02*
G01X258266Y137668D01*
X258274Y137655*
X262704Y128798*
X262711Y128784*
X266784Y119758*
X266791Y119743*
X270502Y110562*
X270507Y110547*
X273849Y101225*
X273786Y100847*
X273629Y100729*
X246125Y89389*
X245743Y89435*
X245634Y89556*
X245608Y89611*
X241960Y99029*
X237956Y108293*
X233598Y117396*
X228892Y126324*
X223846Y135064*
X218467Y143604*
X212763Y151929*
X206742Y160029*
X200409Y167897*
X200375Y167947*
X200370Y168331*
X200476Y168456*
X224048Y186605*
X224428Y186661*
X224589Y186548*
X230990Y178992*
X231000Y178980*
X237096Y171176*
X237105Y171163*
X242885Y163122*
X242894Y163109*
X248349Y154844*
X248358Y154831*
X253479Y146355*
X253487Y146342*
G37*
G36*
X-253487D02*
G01X-253479Y146355D01*
X-248358Y154831*
X-248349Y154844*
X-242894Y163109*
X-242885Y163122*
X-237105Y171163*
X-237096Y171176*
X-231000Y178980*
X-230990Y178992*
X-224589Y186548*
X-224428Y186661*
X-224048Y186605*
X-200476Y168456*
X-200370Y168331*
X-200375Y167947*
X-200409Y167897*
X-206742Y160029*
X-212763Y151929*
X-218467Y143604*
X-223846Y135064*
X-228892Y126324*
X-233598Y117396*
X-237956Y108293*
X-241960Y99029*
X-245608Y89611*
X-245634Y89556*
X-245743Y89435*
X-246125Y89389*
X-273629Y100729*
X-273786Y100847*
X-273849Y101225*
X-270507Y110547*
X-270502Y110562*
X-266791Y119743*
X-266784Y119758*
X-262711Y128784*
X-262704Y128798*
X-258274Y137655*
X-258266Y137668*
X-253487Y146342*
G37*
G36*
Y-146342D02*
G01X-258266Y-137668D01*
X-258274Y-137655*
X-262704Y-128798*
X-262711Y-128784*
X-266784Y-119758*
X-266791Y-119743*
X-270502Y-110562*
X-270507Y-110547*
X-273849Y-101225*
X-273786Y-100847*
X-273629Y-100729*
X-246125Y-89389*
X-245743Y-89435*
X-245634Y-89556*
X-245608Y-89611*
X-241960Y-99029*
X-237956Y-108293*
X-233598Y-117396*
X-228892Y-126324*
X-223846Y-135064*
X-218467Y-143604*
X-212763Y-151929*
X-206742Y-160029*
X-200409Y-167897*
X-200375Y-167947*
X-200370Y-168331*
X-200476Y-168456*
X-224048Y-186605*
X-224428Y-186661*
X-224589Y-186548*
X-230990Y-178992*
X-231000Y-178980*
X-237096Y-171176*
X-237105Y-171163*
X-242885Y-163122*
X-242894Y-163109*
X-248349Y-154844*
X-248358Y-154831*
X-253479Y-146355*
X-253487Y-146342*
G37*
G36*
X253487D02*
G01X253479Y-146355D01*
X248358Y-154831*
X248349Y-154844*
X242894Y-163109*
X242885Y-163122*
X237105Y-171163*
X237096Y-171176*
X231000Y-178980*
X230990Y-178992*
X224589Y-186548*
X224428Y-186661*
X224048Y-186605*
X200476Y-168456*
X200370Y-168331*
X200375Y-167947*
X200409Y-167897*
X206742Y-160029*
X212763Y-151929*
X218467Y-143604*
X223846Y-135064*
X228892Y-126324*
X233598Y-117396*
X237956Y-108293*
X241960Y-99029*
X245608Y-89611*
X245634Y-89556*
X245743Y-89435*
X246125Y-89389*
X273629Y-100729*
X273786Y-100847*
X273849Y-101225*
X270507Y-110547*
X270502Y-110562*
X266791Y-119743*
X266784Y-119758*
X262711Y-128784*
X262704Y-128798*
X258274Y-137655*
X258266Y-137668*
X253487Y-146342*
G37*
G36*
X740843Y253479D02*
G01X749319Y248358D01*
X749332Y248349*
X757597Y242894*
X757610Y242885*
X765651Y237105*
X765664Y237096*
X773468Y231000*
X773481Y230990*
X781036Y224589*
X781171Y224229*
X781093Y224048*
X762944Y200476*
X762591Y200324*
X762435Y200375*
X762385Y200409*
X754517Y206742*
X746417Y212763*
X738092Y218467*
X729552Y223846*
X720812Y228892*
X711884Y233598*
X702781Y237956*
X693518Y241960*
X684099Y245608*
X684045Y245634*
X683848Y245964*
X683877Y246125*
X695217Y273629*
X695518Y273867*
X695714Y273849*
X705035Y270507*
X705050Y270502*
X714231Y266791*
X714246Y266784*
X723272Y262711*
X723286Y262704*
X732143Y258274*
X732157Y258266*
X740830Y253487*
X740843Y253479*
G37*
G36*
X448133D02*
G01X448147Y253487D01*
X456820Y258266*
X456834Y258274*
X465690Y262704*
X465704Y262711*
X474731Y266784*
X474745Y266791*
X483926Y270502*
X483941Y270507*
X493263Y273849*
X493459Y273867*
X493760Y273629*
X505099Y246125*
X505129Y245964*
X504932Y245634*
X504877Y245608*
X495459Y241960*
X486195Y237956*
X477092Y233598*
X468164Y228892*
X459424Y223846*
X450885Y218467*
X442559Y212763*
X434459Y206742*
X426591Y200409*
X426541Y200375*
X426385Y200324*
X426033Y200476*
X407883Y224048*
X407806Y224229*
X407940Y224589*
X415496Y230990*
X415508Y231000*
X423312Y237096*
X423325Y237105*
X431366Y242885*
X431379Y242894*
X439644Y248349*
X439657Y248358*
X448133Y253479*
G37*
G36*
Y-253479D02*
G01X439657Y-248358D01*
X439644Y-248349*
X431379Y-242894*
X431366Y-242885*
X423325Y-237105*
X423312Y-237096*
X415508Y-231000*
X415496Y-230990*
X407940Y-224589*
X407806Y-224229*
X407883Y-224048*
X426033Y-200476*
X426385Y-200324*
X426541Y-200375*
X426591Y-200409*
X434459Y-206742*
X442559Y-212763*
X450885Y-218467*
X459424Y-223846*
X468164Y-228892*
X477092Y-233598*
X486195Y-237956*
X495459Y-241960*
X504877Y-245608*
X504932Y-245634*
X505129Y-245964*
X505099Y-246125*
X493760Y-273629*
X493459Y-273867*
X493263Y-273849*
X483941Y-270507*
X483926Y-270502*
X474745Y-266791*
X474731Y-266784*
X465704Y-262711*
X465690Y-262704*
X456834Y-258274*
X456820Y-258266*
X448147Y-253487*
X448133Y-253479*
G37*
G36*
X740843D02*
G01X740830Y-253487D01*
X732157Y-258266*
X732143Y-258274*
X723286Y-262704*
X723272Y-262711*
X714246Y-266784*
X714231Y-266791*
X705050Y-270502*
X705035Y-270507*
X695714Y-273849*
X695518Y-273867*
X695217Y-273629*
X683877Y-246125*
X683848Y-245964*
X684045Y-245634*
X684099Y-245608*
X693518Y-241960*
X702781Y-237956*
X711884Y-233598*
X720812Y-228892*
X729552Y-223846*
X738092Y-218467*
X746417Y-212763*
X754517Y-206742*
X762385Y-200409*
X762435Y-200375*
X762591Y-200324*
X762944Y-200476*
X781093Y-224048*
X781171Y-224229*
X781036Y-224589*
X773481Y-230990*
X773468Y-231000*
X765664Y-237096*
X765651Y-237105*
X757610Y-242885*
X757597Y-242894*
X749332Y-248349*
X749319Y-248358*
X740843Y-253479*
G37*
G36*
X146355Y253479D02*
G01X154831Y248358D01*
X154844Y248349*
X163109Y242894*
X163122Y242885*
X171163Y237105*
X171176Y237096*
X178980Y231000*
X178992Y230990*
X186548Y224589*
X186683Y224229*
X186605Y224048*
X168456Y200476*
X168103Y200324*
X167947Y200375*
X167897Y200409*
X160029Y206742*
X151929Y212763*
X143604Y218467*
X135064Y223846*
X126324Y228892*
X117396Y233598*
X108293Y237956*
X99029Y241960*
X89611Y245608*
X89556Y245634*
X89360Y245964*
X89389Y246125*
X100729Y273629*
X101030Y273867*
X101225Y273849*
X110547Y270507*
X110562Y270502*
X119743Y266791*
X119758Y266784*
X128784Y262711*
X128798Y262704*
X137655Y258274*
X137668Y258266*
X146342Y253487*
X146355Y253479*
G37*
G36*
X-146355D02*
G01X-146342Y253487D01*
X-137668Y258266*
X-137655Y258274*
X-128798Y262704*
X-128784Y262711*
X-119758Y266784*
X-119743Y266791*
X-110562Y270502*
X-110547Y270507*
X-101225Y273849*
X-101030Y273867*
X-100729Y273629*
X-89389Y246125*
X-89360Y245964*
X-89556Y245634*
X-89611Y245608*
X-99029Y241960*
X-108293Y237956*
X-117396Y233598*
X-126324Y228892*
X-135064Y223846*
X-143604Y218467*
X-151929Y212763*
X-160029Y206742*
X-167897Y200409*
X-167947Y200375*
X-168103Y200324*
X-168456Y200476*
X-186605Y224048*
X-186683Y224229*
X-186548Y224589*
X-178992Y230990*
X-178980Y231000*
X-171176Y237096*
X-171163Y237105*
X-163122Y242885*
X-163109Y242894*
X-154844Y248349*
X-154831Y248358*
X-146355Y253479*
G37*
G36*
Y-253479D02*
G01X-154831Y-248358D01*
X-154844Y-248349*
X-163109Y-242894*
X-163122Y-242885*
X-171163Y-237105*
X-171176Y-237096*
X-178980Y-231000*
X-178992Y-230990*
X-186548Y-224589*
X-186683Y-224229*
X-186605Y-224048*
X-168456Y-200476*
X-168103Y-200324*
X-167947Y-200375*
X-167897Y-200409*
X-160029Y-206742*
X-151929Y-212763*
X-143604Y-218467*
X-135064Y-223846*
X-126324Y-228892*
X-117396Y-233598*
X-108293Y-237956*
X-99029Y-241960*
X-89611Y-245608*
X-89556Y-245634*
X-89360Y-245964*
X-89389Y-246125*
X-100729Y-273629*
X-101030Y-273867*
X-101225Y-273849*
X-110547Y-270507*
X-110562Y-270502*
X-119743Y-266791*
X-119758Y-266784*
X-128784Y-262711*
X-128798Y-262704*
X-137655Y-258274*
X-137668Y-258266*
X-146342Y-253487*
X-146355Y-253479*
G37*
G36*
X146355D02*
G01X146342Y-253487D01*
X137668Y-258266*
X137655Y-258274*
X128798Y-262704*
X128784Y-262711*
X119758Y-266784*
X119743Y-266791*
X110562Y-270502*
X110547Y-270507*
X101225Y-273849*
X101030Y-273867*
X100729Y-273629*
X89389Y-246125*
X89360Y-245964*
X89556Y-245634*
X89611Y-245608*
X99029Y-241960*
X108293Y-237956*
X117396Y-233598*
X126324Y-228892*
X135064Y-223846*
X143604Y-218467*
X151929Y-212763*
X160029Y-206742*
X167897Y-200409*
X167947Y-200375*
X168103Y-200324*
X168456Y-200476*
X186605Y-224048*
X186683Y-224229*
X186548Y-224589*
X178992Y-230990*
X178980Y-231000*
X171176Y-237096*
X171163Y-237105*
X163122Y-242885*
X163109Y-242894*
X154844Y-248349*
X154831Y-248358*
X146355Y-253479*
G37*
G54D23*
X-273622Y-311024D03*
G54D27*
X-275591Y0D03*
X-238669Y-137795D03*
Y137795D03*
X-137795Y-238669D03*
Y238669D03*
X0Y-275591D03*
Y275591D03*
X137795Y-238669D03*
Y238669D03*
X238669Y-137795D03*
Y137795D03*
X275591Y0D03*
G54D22*
X-147638Y167323D03*
X-112205Y-192913D03*
X192913Y-3937D03*
G54D17*
X-3750Y158700D03*
X3750D03*
X-3750Y166300D03*
X3750D03*
X18750Y158700D03*
X11250D03*
X18750Y166300D03*
X11250D03*
G54D44*
X492Y150492D03*
X25098D03*
X20177D03*
X15256D03*
X10335D03*
X5413D03*
X49705D03*
X44783D03*
X39862D03*
X34941D03*
X30020D03*
X54626D03*
X92520D03*
X112205D03*
X107283D03*
X102362D03*
X97441D03*
G54D40*
X-66850Y-207500D03*
X-73150D03*
X-66850Y-201250D03*
X-73150D03*
X-66850Y-213750D03*
X-73150D03*
X-69400Y-168750D03*
X-64350Y-158750D03*
X-70650D03*
X-41900Y-250000D03*
Y-235000D03*
X-53150Y-238750D03*
X-46850D03*
X-41900Y-242500D03*
X-49350Y-210000D03*
X-55650D03*
X-63100Y-168750D03*
X-29400Y-246250D03*
X-23100D03*
X-35600Y-250000D03*
X-29400Y-253750D03*
X-23100D03*
X-35600Y-235000D03*
Y-242500D03*
X-30650Y-221250D03*
X-24350D03*
X-35650Y-210000D03*
X-29350D03*
X-25600Y226250D03*
X-31900D03*
X-7549Y-181250D03*
X-1250D03*
X5049D03*
X24400Y-255000D03*
X18100D03*
X45600Y-242500D03*
Y-233750D03*
Y-226250D03*
X46850Y-201250D03*
Y-180000D03*
Y-195000D03*
Y-173750D03*
Y-163750D03*
X51900Y-242500D03*
X63150Y-237500D03*
X56850D03*
X51900Y-233750D03*
X63150Y-230000D03*
X56850D03*
X51900Y-226250D03*
X63150Y-208750D03*
X56850D03*
X63150Y-218750D03*
X56850D03*
X68100Y-215000D03*
X53150Y-201250D03*
Y-180000D03*
Y-195000D03*
Y-173750D03*
Y-163750D03*
X74400Y-215000D03*
G54D49*
X-4902Y178750D03*
Y198750D03*
X19902Y178750D03*
Y198750D03*
G54D41*
X4350Y-243691D03*
X1201D03*
X-1949D03*
X-5098D03*
X-8248D03*
Y-198809D03*
X-5098D03*
X-1949D03*
X1201D03*
X4350D03*
X23248Y-243691D03*
X20098D03*
X16949D03*
X13799D03*
X10650D03*
X7500D03*
Y-198809D03*
X10650D03*
X13799D03*
X16949D03*
X20098D03*
X23248D03*
G54D46*
X87618Y163750D03*
X102382D03*
G54D43*
X-42550Y-227500D03*
X-34950D03*
G54D47*
X-53130Y-198012D03*
Y-186988D03*
X-31870D03*
Y-198012D03*
G54D39*
X-22500Y-208150D03*
Y-201850D03*
X30000Y159350D03*
X45000D03*
X40000D03*
X35000D03*
X50000D03*
X30000Y165650D03*
X45000D03*
X40000D03*
X35000D03*
X50000D03*
X55000Y159350D03*
Y170600D03*
Y176900D03*
Y165650D03*
X63750Y181850D03*
X70000Y170600D03*
Y176900D03*
X63750Y188150D03*
X76250Y164350D03*
X85000Y181850D03*
X76250Y170650D03*
X85000Y188150D03*
G54D48*
X-22500Y-194724D03*
Y-185276D03*
G54D42*
X-14941Y-236998D03*
Y-233848D03*
Y-230699D03*
Y-227549D03*
Y-224400D03*
Y-221250D03*
Y-218100D03*
Y-214951D03*
Y-211801D03*
Y-208652D03*
Y-205502D03*
X29941Y-224400D03*
Y-227549D03*
Y-230699D03*
Y-233848D03*
Y-236998D03*
Y-205502D03*
Y-208652D03*
Y-211801D03*
Y-214951D03*
Y-218100D03*
Y-221250D03*
G54D45*
X-9350Y138878D03*
X64469D03*
X82677D03*
X122047D03*
G54D27*
X318897Y0D03*
X355819Y-137795D03*
Y137795D03*
X456693Y-238669D03*
Y238669D03*
X594488Y-275591D03*
Y275591D03*
X732283Y-238669D03*
Y238669D03*
X833157Y-137795D03*
Y137795D03*
X870079Y0D03*
G54D22*
X446850Y167323D03*
X482283Y-192913D03*
X787401Y-3937D03*
G54D17*
X590738Y158700D03*
X598238D03*
X590738Y166300D03*
X598238D03*
X613238Y158700D03*
X605738D03*
X613238Y166300D03*
X605738D03*
G54D44*
X594980Y150492D03*
X619586D03*
X614665D03*
X609744D03*
X604823D03*
X599901D03*
X644193D03*
X639271D03*
X634350D03*
X629429D03*
X624508D03*
X649114D03*
X687008D03*
X706693D03*
X701771D03*
X696850D03*
X691929D03*
G54D40*
X527638Y-207500D03*
X521338D03*
X527638Y-201250D03*
X521338D03*
X527638Y-213750D03*
X521338D03*
X525088Y-168750D03*
X530138Y-158750D03*
X523838D03*
X552588Y-250000D03*
Y-235000D03*
X541338Y-238750D03*
X547638D03*
X552588Y-242500D03*
X545138Y-210000D03*
X538838D03*
X531388Y-168750D03*
X565088Y-246250D03*
X571388D03*
X558888Y-250000D03*
X565088Y-253750D03*
X571388D03*
X558888Y-235000D03*
Y-242500D03*
X563838Y-221250D03*
X570138D03*
X558838Y-210000D03*
X565138D03*
X568888Y226250D03*
X562588D03*
X586939Y-181250D03*
X593238D03*
X599537D03*
X618888Y-255000D03*
X612588D03*
X640088Y-242500D03*
Y-233750D03*
Y-226250D03*
X641338Y-201250D03*
Y-180000D03*
Y-195000D03*
Y-173750D03*
Y-163750D03*
X646388Y-242500D03*
X657638Y-237500D03*
X651338D03*
X646388Y-233750D03*
X657638Y-230000D03*
X651338D03*
X646388Y-226250D03*
X657638Y-208750D03*
X651338D03*
X657638Y-218750D03*
X651338D03*
X662588Y-215000D03*
X647638Y-201250D03*
Y-180000D03*
Y-195000D03*
Y-173750D03*
Y-163750D03*
X668888Y-215000D03*
G54D49*
X589586Y178750D03*
Y198750D03*
X614390Y178750D03*
Y198750D03*
G54D41*
X598838Y-243691D03*
X595689D03*
X592539D03*
X589390D03*
X586240D03*
Y-198809D03*
X589390D03*
X592539D03*
X595689D03*
X598838D03*
X617736Y-243691D03*
X614586D03*
X611437D03*
X608287D03*
X605138D03*
X601988D03*
Y-198809D03*
X605138D03*
X608287D03*
X611437D03*
X614586D03*
X617736D03*
G54D46*
X682106Y163750D03*
X696870D03*
G54D43*
X551938Y-227500D03*
X559538D03*
G54D47*
X541358Y-198012D03*
Y-186988D03*
X562618D03*
Y-198012D03*
G54D39*
X571988Y-208150D03*
Y-201850D03*
X624488Y159350D03*
X639488D03*
X634488D03*
X629488D03*
X644488D03*
X624488Y165650D03*
X639488D03*
X634488D03*
X629488D03*
X644488D03*
X649488Y159350D03*
Y170600D03*
Y176900D03*
Y165650D03*
X658238Y181850D03*
X664488Y170600D03*
Y176900D03*
X658238Y188150D03*
X670738Y164350D03*
X679488Y181850D03*
X670738Y170650D03*
X679488Y188150D03*
G54D48*
X571988Y-194724D03*
Y-185276D03*
G54D42*
X579547Y-236998D03*
Y-233848D03*
Y-230699D03*
Y-227549D03*
Y-224400D03*
Y-221250D03*
Y-218100D03*
Y-214951D03*
Y-211801D03*
Y-208652D03*
Y-205502D03*
X624429Y-224400D03*
Y-227549D03*
Y-230699D03*
Y-233848D03*
Y-236998D03*
Y-205502D03*
Y-208652D03*
Y-211801D03*
Y-214951D03*
Y-218100D03*
Y-221250D03*
G54D45*
X585138Y138878D03*
X658957D03*
X677165D03*
X716535D03*
G54D23*
X868110Y-311024D03*
Y311024D03*
G54D114*
X669488Y218159D03*
Y194341D03*
X544488Y218159D03*
Y194341D03*
X75000Y218159D03*
Y194341D03*
X-50000Y218159D03*
Y194341D03*
G54D11*
G01X-286171Y679626D02*
X-288632Y682087D01*
X-292323Y683317D01*
X-297244D01*
X-300935Y682087D01*
X-303396Y679626D01*
Y677165D01*
X-302165Y674705D01*
X-300935Y673474D01*
X-298474Y672244D01*
X-291093Y669783D01*
X-288632Y668553D01*
X-287402Y667323D01*
X-286171Y664862D01*
Y661171D01*
X-288632Y658711D01*
X-292323Y657480D01*
X-297244D01*
X-300935Y658711D01*
X-303396Y661171D01*
X-271407Y683317D02*
X-273868Y682087D01*
X-276329Y679626D01*
X-277559Y677165D01*
X-278789Y673474D01*
Y667323D01*
X-277559Y663632D01*
X-276329Y661171D01*
X-273868Y658711D01*
X-271407Y657480D01*
X-266486D01*
X-264026Y658711D01*
X-261565Y661171D01*
X-260335Y663632D01*
X-259104Y667323D01*
Y673474D01*
X-260335Y677165D01*
X-261565Y679626D01*
X-264026Y682087D01*
X-266486Y683317D01*
X-271407D01*
X-250492D02*
Y657480D01*
Y657480D02*
X-235728D01*
X-229577Y683317D02*
Y657480D01*
Y683317D02*
X-220965D01*
X-217274Y682087D01*
X-214813Y679626D01*
X-213583Y677165D01*
X-212352Y673474D01*
Y667323D01*
X-213583Y663632D01*
X-214813Y661171D01*
X-217274Y658711D01*
X-220965Y657480D01*
X-229577D01*
X-203740Y683317D02*
Y657480D01*
Y683317D02*
X-187746D01*
X-203740Y671014D02*
X-193898D01*
X-203740Y657480D02*
X-187746D01*
X-180364Y683317D02*
Y657480D01*
Y683317D02*
X-169291D01*
X-165600Y682087D01*
X-164370Y680856D01*
X-163140Y678396D01*
Y675935D01*
X-164370Y673474D01*
X-165600Y672244D01*
X-169291Y671014D01*
X-180364D01*
X-171752D02*
X-163140Y657480D01*
X-134843Y683317D02*
Y657480D01*
Y683317D02*
X-125000Y657480D01*
X-115157Y683317D02*
X-125000Y657480D01*
X-115157Y683317D02*
Y657480D01*
X-99163Y683317D02*
X-109006Y657480D01*
X-99163Y683317D02*
X-89321Y657480D01*
X-105315Y666093D02*
X-93012D01*
X-67175Y679626D02*
X-69636Y682087D01*
X-73327Y683317D01*
X-78248D01*
X-81939Y682087D01*
X-84400Y679626D01*
Y677165D01*
X-83169Y674705D01*
X-81939Y673474D01*
X-79478Y672244D01*
X-72096Y669783D01*
X-69636Y668553D01*
X-68406Y667323D01*
X-67175Y664862D01*
Y661171D01*
X-69636Y658711D01*
X-73327Y657480D01*
X-78248D01*
X-81939Y658711D01*
X-84400Y661171D01*
X-58563Y683317D02*
Y657480D01*
X-41339Y683317D02*
X-58563Y666093D01*
X-52411Y672244D02*
X-41339Y657480D01*
X-13041Y683317D02*
Y657480D01*
Y657480D02*
X1722D01*
X14026Y683317D02*
X4183Y657480D01*
X14026Y683317D02*
X23868Y657480D01*
X7874Y666093D02*
X20177D01*
X26329Y683317D02*
X36171Y671014D01*
Y657480D01*
X46014Y683317D02*
X36171Y671014D01*
X52165Y683317D02*
Y657480D01*
Y683317D02*
X68159D01*
X52165Y671014D02*
X62008D01*
X52165Y657480D02*
X68159D01*
X75541Y683317D02*
Y657480D01*
Y683317D02*
X86614D01*
X90305Y682087D01*
X91535Y680856D01*
X92766Y678396D01*
Y675935D01*
X91535Y673474D01*
X90305Y672244D01*
X86614Y671014D01*
X75541D01*
X84154D02*
X92766Y657480D01*
X121063Y683317D02*
Y657480D01*
Y683317D02*
X132136D01*
X135827Y682087D01*
X137057Y680856D01*
X138287Y678396D01*
Y675935D01*
X137057Y673474D01*
X135827Y672244D01*
X132136Y671014D01*
X121063D02*
X132136D01*
X135827Y669783D01*
X137057Y668553D01*
X138287Y666093D01*
Y662402D01*
X137057Y659941D01*
X135827Y658711D01*
X132136Y657480D01*
X121063D01*
X153051Y683317D02*
X150591Y682087D01*
X148130Y679626D01*
X146900Y677165D01*
X145669Y673474D01*
Y667323D01*
X146900Y663632D01*
X148130Y661171D01*
X150591Y658711D01*
X153051Y657480D01*
X157972D01*
X160433Y658711D01*
X162894Y661171D01*
X164124Y663632D01*
X165354Y667323D01*
Y673474D01*
X164124Y677165D01*
X162894Y679626D01*
X160433Y682087D01*
X157972Y683317D01*
X153051D01*
X178888D02*
Y657480D01*
X170276Y683317D02*
X187500D01*
X230561Y677165D02*
X229331Y679626D01*
X226870Y682087D01*
X224409Y683317D01*
X219488D01*
X217028Y682087D01*
X214567Y679626D01*
X213337Y677165D01*
X212106Y673474D01*
Y667323D01*
X213337Y663632D01*
X214567Y661171D01*
X217028Y658711D01*
X219488Y657480D01*
X224409D01*
X226870Y658711D01*
X229331Y661171D01*
X230561Y663632D01*
X245325Y683317D02*
X242864Y682087D01*
X240404Y679626D01*
X239173Y677165D01*
X237943Y673474D01*
Y667323D01*
X239173Y663632D01*
X240404Y661171D01*
X242864Y658711D01*
X245325Y657480D01*
X250246D01*
X252707Y658711D01*
X255167Y661171D01*
X256398Y663632D01*
X257628Y667323D01*
Y673474D01*
X256398Y677165D01*
X255167Y679626D01*
X252707Y682087D01*
X250246Y683317D01*
X245325D01*
X266240D02*
Y657480D01*
Y657480D02*
X281004D01*
X293307Y683317D02*
X290846Y682087D01*
X288386Y679626D01*
X287156Y677165D01*
X285925Y673474D01*
Y667323D01*
X287156Y663632D01*
X288386Y661171D01*
X290846Y658711D01*
X293307Y657480D01*
X298228D01*
X300689Y658711D01*
X303150Y661171D01*
X304380Y663632D01*
X305610Y667323D01*
Y673474D01*
X304380Y677165D01*
X303150Y679626D01*
X300689Y682087D01*
X298228Y683317D01*
X293307D01*
X314222D02*
Y657480D01*
Y683317D02*
X325295D01*
X328986Y682087D01*
X330217Y680856D01*
X331447Y678396D01*
Y675935D01*
X330217Y673474D01*
X328986Y672244D01*
X325295Y671014D01*
X314222D01*
X322835D02*
X331447Y657480D01*
X357283Y683317D02*
X363435Y657480D01*
X369587Y683317D02*
X363435Y657480D01*
X369587Y683317D02*
X375738Y657480D01*
X381890Y683317D02*
X375738Y657480D01*
X389272Y683317D02*
Y657480D01*
X406496Y683317D02*
Y657480D01*
X389272Y671014D02*
X406496D01*
X416339Y683317D02*
Y657480D01*
X431102Y683317D02*
Y657480D01*
X422490Y683317D02*
X439715D01*
X445866D02*
Y657480D01*
Y683317D02*
X461860D01*
X445866Y671014D02*
X455709D01*
X445866Y657480D02*
X461860D01*
G54D15*
X-270731Y-96457D02*
G01X-270685Y-96609D01*
X-270647Y-96776*
X-270625Y-96947*
X-270617Y-97119*
X-270625Y-97290*
X-270647Y-97460*
X-270685Y-97628*
X-270736Y-97792*
X-270802Y-97950*
X-270881Y-98102*
X-270973Y-98247*
X-271078Y-98383*
X-271194Y-98510*
X-271320Y-98626*
X-271457Y-98731*
X-271602Y-98823*
X-271754Y-98902*
X-271913Y-98968*
X-273763Y-99641*
X-273921Y-99707*
X-274074Y-99786*
X-274218Y-99879*
X-274354Y-99983*
X-274481Y-100099*
X-274597Y-100226*
X-274702Y-100362*
X-274794Y-100507*
X-274873Y-100659*
X-274939Y-100818*
X-274991Y-100981*
X-275028Y-101149*
X-275050Y-101320*
X-275058Y-101491*
X-275050Y-101663*
X-275028Y-101833*
X-274991Y-102001*
X-274934Y-102177*
X-264983Y-125750*
X-253015Y-148367*
X-239121Y-169854*
X-225955Y-187012*
X-225840Y-187139*
X-225714Y-187256*
X-225578Y-187361*
X-225434Y-187455*
X-225283Y-187535*
X-225124Y-187602*
X-224961Y-187655*
X-224793Y-187693*
X-224623Y-187717*
X-224452Y-187725*
X-224280Y-187719*
X-224110Y-187698*
X-223942Y-187661*
X-223778Y-187611*
X-223619Y-187546*
X-223466Y-187468*
X-223320Y-187377*
X-223173Y-187265*
X-221665Y-185999*
X-221540Y-185902*
X-221396Y-185809*
X-221244Y-185729*
X-221086Y-185662*
X-220922Y-185609*
X-220755Y-185571*
X-220585Y-185547*
X-220413Y-185539*
X-220242Y-185545*
X-220071Y-185566*
X-219903Y-185602*
X-219739Y-185653*
X-219580Y-185717*
X-219427Y-185796*
X-219282Y-185887*
X-219145Y-185991*
X-219017Y-186106*
X-218900Y-186231*
X-201836Y-204601*
X-186231Y-218900*
X-186115Y-219008*
X-185999Y-219135*
X-185894Y-219271*
X-185802Y-219416*
X-185723Y-219568*
X-185657Y-219727*
X-185606Y-219891*
X-185569Y-220058*
X-185546Y-220228*
X-185539Y-220400*
X-185546Y-220571*
X-185569Y-220742*
X-185606Y-220909*
X-185657Y-221073*
X-185723Y-221232*
X-185802Y-221384*
X-185894Y-221529*
X-185999Y-221665*
X-187265Y-223173*
X-187369Y-223309*
X-187461Y-223454*
X-187541Y-223607*
X-187606Y-223765*
X-187658Y-223929*
X-187695Y-224097*
X-187718Y-224267*
X-187725Y-224439*
X-187718Y-224610*
X-187695Y-224780*
X-187658Y-224948*
X-187606Y-225112*
X-187541Y-225270*
X-187461Y-225423*
X-187369Y-225568*
X-187265Y-225704*
X-187148Y-225830*
X-187012Y-225955*
X-166607Y-241394*
X-144934Y-254996*
X-122158Y-266658*
X-102177Y-274934*
X-102013Y-274987*
X-101846Y-275026*
X-101676Y-275049*
X-101504Y-275057*
X-101333Y-275051*
X-101163Y-275030*
X-100994Y-274994*
X-100830Y-274943*
X-100671Y-274879*
X-100519Y-274800*
X-100373Y-274709*
X-100236Y-274606*
X-100109Y-274491*
X-99992Y-274365*
X-99886Y-274229*
X-99793Y-274085*
X-99713Y-273933*
X-99641Y-273763*
X-98968Y-271913*
X-98908Y-271766*
X-98830Y-271613*
X-98739Y-271468*
X-98635Y-271331*
X-98520Y-271204*
X-98394Y-271087*
X-98258Y-270981*
X-98114Y-270888*
X-97962Y-270807*
X-97804Y-270741*
X-97641Y-270688*
X-97473Y-270650*
X-97303Y-270626*
X-97132Y-270617*
X-96960Y-270624*
X-96790Y-270645*
X-96622Y-270681*
X-96457Y-270731*
X-92413Y-272139*
X-92248Y-272187*
X-92080Y-272220*
X-91909Y-272239*
X-91738Y-272243*
X-91566Y-272231*
X-91396Y-272206*
X-91230Y-272165*
X-91067Y-272109*
X-90910Y-272040*
X-90759Y-271958*
X-90617Y-271862*
X-90483Y-271755*
X-90359Y-271636*
X-90245Y-271507*
X-90144Y-271369*
X-90055Y-271222*
X-89979Y-271068*
X-89917Y-270907*
X-89879Y-270784*
X-88000Y-263771*
X-87561Y-262379*
X-87002Y-261030*
X-86328Y-259735*
X-85544Y-258504*
X-84655Y-257346*
X-83669Y-256270*
X-82593Y-255284*
X-81435Y-254395*
X-80204Y-253611*
X-78909Y-252937*
X-77560Y-252378*
X-76168Y-251939*
X-74743Y-251623*
X-73296Y-251433*
X-71837Y-251369*
X-70379Y-251433*
X-68932Y-251623*
X-67507Y-251939*
X-66115Y-252378*
X-64766Y-252937*
X-63471Y-253611*
X-62240Y-254395*
X-61082Y-255284*
X-60006Y-256270*
X-59020Y-257346*
X-58131Y-258504*
X-57347Y-259735*
X-56673Y-261030*
X-56114Y-262379*
X-55676Y-263771*
X-55359Y-265196*
X-55169Y-266643*
X-55105Y-268102*
X-55169Y-269560*
X-55359Y-271007*
X-55676Y-272432*
X-57555Y-279445*
X-57592Y-279613*
X-57614Y-279783*
X-57622Y-279955*
X-57614Y-280126*
X-57592Y-280297*
X-57555Y-280465*
X-57503Y-280628*
X-57437Y-280787*
X-57358Y-280939*
X-57266Y-281084*
X-57161Y-281220*
X-57045Y-281347*
X-56919Y-281463*
X-56782Y-281567*
X-56637Y-281660*
X-56485Y-281739*
X-56326Y-281805*
X-56163Y-281856*
X-56037Y-281886*
X-51831Y-282689*
X-51676Y-282724*
X-51513Y-282776*
X-51354Y-282841*
X-51202Y-282921*
X-51057Y-283013*
X-50921Y-283117*
X-50794Y-283233*
X-50678Y-283360*
X-50574Y-283496*
X-50481Y-283641*
X-50402Y-283794*
X-50336Y-283952*
X-50285Y-284116*
X-50247Y-284283*
X-50225Y-284454*
X-50217Y-284626*
X-50225Y-284797*
X-50247Y-284967*
X-50589Y-286906*
X-50612Y-287076*
X-50619Y-287248*
X-50612Y-287419*
X-50589Y-287590*
X-50552Y-287757*
X-50500Y-287921*
X-50435Y-288080*
X-50356Y-288232*
X-50263Y-288377*
X-50159Y-288513*
X-50043Y-288640*
X-49916Y-288756*
X-49780Y-288860*
X-49635Y-288952*
X-49483Y-289032*
X-49324Y-289098*
X-49160Y-289149*
X-48980Y-289189*
X-23589Y-292357*
X1982Y-293300*
X27537Y-292011*
X48980Y-289189*
X49147Y-289153*
X49311Y-289102*
X49470Y-289037*
X49623Y-288959*
X49769Y-288868*
X49906Y-288764*
X50033Y-288649*
X50150Y-288523*
X50256Y-288388*
X50349Y-288244*
X50429Y-288092*
X50496Y-287933*
X50548Y-287770*
X50587Y-287603*
X50611Y-287433*
X50619Y-287261*
X50613Y-287089*
X50589Y-286906*
X50247Y-284967*
X50226Y-284810*
X50218Y-284639*
X50224Y-284467*
X50245Y-284297*
X50281Y-284129*
X50332Y-283965*
X50396Y-283806*
X50474Y-283653*
X50566Y-283507*
X50670Y-283370*
X50785Y-283243*
X50911Y-283126*
X51046Y-283021*
X51190Y-282928*
X51342Y-282847*
X51500Y-282780*
X51664Y-282728*
X51831Y-282689*
X76272Y-277096*
X96457Y-270731*
X96609Y-270685*
X96776Y-270647*
X96947Y-270625*
X97119Y-270617*
X97290Y-270625*
X97460Y-270647*
X97628Y-270685*
X97792Y-270736*
X97950Y-270802*
X98102Y-270881*
X98247Y-270973*
X98383Y-271078*
X98510Y-271194*
X98626Y-271320*
X98731Y-271457*
X98823Y-271602*
X98902Y-271754*
X98968Y-271913*
X99641Y-273763*
X99707Y-273921*
X99786Y-274074*
X99879Y-274218*
X99983Y-274354*
X100099Y-274481*
X100226Y-274597*
X100362Y-274702*
X100507Y-274794*
X100659Y-274873*
X100818Y-274939*
X100981Y-274991*
X101149Y-275028*
X101320Y-275050*
X101491Y-275058*
X101663Y-275050*
X101833Y-275028*
X102001Y-274991*
X102177Y-274934*
X125750Y-264983*
X148367Y-253015*
X169854Y-239121*
X187012Y-225955*
X187139Y-225840*
X187256Y-225714*
X187361Y-225578*
X187455Y-225434*
X187535Y-225283*
X187602Y-225124*
X187655Y-224961*
X187693Y-224793*
X187717Y-224623*
X187725Y-224452*
X187719Y-224280*
X187698Y-224110*
X187661Y-223942*
X187611Y-223778*
X187546Y-223619*
X187468Y-223466*
X187377Y-223320*
X187265Y-223173*
X185999Y-221665*
X185902Y-221540*
X185809Y-221396*
X185729Y-221244*
X185662Y-221086*
X185609Y-220922*
X185571Y-220755*
X185547Y-220585*
X185539Y-220413*
X185545Y-220242*
X185566Y-220071*
X185602Y-219903*
X185653Y-219739*
X185717Y-219580*
X185796Y-219427*
X185887Y-219282*
X185991Y-219145*
X186106Y-219017*
X186231Y-218900*
X204601Y-201836*
X218900Y-186231*
X219008Y-186115*
X219135Y-185999*
X219271Y-185894*
X219416Y-185802*
X219568Y-185723*
X219727Y-185657*
X219891Y-185606*
X220058Y-185569*
X220228Y-185546*
X220400Y-185539*
X220571Y-185546*
X220742Y-185569*
X220909Y-185606*
X221073Y-185657*
X221232Y-185723*
X221384Y-185802*
X221529Y-185894*
X221665Y-185999*
X223173Y-187265*
X223309Y-187369*
X223454Y-187461*
X223607Y-187541*
X223765Y-187606*
X223929Y-187658*
X224097Y-187695*
X224267Y-187718*
X224439Y-187725*
X224610Y-187718*
X224780Y-187695*
X224948Y-187658*
X225112Y-187606*
X225270Y-187541*
X225423Y-187461*
X225568Y-187369*
X225704Y-187265*
X225830Y-187148*
X225955Y-187012*
X241394Y-166607*
X254996Y-144934*
X266658Y-122158*
X274934Y-102177*
X274987Y-102013*
X275026Y-101846*
X275049Y-101676*
X275057Y-101504*
X275051Y-101333*
X275030Y-101163*
X274994Y-100994*
X274943Y-100830*
X274879Y-100671*
X274800Y-100519*
X274709Y-100373*
X274606Y-100236*
X274491Y-100109*
X274365Y-99992*
X274229Y-99886*
X274085Y-99793*
X273933Y-99713*
X273763Y-99641*
X271913Y-98968*
X271766Y-98908*
X271613Y-98830*
X271468Y-98739*
X271331Y-98635*
X271204Y-98520*
X271087Y-98394*
X270981Y-98258*
X270888Y-98114*
X270807Y-97962*
X270741Y-97804*
X270688Y-97641*
X270650Y-97473*
X270626Y-97303*
X270617Y-97132*
X270624Y-96960*
X270645Y-96790*
X270681Y-96622*
X270731Y-96457*
X272139Y-92413*
X272187Y-92248*
X272220Y-92080*
X272239Y-91909*
X272243Y-91738*
X272231Y-91566*
X272206Y-91396*
X272165Y-91230*
X272109Y-91067*
X272040Y-90910*
X271958Y-90759*
X271862Y-90617*
X271755Y-90483*
X271636Y-90359*
X271507Y-90245*
X271369Y-90144*
X271222Y-90055*
X271068Y-89979*
X270907Y-89917*
X270784Y-89879*
X263771Y-88000*
X262379Y-87561*
X261030Y-87002*
X259735Y-86328*
X258504Y-85544*
X257346Y-84655*
X256270Y-83669*
X255284Y-82593*
X254395Y-81435*
X253611Y-80204*
X252937Y-78909*
X252378Y-77560*
X251939Y-76168*
X251623Y-74743*
X251433Y-73296*
X251369Y-71837*
X251433Y-70379*
X251623Y-68932*
X251939Y-67507*
X252378Y-66115*
X252937Y-64766*
X253611Y-63471*
X254395Y-62240*
X255284Y-61082*
X256270Y-60006*
X257346Y-59020*
X258504Y-58131*
X259735Y-57347*
X261030Y-56673*
X262379Y-56114*
X263771Y-55676*
X265196Y-55359*
X266643Y-55169*
X268102Y-55105*
X269560Y-55169*
X271007Y-55359*
X272432Y-55676*
X279445Y-57555*
X279613Y-57592*
X279783Y-57614*
X279955Y-57622*
X280126Y-57614*
X280297Y-57592*
X280465Y-57555*
X280628Y-57503*
X280787Y-57437*
X280939Y-57358*
X281084Y-57266*
X281220Y-57161*
X281347Y-57045*
X281463Y-56919*
X281567Y-56782*
X281660Y-56637*
X281739Y-56485*
X281805Y-56326*
X281856Y-56163*
X281886Y-56037*
X282689Y-51831*
X282724Y-51676*
X282776Y-51513*
X282841Y-51354*
X282921Y-51202*
X283013Y-51057*
X283117Y-50921*
X283233Y-50794*
X283360Y-50678*
X283496Y-50574*
X283641Y-50481*
X283794Y-50402*
X283952Y-50336*
X284116Y-50285*
X284283Y-50247*
X284454Y-50225*
X284626Y-50217*
X284797Y-50225*
X284967Y-50247*
X286906Y-50589*
X287076Y-50612*
X287248Y-50619*
X287419Y-50612*
X287590Y-50589*
X287757Y-50552*
X287921Y-50500*
X288080Y-50435*
X288232Y-50356*
X288377Y-50263*
X288513Y-50159*
X288640Y-50043*
X288756Y-49916*
X288860Y-49780*
X288952Y-49635*
X289032Y-49483*
X289098Y-49324*
X289149Y-49160*
X289189Y-48980*
X292357Y-23589*
X293300Y1982*
X292011Y27537*
X289189Y48980*
X289153Y49147*
X289102Y49311*
X289037Y49470*
X288959Y49623*
X288868Y49769*
X288764Y49906*
X288649Y50033*
X288523Y50150*
X288388Y50256*
X288244Y50349*
X288092Y50429*
X287933Y50496*
X287770Y50548*
X287603Y50587*
X287433Y50611*
X287261Y50619*
X287089Y50613*
X286906Y50589*
X284967Y50247*
X284810Y50226*
X284639Y50218*
X284467Y50224*
X284297Y50245*
X284129Y50281*
X283965Y50332*
X283806Y50396*
X283653Y50474*
X283507Y50566*
X283370Y50670*
X283243Y50785*
X283126Y50911*
X283021Y51046*
X282928Y51190*
X282847Y51342*
X282780Y51500*
X282728Y51664*
X282689Y51831*
X277096Y76272*
X270731Y96457*
X270685Y96609*
X270647Y96776*
X270625Y96947*
X270617Y97119*
X270625Y97290*
X270647Y97460*
X270685Y97628*
X270736Y97792*
X270802Y97950*
X270881Y98102*
X270973Y98247*
X271078Y98383*
X271194Y98510*
X271320Y98626*
X271457Y98731*
X271602Y98823*
X271754Y98902*
X271913Y98968*
X273763Y99641*
X273921Y99707*
X274074Y99786*
X274218Y99879*
X274354Y99983*
X274481Y100099*
X274597Y100226*
X274702Y100362*
X274794Y100507*
X274873Y100659*
X274939Y100818*
X274991Y100981*
X275028Y101149*
X275050Y101320*
X275058Y101491*
X275050Y101663*
X275028Y101833*
X274991Y102001*
X274934Y102177*
X264983Y125750*
X253015Y148367*
X239121Y169854*
X225955Y187012*
X225840Y187139*
X225714Y187256*
X225578Y187361*
X225434Y187455*
X225283Y187535*
X225124Y187602*
X224961Y187655*
X224793Y187693*
X224623Y187717*
X224452Y187725*
X224280Y187719*
X224110Y187698*
X223942Y187661*
X223778Y187611*
X223619Y187546*
X223466Y187468*
X223320Y187377*
X223173Y187265*
X221665Y185999*
X221540Y185902*
X221396Y185809*
X221244Y185729*
X221086Y185662*
X220922Y185609*
X220755Y185571*
X220585Y185547*
X220413Y185539*
X220242Y185545*
X220071Y185566*
X219903Y185602*
X219739Y185653*
X219580Y185717*
X219427Y185796*
X219282Y185887*
X219145Y185991*
X219017Y186106*
X218900Y186231*
X201836Y204601*
X186231Y218900*
X186115Y219008*
X185999Y219135*
X185894Y219271*
X185802Y219416*
X185723Y219568*
X185657Y219727*
X185606Y219891*
X185569Y220058*
X185546Y220228*
X185539Y220400*
X185546Y220571*
X185569Y220742*
X185606Y220909*
X185657Y221073*
X185723Y221232*
X185802Y221384*
X185894Y221529*
X185999Y221665*
X187265Y223173*
X187369Y223309*
X187461Y223454*
X187541Y223607*
X187606Y223765*
X187658Y223929*
X187695Y224097*
X187718Y224267*
X187725Y224439*
X187718Y224610*
X187695Y224780*
X187658Y224948*
X187606Y225112*
X187541Y225270*
X187461Y225423*
X187369Y225568*
X187265Y225704*
X187148Y225830*
X187012Y225955*
X166607Y241394*
X144934Y254996*
X122158Y266658*
X102177Y274934*
X102013Y274987*
X101846Y275026*
X101676Y275049*
X101504Y275057*
X101333Y275051*
X101163Y275030*
X100994Y274994*
X100830Y274943*
X100671Y274879*
X100519Y274800*
X100373Y274709*
X100236Y274606*
X100109Y274491*
X99992Y274365*
X99886Y274229*
X99793Y274085*
X99713Y273933*
X99641Y273763*
X98968Y271913*
X98908Y271766*
X98830Y271613*
X98739Y271468*
X98635Y271331*
X98520Y271204*
X98394Y271087*
X98258Y270981*
X98114Y270888*
X97962Y270807*
X97804Y270741*
X97641Y270688*
X97473Y270650*
X97303Y270626*
X97132Y270617*
X96960Y270624*
X96790Y270645*
X96622Y270681*
X96457Y270731*
X92413Y272139*
X92248Y272187*
X92080Y272220*
X91909Y272239*
X91738Y272243*
X91566Y272231*
X91396Y272206*
X91230Y272165*
X91067Y272109*
X90910Y272040*
X90759Y271958*
X90617Y271862*
X90483Y271755*
X90359Y271636*
X90245Y271507*
X90144Y271369*
X90055Y271222*
X89979Y271068*
X89917Y270907*
X89879Y270784*
X88000Y263771*
X87561Y262379*
X87002Y261030*
X86328Y259735*
X85544Y258504*
X84655Y257346*
X83669Y256270*
X82593Y255284*
X81435Y254395*
X80204Y253611*
X78909Y252937*
X77560Y252378*
X76168Y251939*
X74743Y251623*
X73296Y251433*
X71837Y251369*
X70379Y251433*
X68932Y251623*
X67507Y251939*
X66115Y252378*
X64766Y252937*
X63471Y253611*
X62240Y254395*
X61082Y255284*
X60006Y256270*
X59020Y257346*
X58131Y258504*
X57347Y259735*
X56673Y261030*
X56114Y262379*
X55676Y263771*
X55359Y265196*
X55169Y266643*
X55105Y268102*
X55169Y269560*
X55359Y271007*
X55676Y272432*
X57555Y279445*
X57592Y279613*
X57614Y279783*
X57622Y279955*
X57614Y280126*
X57592Y280297*
X57555Y280465*
X57503Y280628*
X57437Y280787*
X57358Y280939*
X57266Y281084*
X57161Y281220*
X57045Y281347*
X56919Y281463*
X56782Y281567*
X56637Y281660*
X56485Y281739*
X56326Y281805*
X56163Y281856*
X56037Y281886*
X51831Y282689*
X51676Y282724*
X51513Y282776*
X51354Y282841*
X51202Y282921*
X51057Y283013*
X50921Y283117*
X50794Y283233*
X50678Y283360*
X50574Y283496*
X50481Y283641*
X50402Y283794*
X50336Y283952*
X50285Y284116*
X50247Y284283*
X50225Y284454*
X50217Y284626*
X50225Y284797*
X50247Y284967*
X50589Y286906*
X50612Y287076*
X50619Y287248*
X50612Y287419*
X50589Y287590*
X50552Y287757*
X50500Y287921*
X50435Y288080*
X50356Y288232*
X50263Y288377*
X50159Y288513*
X50043Y288640*
X49916Y288756*
X49780Y288860*
X49635Y288952*
X49483Y289032*
X49324Y289098*
X49160Y289149*
X48980Y289189*
X23589Y292357*
X-1982Y293300*
X-27537Y292011*
X-48980Y289189*
X-49147Y289153*
X-49311Y289102*
X-49470Y289037*
X-49623Y288959*
X-49769Y288868*
X-49906Y288764*
X-50033Y288649*
X-50150Y288523*
X-50256Y288388*
X-50349Y288244*
X-50429Y288092*
X-50496Y287933*
X-50548Y287770*
X-50587Y287603*
X-50611Y287433*
X-50619Y287261*
X-50613Y287089*
X-50589Y286906*
X-50247Y284967*
X-50226Y284810*
X-50218Y284639*
X-50224Y284467*
X-50245Y284297*
X-50281Y284129*
X-50332Y283965*
X-50396Y283806*
X-50474Y283653*
X-50566Y283507*
X-50670Y283370*
X-50785Y283243*
X-50911Y283126*
X-51046Y283021*
X-51190Y282928*
X-51342Y282847*
X-51500Y282780*
X-51664Y282728*
X-51831Y282689*
X-76272Y277096*
X-96457Y270731*
X-96609Y270685*
X-96776Y270647*
X-96947Y270625*
X-97119Y270617*
X-97290Y270625*
X-97460Y270647*
X-97628Y270685*
X-97792Y270736*
X-97950Y270802*
X-98102Y270881*
X-98247Y270973*
X-98383Y271078*
X-98510Y271194*
X-98626Y271320*
X-98731Y271457*
X-98823Y271602*
X-98902Y271754*
X-98968Y271913*
X-99641Y273763*
X-99707Y273921*
X-99786Y274074*
X-99879Y274218*
X-99983Y274354*
X-100099Y274481*
X-100226Y274597*
X-100362Y274702*
X-100507Y274794*
X-100659Y274873*
X-100818Y274939*
X-100981Y274991*
X-101149Y275028*
X-101320Y275050*
X-101491Y275058*
X-101663Y275050*
X-101833Y275028*
X-102001Y274991*
X-102177Y274934*
X-125750Y264983*
X-148367Y253015*
X-169854Y239121*
X-187012Y225955*
X-187139Y225840*
X-187256Y225714*
X-187361Y225578*
X-187455Y225434*
X-187535Y225283*
X-187602Y225124*
X-187655Y224961*
X-187693Y224793*
X-187717Y224623*
X-187725Y224452*
X-187719Y224280*
X-187698Y224110*
X-187661Y223942*
X-187611Y223778*
X-187546Y223619*
X-187468Y223466*
X-187377Y223320*
X-187265Y223173*
X-185999Y221665*
X-185902Y221540*
X-185809Y221396*
X-185729Y221244*
X-185662Y221086*
X-185609Y220922*
X-185571Y220755*
X-185547Y220585*
X-185539Y220413*
X-185545Y220242*
X-185566Y220071*
X-185602Y219903*
X-185653Y219739*
X-185717Y219580*
X-185796Y219427*
X-185887Y219282*
X-185991Y219145*
X-186106Y219017*
X-186231Y218900*
X-204601Y201836*
X-218900Y186231*
X-219008Y186115*
X-219135Y185999*
X-219271Y185894*
X-219416Y185802*
X-219568Y185723*
X-219727Y185657*
X-219891Y185606*
X-220058Y185569*
X-220228Y185546*
X-220400Y185539*
X-220571Y185546*
X-220742Y185569*
X-220909Y185606*
X-221073Y185657*
X-221232Y185723*
X-221384Y185802*
X-221529Y185894*
X-221665Y185999*
X-223173Y187265*
X-223309Y187369*
X-223454Y187461*
X-223607Y187541*
X-223765Y187606*
X-223929Y187658*
X-224097Y187695*
X-224267Y187718*
X-224439Y187725*
X-224610Y187718*
X-224780Y187695*
X-224948Y187658*
X-225112Y187606*
X-225270Y187541*
X-225423Y187461*
X-225568Y187369*
X-225704Y187265*
X-225830Y187148*
X-225955Y187012*
X-241394Y166607*
X-254996Y144934*
X-266658Y122158*
X-274934Y102177*
X-274987Y102013*
X-275026Y101846*
X-275049Y101676*
X-275057Y101504*
X-275051Y101333*
X-275030Y101163*
X-274994Y100994*
X-274943Y100830*
X-274879Y100671*
X-274800Y100519*
X-274709Y100373*
X-274606Y100236*
X-274491Y100109*
X-274365Y99992*
X-274229Y99886*
X-274085Y99793*
X-273933Y99713*
X-273763Y99641*
X-271913Y98968*
X-271766Y98908*
X-271613Y98830*
X-271468Y98739*
X-271331Y98635*
X-271204Y98520*
X-271087Y98394*
X-270981Y98258*
X-270888Y98114*
X-270807Y97962*
X-270741Y97804*
X-270688Y97641*
X-270650Y97473*
X-270626Y97303*
X-270617Y97132*
X-270624Y96960*
X-270645Y96790*
X-270681Y96622*
X-270731Y96457*
X-272139Y92413*
X-272187Y92248*
X-272220Y92080*
X-272239Y91909*
X-272243Y91738*
X-272231Y91566*
X-272206Y91396*
X-272165Y91230*
X-272109Y91067*
X-272040Y90910*
X-271958Y90759*
X-271862Y90617*
X-271755Y90483*
X-271636Y90359*
X-271507Y90245*
X-271369Y90144*
X-271222Y90055*
X-271068Y89979*
X-270907Y89917*
X-270784Y89879*
X-263771Y88000*
X-262379Y87561*
X-261030Y87002*
X-259735Y86328*
X-258504Y85544*
X-257346Y84655*
X-256270Y83669*
X-255284Y82593*
X-254395Y81435*
X-253611Y80204*
X-252937Y78909*
X-252378Y77560*
X-251939Y76168*
X-251623Y74743*
X-251433Y73296*
X-251369Y71837*
X-251433Y70379*
X-251623Y68932*
X-251939Y67507*
X-252378Y66115*
X-252937Y64766*
X-253611Y63471*
X-254395Y62240*
X-255284Y61082*
X-256270Y60006*
X-257346Y59020*
X-258504Y58131*
X-259735Y57347*
X-261030Y56673*
X-262379Y56114*
X-263771Y55676*
X-265196Y55359*
X-266643Y55169*
X-268102Y55105*
X-269560Y55169*
X-271007Y55359*
X-272432Y55676*
X-279445Y57555*
X-279613Y57592*
X-279783Y57614*
X-279955Y57622*
X-280126Y57614*
X-280297Y57592*
X-280465Y57555*
X-280628Y57503*
X-280787Y57437*
X-280939Y57358*
X-281084Y57266*
X-281220Y57161*
X-281347Y57045*
X-281463Y56919*
X-281567Y56782*
X-281660Y56637*
X-281739Y56485*
X-281805Y56326*
X-281856Y56163*
X-281886Y56037*
X-282689Y51831*
X-282724Y51676*
X-282776Y51513*
X-282841Y51354*
X-282921Y51202*
X-283013Y51057*
X-283117Y50921*
X-283233Y50794*
X-283360Y50678*
X-283496Y50574*
X-283641Y50481*
X-283794Y50402*
X-283952Y50336*
X-284116Y50285*
X-284283Y50247*
X-284454Y50225*
X-284626Y50217*
X-284797Y50225*
X-284967Y50247*
X-286906Y50589*
X-287076Y50612*
X-287248Y50619*
X-287419Y50612*
X-287590Y50589*
X-287757Y50552*
X-287921Y50500*
X-288080Y50435*
X-288232Y50356*
X-288377Y50263*
X-288513Y50159*
X-288640Y50043*
X-288756Y49916*
X-288860Y49780*
X-288952Y49635*
X-289032Y49483*
X-289098Y49324*
X-289149Y49160*
X-289189Y48980*
X-292357Y23589*
X-293300Y-1982*
X-292011Y-27537*
X-289189Y-48980*
X-289153Y-49147*
X-289102Y-49311*
X-289037Y-49470*
X-288959Y-49623*
X-288868Y-49769*
X-288764Y-49906*
X-288649Y-50033*
X-288523Y-50150*
X-288388Y-50256*
X-288244Y-50349*
X-288092Y-50429*
X-287933Y-50496*
X-287770Y-50548*
X-287603Y-50587*
X-287433Y-50611*
X-287261Y-50619*
X-287089Y-50613*
X-286906Y-50589*
X-284967Y-50247*
X-284810Y-50226*
X-284639Y-50218*
X-284467Y-50224*
X-284297Y-50245*
X-284129Y-50281*
X-283965Y-50332*
X-283806Y-50396*
X-283653Y-50474*
X-283507Y-50566*
X-283370Y-50670*
X-283243Y-50785*
X-283126Y-50911*
X-283021Y-51046*
X-282928Y-51190*
X-282847Y-51342*
X-282780Y-51500*
X-282728Y-51664*
X-282689Y-51831*
X-277096Y-76272*
X-270731Y-96457*
X-114173Y0D02*
G75*
G03X114173Y0I114173D01*
Y0D02*
G03X-114173Y0I-114173D01*
X323757Y-96457D02*
G01X323803Y-96609D01*
X323841Y-96776*
X323863Y-96947*
X323871Y-97119*
X323863Y-97290*
X323841Y-97460*
X323803Y-97628*
X323752Y-97792*
X323686Y-97950*
X323607Y-98102*
X323515Y-98247*
X323410Y-98383*
X323294Y-98510*
X323168Y-98626*
X323031Y-98731*
X322886Y-98823*
X322734Y-98902*
X322575Y-98968*
X320725Y-99641*
X320567Y-99707*
X320414Y-99786*
X320270Y-99879*
X320134Y-99983*
X320007Y-100099*
X319891Y-100226*
X319786Y-100362*
X319694Y-100507*
X319615Y-100659*
X319549Y-100818*
X319497Y-100981*
X319460Y-101149*
X319438Y-101320*
X319430Y-101491*
X319438Y-101663*
X319460Y-101833*
X319497Y-102001*
X319554Y-102177*
X329505Y-125750*
X341473Y-148367*
X355367Y-169854*
X368533Y-187012*
X368648Y-187139*
X368774Y-187256*
X368910Y-187361*
X369054Y-187455*
X369205Y-187535*
X369364Y-187602*
X369527Y-187655*
X369695Y-187693*
X369865Y-187717*
X370036Y-187725*
X370208Y-187719*
X370378Y-187698*
X370546Y-187661*
X370710Y-187611*
X370869Y-187546*
X371022Y-187468*
X371168Y-187377*
X371315Y-187265*
X372823Y-185999*
X372948Y-185902*
X373092Y-185809*
X373244Y-185729*
X373402Y-185662*
X373566Y-185609*
X373733Y-185571*
X373903Y-185547*
X374075Y-185539*
X374246Y-185545*
X374417Y-185566*
X374585Y-185602*
X374749Y-185653*
X374908Y-185717*
X375061Y-185796*
X375206Y-185887*
X375343Y-185991*
X375471Y-186106*
X375588Y-186231*
X392652Y-204601*
X408257Y-218900*
X408373Y-219008*
X408489Y-219135*
X408594Y-219271*
X408686Y-219416*
X408765Y-219568*
X408831Y-219727*
X408882Y-219891*
X408919Y-220058*
X408942Y-220228*
X408949Y-220400*
X408942Y-220571*
X408919Y-220742*
X408882Y-220909*
X408831Y-221073*
X408765Y-221232*
X408686Y-221384*
X408594Y-221529*
X408489Y-221665*
X407223Y-223173*
X407119Y-223309*
X407027Y-223454*
X406947Y-223607*
X406882Y-223765*
X406830Y-223929*
X406793Y-224097*
X406770Y-224267*
X406763Y-224439*
X406770Y-224610*
X406793Y-224780*
X406830Y-224948*
X406882Y-225112*
X406947Y-225270*
X407027Y-225423*
X407119Y-225568*
X407223Y-225704*
X407340Y-225830*
X407476Y-225955*
X427881Y-241394*
X449554Y-254996*
X472330Y-266658*
X492311Y-274934*
X492475Y-274987*
X492642Y-275026*
X492812Y-275049*
X492984Y-275057*
X493155Y-275051*
X493325Y-275030*
X493494Y-274994*
X493658Y-274943*
X493817Y-274879*
X493969Y-274800*
X494115Y-274709*
X494252Y-274606*
X494379Y-274491*
X494496Y-274365*
X494602Y-274229*
X494695Y-274085*
X494775Y-273933*
X494847Y-273763*
X495520Y-271913*
X495580Y-271766*
X495658Y-271613*
X495749Y-271468*
X495853Y-271331*
X495968Y-271204*
X496094Y-271087*
X496230Y-270981*
X496374Y-270888*
X496526Y-270807*
X496684Y-270741*
X496847Y-270688*
X497015Y-270650*
X497185Y-270626*
X497356Y-270617*
X497528Y-270624*
X497698Y-270645*
X497866Y-270681*
X498031Y-270731*
X502075Y-272139*
X502240Y-272187*
X502408Y-272220*
X502579Y-272239*
X502750Y-272243*
X502922Y-272231*
X503092Y-272206*
X503258Y-272165*
X503421Y-272109*
X503578Y-272040*
X503729Y-271958*
X503871Y-271862*
X504005Y-271755*
X504129Y-271636*
X504243Y-271507*
X504344Y-271369*
X504433Y-271222*
X504509Y-271068*
X504571Y-270907*
X504609Y-270784*
X506488Y-263771*
X506927Y-262379*
X507486Y-261030*
X508160Y-259735*
X508944Y-258504*
X509833Y-257346*
X510819Y-256270*
X511895Y-255284*
X513053Y-254395*
X514284Y-253611*
X515579Y-252937*
X516928Y-252378*
X518320Y-251939*
X519745Y-251623*
X521192Y-251433*
X522651Y-251369*
X524109Y-251433*
X525556Y-251623*
X526981Y-251939*
X528373Y-252378*
X529722Y-252937*
X531017Y-253611*
X532248Y-254395*
X533406Y-255284*
X534482Y-256270*
X535468Y-257346*
X536357Y-258504*
X537141Y-259735*
X537815Y-261030*
X538374Y-262379*
X538812Y-263771*
X539129Y-265196*
X539319Y-266643*
X539383Y-268102*
X539319Y-269560*
X539129Y-271007*
X538812Y-272432*
X536933Y-279445*
X536896Y-279613*
X536874Y-279783*
X536866Y-279955*
X536874Y-280126*
X536896Y-280297*
X536933Y-280465*
X536985Y-280628*
X537051Y-280787*
X537130Y-280939*
X537222Y-281084*
X537327Y-281220*
X537443Y-281347*
X537569Y-281463*
X537706Y-281567*
X537851Y-281660*
X538003Y-281739*
X538162Y-281805*
X538325Y-281856*
X538451Y-281886*
X542657Y-282689*
X542812Y-282724*
X542975Y-282776*
X543134Y-282841*
X543286Y-282921*
X543431Y-283013*
X543567Y-283117*
X543694Y-283233*
X543810Y-283360*
X543914Y-283496*
X544007Y-283641*
X544086Y-283794*
X544152Y-283952*
X544203Y-284116*
X544241Y-284283*
X544263Y-284454*
X544271Y-284626*
X544263Y-284797*
X544241Y-284967*
X543899Y-286906*
X543876Y-287076*
X543869Y-287248*
X543876Y-287419*
X543899Y-287590*
X543936Y-287757*
X543988Y-287921*
X544053Y-288080*
X544132Y-288232*
X544225Y-288377*
X544329Y-288513*
X544445Y-288640*
X544572Y-288756*
X544708Y-288860*
X544853Y-288952*
X545005Y-289032*
X545164Y-289098*
X545328Y-289149*
X545508Y-289189*
X570899Y-292357*
X596470Y-293300*
X622025Y-292011*
X643468Y-289189*
X643635Y-289153*
X643799Y-289102*
X643958Y-289037*
X644111Y-288959*
X644257Y-288868*
X644394Y-288764*
X644521Y-288649*
X644638Y-288523*
X644744Y-288388*
X644837Y-288244*
X644917Y-288092*
X644984Y-287933*
X645036Y-287770*
X645075Y-287603*
X645099Y-287433*
X645107Y-287261*
X645101Y-287089*
X645077Y-286906*
X644735Y-284967*
X644714Y-284810*
X644706Y-284639*
X644712Y-284467*
X644733Y-284297*
X644769Y-284129*
X644820Y-283965*
X644884Y-283806*
X644962Y-283653*
X645054Y-283507*
X645158Y-283370*
X645273Y-283243*
X645399Y-283126*
X645534Y-283021*
X645678Y-282928*
X645830Y-282847*
X645988Y-282780*
X646152Y-282728*
X646319Y-282689*
X670760Y-277096*
X690945Y-270731*
X691097Y-270685*
X691264Y-270647*
X691435Y-270625*
X691607Y-270617*
X691778Y-270625*
X691948Y-270647*
X692116Y-270685*
X692280Y-270736*
X692438Y-270802*
X692590Y-270881*
X692735Y-270973*
X692871Y-271078*
X692998Y-271194*
X693114Y-271320*
X693219Y-271457*
X693311Y-271602*
X693390Y-271754*
X693456Y-271913*
X694129Y-273763*
X694195Y-273921*
X694274Y-274074*
X694367Y-274218*
X694471Y-274354*
X694587Y-274481*
X694714Y-274597*
X694850Y-274702*
X694995Y-274794*
X695147Y-274873*
X695306Y-274939*
X695469Y-274991*
X695637Y-275028*
X695808Y-275050*
X695979Y-275058*
X696151Y-275050*
X696321Y-275028*
X696489Y-274991*
X696665Y-274934*
X720238Y-264983*
X742855Y-253015*
X764342Y-239121*
X781500Y-225955*
X781627Y-225840*
X781744Y-225714*
X781849Y-225578*
X781943Y-225434*
X782023Y-225283*
X782090Y-225124*
X782143Y-224961*
X782181Y-224793*
X782205Y-224623*
X782213Y-224452*
X782207Y-224280*
X782186Y-224110*
X782149Y-223942*
X782099Y-223778*
X782034Y-223619*
X781956Y-223466*
X781865Y-223320*
X781753Y-223173*
X780487Y-221665*
X780390Y-221540*
X780297Y-221396*
X780217Y-221244*
X780150Y-221086*
X780097Y-220922*
X780059Y-220755*
X780035Y-220585*
X780027Y-220413*
X780033Y-220242*
X780054Y-220071*
X780090Y-219903*
X780141Y-219739*
X780205Y-219580*
X780284Y-219427*
X780375Y-219282*
X780479Y-219145*
X780594Y-219017*
X780719Y-218900*
X799089Y-201836*
X813388Y-186231*
X813496Y-186115*
X813623Y-185999*
X813759Y-185894*
X813904Y-185802*
X814056Y-185723*
X814215Y-185657*
X814379Y-185606*
X814546Y-185569*
X814716Y-185546*
X814888Y-185539*
X815059Y-185546*
X815230Y-185569*
X815397Y-185606*
X815561Y-185657*
X815720Y-185723*
X815872Y-185802*
X816017Y-185894*
X816153Y-185999*
X817661Y-187265*
X817797Y-187369*
X817942Y-187461*
X818095Y-187541*
X818253Y-187606*
X818417Y-187658*
X818585Y-187695*
X818755Y-187718*
X818927Y-187725*
X819098Y-187718*
X819268Y-187695*
X819436Y-187658*
X819600Y-187606*
X819758Y-187541*
X819911Y-187461*
X820056Y-187369*
X820192Y-187265*
X820318Y-187148*
X820443Y-187012*
X835882Y-166607*
X849484Y-144934*
X861146Y-122158*
X869422Y-102177*
X869475Y-102013*
X869514Y-101846*
X869537Y-101676*
X869545Y-101504*
X869539Y-101333*
X869518Y-101163*
X869482Y-100994*
X869431Y-100830*
X869367Y-100671*
X869288Y-100519*
X869197Y-100373*
X869094Y-100236*
X868979Y-100109*
X868853Y-99992*
X868717Y-99886*
X868573Y-99793*
X868421Y-99713*
X868251Y-99641*
X866401Y-98968*
X866254Y-98908*
X866101Y-98830*
X865956Y-98739*
X865819Y-98635*
X865692Y-98520*
X865575Y-98394*
X865469Y-98258*
X865376Y-98114*
X865295Y-97962*
X865229Y-97804*
X865176Y-97641*
X865138Y-97473*
X865114Y-97303*
X865105Y-97132*
X865112Y-96960*
X865133Y-96790*
X865169Y-96622*
X865219Y-96457*
X866627Y-92413*
X866675Y-92248*
X866708Y-92080*
X866727Y-91909*
X866731Y-91738*
X866719Y-91566*
X866694Y-91396*
X866653Y-91230*
X866597Y-91067*
X866528Y-90910*
X866446Y-90759*
X866350Y-90617*
X866243Y-90483*
X866124Y-90359*
X865995Y-90245*
X865857Y-90144*
X865710Y-90055*
X865556Y-89979*
X865395Y-89917*
X865272Y-89879*
X858259Y-88000*
X856867Y-87561*
X855518Y-87002*
X854223Y-86328*
X852992Y-85544*
X851834Y-84655*
X850758Y-83669*
X849772Y-82593*
X848883Y-81435*
X848099Y-80204*
X847425Y-78909*
X846866Y-77560*
X846427Y-76168*
X846111Y-74743*
X845921Y-73296*
X845857Y-71837*
X845921Y-70379*
X846111Y-68932*
X846427Y-67507*
X846866Y-66115*
X847425Y-64766*
X848099Y-63471*
X848883Y-62240*
X849772Y-61082*
X850758Y-60006*
X851834Y-59020*
X852992Y-58131*
X854223Y-57347*
X855518Y-56673*
X856867Y-56114*
X858259Y-55676*
X859684Y-55359*
X861131Y-55169*
X862590Y-55105*
X864048Y-55169*
X865495Y-55359*
X866920Y-55676*
X873933Y-57555*
X874101Y-57592*
X874271Y-57614*
X874443Y-57622*
X874614Y-57614*
X874785Y-57592*
X874953Y-57555*
X875116Y-57503*
X875275Y-57437*
X875427Y-57358*
X875572Y-57266*
X875708Y-57161*
X875835Y-57045*
X875951Y-56919*
X876055Y-56782*
X876148Y-56637*
X876227Y-56485*
X876293Y-56326*
X876344Y-56163*
X876374Y-56037*
X877177Y-51831*
X877212Y-51676*
X877264Y-51513*
X877329Y-51354*
X877409Y-51202*
X877501Y-51057*
X877605Y-50921*
X877721Y-50794*
X877848Y-50678*
X877984Y-50574*
X878129Y-50481*
X878282Y-50402*
X878440Y-50336*
X878604Y-50285*
X878771Y-50247*
X878942Y-50225*
X879114Y-50217*
X879285Y-50225*
X879455Y-50247*
X881394Y-50589*
X881564Y-50612*
X881736Y-50619*
X881907Y-50612*
X882078Y-50589*
X882245Y-50552*
X882409Y-50500*
X882568Y-50435*
X882720Y-50356*
X882865Y-50263*
X883001Y-50159*
X883128Y-50043*
X883244Y-49916*
X883348Y-49780*
X883440Y-49635*
X883520Y-49483*
X883586Y-49324*
X883637Y-49160*
X883677Y-48980*
X886845Y-23589*
X887788Y1982*
X886499Y27537*
X883677Y48980*
X883641Y49147*
X883590Y49311*
X883525Y49470*
X883447Y49623*
X883356Y49769*
X883252Y49906*
X883137Y50033*
X883011Y50150*
X882876Y50256*
X882732Y50349*
X882580Y50429*
X882421Y50496*
X882258Y50548*
X882091Y50587*
X881921Y50611*
X881749Y50619*
X881577Y50613*
X881394Y50589*
X879455Y50247*
X879298Y50226*
X879127Y50218*
X878955Y50224*
X878785Y50245*
X878617Y50281*
X878453Y50332*
X878294Y50396*
X878141Y50474*
X877995Y50566*
X877858Y50670*
X877731Y50785*
X877614Y50911*
X877509Y51046*
X877416Y51190*
X877335Y51342*
X877268Y51500*
X877216Y51664*
X877177Y51831*
X871584Y76272*
X865219Y96457*
X865173Y96609*
X865135Y96776*
X865113Y96947*
X865105Y97119*
X865113Y97290*
X865135Y97460*
X865173Y97628*
X865224Y97792*
X865290Y97950*
X865369Y98102*
X865461Y98247*
X865566Y98383*
X865682Y98510*
X865808Y98626*
X865945Y98731*
X866090Y98823*
X866242Y98902*
X866401Y98968*
X868251Y99641*
X868409Y99707*
X868562Y99786*
X868706Y99879*
X868842Y99983*
X868969Y100099*
X869085Y100226*
X869190Y100362*
X869282Y100507*
X869361Y100659*
X869427Y100818*
X869479Y100981*
X869516Y101149*
X869538Y101320*
X869546Y101491*
X869538Y101663*
X869516Y101833*
X869479Y102001*
X869422Y102177*
X859471Y125750*
X847503Y148367*
X833609Y169854*
X820443Y187012*
X820328Y187139*
X820202Y187256*
X820066Y187361*
X819922Y187455*
X819771Y187535*
X819612Y187602*
X819449Y187655*
X819281Y187693*
X819111Y187717*
X818940Y187725*
X818768Y187719*
X818598Y187698*
X818430Y187661*
X818266Y187611*
X818107Y187546*
X817954Y187468*
X817808Y187377*
X817661Y187265*
X816153Y185999*
X816028Y185902*
X815884Y185809*
X815732Y185729*
X815574Y185662*
X815410Y185609*
X815243Y185571*
X815073Y185547*
X814901Y185539*
X814730Y185545*
X814559Y185566*
X814391Y185602*
X814227Y185653*
X814068Y185717*
X813915Y185796*
X813770Y185887*
X813633Y185991*
X813505Y186106*
X813388Y186231*
X796324Y204601*
X780719Y218900*
X780603Y219008*
X780487Y219135*
X780382Y219271*
X780290Y219416*
X780211Y219568*
X780145Y219727*
X780094Y219891*
X780057Y220058*
X780034Y220228*
X780027Y220400*
X780034Y220571*
X780057Y220742*
X780094Y220909*
X780145Y221073*
X780211Y221232*
X780290Y221384*
X780382Y221529*
X780487Y221665*
X781753Y223173*
X781857Y223309*
X781949Y223454*
X782029Y223607*
X782094Y223765*
X782146Y223929*
X782183Y224097*
X782206Y224267*
X782213Y224439*
X782206Y224610*
X782183Y224780*
X782146Y224948*
X782094Y225112*
X782029Y225270*
X781949Y225423*
X781857Y225568*
X781753Y225704*
X781636Y225830*
X781500Y225955*
X761095Y241394*
X739422Y254996*
X716646Y266658*
X696665Y274934*
X696501Y274987*
X696334Y275026*
X696164Y275049*
X695992Y275057*
X695821Y275051*
X695651Y275030*
X695482Y274994*
X695318Y274943*
X695159Y274879*
X695007Y274800*
X694861Y274709*
X694724Y274606*
X694597Y274491*
X694480Y274365*
X694374Y274229*
X694281Y274085*
X694201Y273933*
X694129Y273763*
X693456Y271913*
X693396Y271766*
X693318Y271613*
X693227Y271468*
X693123Y271331*
X693008Y271204*
X692882Y271087*
X692746Y270981*
X692602Y270888*
X692450Y270807*
X692292Y270741*
X692129Y270688*
X691961Y270650*
X691791Y270626*
X691620Y270617*
X691448Y270624*
X691278Y270645*
X691110Y270681*
X690945Y270731*
X686901Y272139*
X686736Y272187*
X686568Y272220*
X686397Y272239*
X686226Y272243*
X686054Y272231*
X685884Y272206*
X685718Y272165*
X685555Y272109*
X685398Y272040*
X685247Y271958*
X685105Y271862*
X684971Y271755*
X684847Y271636*
X684733Y271507*
X684632Y271369*
X684543Y271222*
X684467Y271068*
X684405Y270907*
X684367Y270784*
X682488Y263771*
X682049Y262379*
X681490Y261030*
X680816Y259735*
X680032Y258504*
X679143Y257346*
X678157Y256270*
X677081Y255284*
X675923Y254395*
X674692Y253611*
X673397Y252937*
X672048Y252378*
X670656Y251939*
X669231Y251623*
X667784Y251433*
X666325Y251369*
X664867Y251433*
X663420Y251623*
X661995Y251939*
X660603Y252378*
X659254Y252937*
X657959Y253611*
X656728Y254395*
X655570Y255284*
X654494Y256270*
X653508Y257346*
X652619Y258504*
X651835Y259735*
X651161Y261030*
X650602Y262379*
X650164Y263771*
X649847Y265196*
X649657Y266643*
X649593Y268102*
X649657Y269560*
X649847Y271007*
X650164Y272432*
X652043Y279445*
X652080Y279613*
X652102Y279783*
X652110Y279955*
X652102Y280126*
X652080Y280297*
X652043Y280465*
X651991Y280628*
X651925Y280787*
X651846Y280939*
X651754Y281084*
X651649Y281220*
X651533Y281347*
X651407Y281463*
X651270Y281567*
X651125Y281660*
X650973Y281739*
X650814Y281805*
X650651Y281856*
X650525Y281886*
X646319Y282689*
X646164Y282724*
X646001Y282776*
X645842Y282841*
X645690Y282921*
X645545Y283013*
X645409Y283117*
X645282Y283233*
X645166Y283360*
X645062Y283496*
X644969Y283641*
X644890Y283794*
X644824Y283952*
X644773Y284116*
X644735Y284283*
X644713Y284454*
X644705Y284626*
X644713Y284797*
X644735Y284967*
X645077Y286906*
X645100Y287076*
X645107Y287248*
X645100Y287419*
X645077Y287590*
X645040Y287757*
X644988Y287921*
X644923Y288080*
X644844Y288232*
X644751Y288377*
X644647Y288513*
X644531Y288640*
X644404Y288756*
X644268Y288860*
X644123Y288952*
X643971Y289032*
X643812Y289098*
X643648Y289149*
X643468Y289189*
X618077Y292357*
X592506Y293300*
X566951Y292011*
X545508Y289189*
X545341Y289153*
X545177Y289102*
X545018Y289037*
X544865Y288959*
X544719Y288868*
X544582Y288764*
X544455Y288649*
X544338Y288523*
X544232Y288388*
X544139Y288244*
X544059Y288092*
X543992Y287933*
X543940Y287770*
X543901Y287603*
X543877Y287433*
X543869Y287261*
X543875Y287089*
X543899Y286906*
X544241Y284967*
X544262Y284810*
X544270Y284639*
X544264Y284467*
X544243Y284297*
X544207Y284129*
X544156Y283965*
X544092Y283806*
X544014Y283653*
X543922Y283507*
X543818Y283370*
X543703Y283243*
X543577Y283126*
X543442Y283021*
X543298Y282928*
X543146Y282847*
X542988Y282780*
X542824Y282728*
X542657Y282689*
X518216Y277096*
X498031Y270731*
X497879Y270685*
X497712Y270647*
X497541Y270625*
X497369Y270617*
X497198Y270625*
X497028Y270647*
X496860Y270685*
X496696Y270736*
X496538Y270802*
X496386Y270881*
X496241Y270973*
X496105Y271078*
X495978Y271194*
X495862Y271320*
X495757Y271457*
X495665Y271602*
X495586Y271754*
X495520Y271913*
X494847Y273763*
X494781Y273921*
X494702Y274074*
X494609Y274218*
X494505Y274354*
X494389Y274481*
X494262Y274597*
X494126Y274702*
X493981Y274794*
X493829Y274873*
X493670Y274939*
X493507Y274991*
X493339Y275028*
X493168Y275050*
X492997Y275058*
X492825Y275050*
X492655Y275028*
X492487Y274991*
X492311Y274934*
X468738Y264983*
X446121Y253015*
X424634Y239121*
X407476Y225955*
X407349Y225840*
X407232Y225714*
X407127Y225578*
X407033Y225434*
X406953Y225283*
X406886Y225124*
X406833Y224961*
X406795Y224793*
X406771Y224623*
X406763Y224452*
X406769Y224280*
X406790Y224110*
X406827Y223942*
X406877Y223778*
X406942Y223619*
X407020Y223466*
X407111Y223320*
X407223Y223173*
X408489Y221665*
X408586Y221540*
X408679Y221396*
X408759Y221244*
X408826Y221086*
X408879Y220922*
X408917Y220755*
X408941Y220585*
X408949Y220413*
X408943Y220242*
X408922Y220071*
X408886Y219903*
X408835Y219739*
X408771Y219580*
X408692Y219427*
X408601Y219282*
X408497Y219145*
X408382Y219017*
X408257Y218900*
X389887Y201836*
X375588Y186231*
X375480Y186115*
X375353Y185999*
X375217Y185894*
X375072Y185802*
X374920Y185723*
X374761Y185657*
X374597Y185606*
X374430Y185569*
X374260Y185546*
X374088Y185539*
X373917Y185546*
X373746Y185569*
X373579Y185606*
X373415Y185657*
X373256Y185723*
X373104Y185802*
X372959Y185894*
X372823Y185999*
X371315Y187265*
X371179Y187369*
X371034Y187461*
X370881Y187541*
X370723Y187606*
X370559Y187658*
X370391Y187695*
X370221Y187718*
X370049Y187725*
X369878Y187718*
X369708Y187695*
X369540Y187658*
X369376Y187606*
X369218Y187541*
X369065Y187461*
X368920Y187369*
X368784Y187265*
X368658Y187148*
X368533Y187012*
X353094Y166607*
X339492Y144934*
X327830Y122158*
X319554Y102177*
X319501Y102013*
X319462Y101846*
X319439Y101676*
X319431Y101504*
X319437Y101333*
X319458Y101163*
X319494Y100994*
X319545Y100830*
X319609Y100671*
X319688Y100519*
X319779Y100373*
X319882Y100236*
X319997Y100109*
X320123Y99992*
X320259Y99886*
X320403Y99793*
X320555Y99713*
X320725Y99641*
X322575Y98968*
X322722Y98908*
X322875Y98830*
X323020Y98739*
X323157Y98635*
X323284Y98520*
X323401Y98394*
X323507Y98258*
X323600Y98114*
X323681Y97962*
X323747Y97804*
X323800Y97641*
X323838Y97473*
X323862Y97303*
X323871Y97132*
X323864Y96960*
X323843Y96790*
X323807Y96622*
X323757Y96457*
X322349Y92413*
X322301Y92248*
X322268Y92080*
X322249Y91909*
X322245Y91738*
X322257Y91566*
X322282Y91396*
X322323Y91230*
X322379Y91067*
X322448Y90910*
X322530Y90759*
X322626Y90617*
X322733Y90483*
X322852Y90359*
X322981Y90245*
X323119Y90144*
X323266Y90055*
X323420Y89979*
X323581Y89917*
X323704Y89879*
X330717Y88000*
X332109Y87561*
X333458Y87002*
X334753Y86328*
X335984Y85544*
X337142Y84655*
X338218Y83669*
X339204Y82593*
X340093Y81435*
X340877Y80204*
X341551Y78909*
X342110Y77560*
X342549Y76168*
X342865Y74743*
X343055Y73296*
X343119Y71837*
X343055Y70379*
X342865Y68932*
X342549Y67507*
X342110Y66115*
X341551Y64766*
X340877Y63471*
X340093Y62240*
X339204Y61082*
X338218Y60006*
X337142Y59020*
X335984Y58131*
X334753Y57347*
X333458Y56673*
X332109Y56114*
X330717Y55676*
X329292Y55359*
X327845Y55169*
X326386Y55105*
X324928Y55169*
X323481Y55359*
X322056Y55676*
X315043Y57555*
X314875Y57592*
X314705Y57614*
X314533Y57622*
X314362Y57614*
X314191Y57592*
X314023Y57555*
X313860Y57503*
X313701Y57437*
X313549Y57358*
X313404Y57266*
X313268Y57161*
X313141Y57045*
X313025Y56919*
X312921Y56782*
X312828Y56637*
X312749Y56485*
X312683Y56326*
X312632Y56163*
X312602Y56037*
X311799Y51831*
X311764Y51676*
X311712Y51513*
X311647Y51354*
X311567Y51202*
X311475Y51057*
X311371Y50921*
X311255Y50794*
X311128Y50678*
X310992Y50574*
X310847Y50481*
X310694Y50402*
X310536Y50336*
X310372Y50285*
X310205Y50247*
X310034Y50225*
X309862Y50217*
X309691Y50225*
X309521Y50247*
X307582Y50589*
X307412Y50612*
X307240Y50619*
X307069Y50612*
X306898Y50589*
X306731Y50552*
X306567Y50500*
X306408Y50435*
X306256Y50356*
X306111Y50263*
X305975Y50159*
X305848Y50043*
X305732Y49916*
X305628Y49780*
X305536Y49635*
X305456Y49483*
X305390Y49324*
X305339Y49160*
X305299Y48980*
X302131Y23589*
X301188Y-1982*
X302477Y-27537*
X305299Y-48980*
X305335Y-49147*
X305386Y-49311*
X305451Y-49470*
X305529Y-49623*
X305620Y-49769*
X305724Y-49906*
X305839Y-50033*
X305965Y-50150*
X306100Y-50256*
X306244Y-50349*
X306396Y-50429*
X306555Y-50496*
X306718Y-50548*
X306885Y-50587*
X307055Y-50611*
X307227Y-50619*
X307399Y-50613*
X307582Y-50589*
X309521Y-50247*
X309678Y-50226*
X309849Y-50218*
X310021Y-50224*
X310191Y-50245*
X310359Y-50281*
X310523Y-50332*
X310682Y-50396*
X310835Y-50474*
X310981Y-50566*
X311118Y-50670*
X311245Y-50785*
X311362Y-50911*
X311467Y-51046*
X311560Y-51190*
X311641Y-51342*
X311708Y-51500*
X311760Y-51664*
X311799Y-51831*
X317392Y-76272*
X323757Y-96457*
X480315Y0D02*
G03X708661Y0I114173D01*
Y0D02*
G03X480315Y0I-114173D01*
M02*
