G04 CAM350 V9.0 (Build 156) Date:  Wed Jul 31 17:37:15 2019 *
G04 Database: C:\1\627\100.0000627.cam *
G04 Layer 1: 1000000627-TOP *
%FSLAX25Y25*%
%MOIN*%
%SFA1.000B1.000*%

%MIA0B0*%
%IPPOS*%
%AMMACRO21*
20,1,0.04400,0.01316,-0.00479,-0.01316,0.00479,0.00000*
%
%AMMACRO30_1*
20,1,0.02992,0.01221,-0.00444,-0.01221,0.00444,0.00000*
%
%AMMACRO20_1*
20,1,0.03937,0.01850,-0.00673,-0.01850,0.00673,0.00000*
1,1,0.03937,0.00673,0.01850*
1,1,0.03937,-0.00673,-0.01850*
%
%ADD10C,0.03937*%
%ADD12C,0.01000*%
%ADD16C,0.02756*%
%ADD23C,0.02000*%
%ADD24C,0.02500*%
%ADD27R,0.02992X0.02598*%
%ADD33C,0.04000*%
%ADD34C,0.06000*%
%ADD35C,0.03150*%
%ADD36C,0.05000*%
%ADD37R,0.06000X0.06000*%
%ADD38C,0.07000*%
%ADD91R,0.04400X0.02800*%
%ADD92R,0.02800X0.04400*%
%ADD95R,0.03937X0.13780*%
%ADD105R,0.05906X0.13386*%
%ADD111MACRO21*%
%ADD115C,0.03937*%
%ADD117R,0.13386X0.05906*%
%ADD118R,0.13780X0.03937*%
%ADD119O,0.11811X0.06693*%
%ADD128R,0.07000X0.07000*%
%ADD129C,0.03500*%
%ADD143R,0.03937X0.01969*%
%ADD144R,0.04724X0.01181*%
%ADD145R,0.02362X0.03937*%
%ADD146R,0.01181X0.05905*%
%ADD147R,0.05905X0.01181*%
%ADD148R,0.03150X0.05905*%
%ADD149R,0.03150X0.06299*%
%ADD150R,0.06102X0.02362*%
%ADD151R,0.04134X0.02559*%
%ADD152R,0.02362X0.06102*%
%ADD153C,0.02756*%
%ADD154MACRO30_1*%
%ADD155R,0.05000X0.02992*%
%ADD156R,0.07480X0.03740*%
%ADD157R,0.03740X0.07480*%
%ADD158R,0.05118X0.11811*%
%ADD159R,0.08268X0.11811*%
%ADD160R,0.10630X0.03937*%
%ADD161R,0.04331X0.04921*%
%ADD162R,0.06299X0.11811*%
%ADD163R,0.03937X0.10630*%
%ADD164R,0.03937X0.07087*%
%ADD165R,0.07874X0.04921*%
%ADD166R,0.03937X0.21653*%
%ADD167R,0.12992X0.09449*%
%ADD168R,0.08268X0.06693*%
%ADD169R,0.05709X0.07874*%
%ADD170R,0.10236X0.06693*%
%ADD171R,0.04528X0.07087*%
%ADD172R,0.07480X0.07087*%
%ADD173R,0.07480X0.12795*%
%ADD174R,0.12795X0.07480*%
%ADD175C,0.06693*%
%ADD176R,0.12402X0.18898*%
%ADD177R,0.05905X0.05905*%
%ADD178R,0.02992X0.02598*%
%ADD179R,0.02598X0.02992*%
%ADD180MACRO20_1*%
%ADD181C,0.01201*%
%LN1000000627-TOP*%
%LPD*%
G36*
X-157579Y-53740D02*
G01X-163878D01*
Y-44291*
X-154429*
Y-50591*
X-157579*
Y-53740*
G37*
G36*
X-163878Y31693D02*
G01Y41142D01*
X-157579*
Y37992*
X-154429*
Y31693*
X-163878*
G37*
G36*
X-160187Y735484D02*
G01Y761321D01*
X-160160Y761641*
X-159822Y762455*
X-159077Y763089*
X-158219Y763289*
X-142224*
X-141809Y763244*
X-141012Y762867*
X-140459Y762180*
X-140261Y761321*
X-140306Y760905*
X-140680Y760107*
X-141366Y759552*
X-142224Y759352*
X-156250*
Y750986*
X-148376*
X-147960Y750941*
X-147163Y750564*
X-146611Y749877*
X-146413Y749018*
X-146457Y748602*
X-146832Y747804*
X-147517Y747249*
X-148376Y747049*
X-156250*
Y737453*
X-142224*
X-141809Y737407*
X-141012Y737030*
X-140459Y736343*
X-140261Y735484*
X-140306Y735069*
X-140680Y734270*
X-141366Y733716*
X-142224Y733516*
X-158219*
X-159165Y733761*
X-159822Y734350*
X-159986Y734626*
X-160187Y735484*
G37*
G36*
X-94975Y761321D02*
G01X-94930Y761736D01*
X-94556Y762535*
X-93871Y763089*
X-93012Y763289*
X-75787*
X-75372Y763244*
X-74575Y762867*
X-74022Y762180*
X-73824Y761321*
X-73869Y760905*
X-74243Y760107*
X-74929Y759552*
X-75787Y759352*
X-82431*
Y735484*
X-82607Y734680*
X-83142Y733979*
X-83930Y733582*
X-84811Y733569*
X-85610Y733942*
X-86166Y734626*
X-86368Y735484*
Y759352*
X-93012*
X-93427Y759398*
X-94225Y759775*
X-94777Y760461*
X-94975Y761321*
G37*
G36*
X-44537Y735484D02*
G01Y761321D01*
X-44492Y761742*
X-44115Y762539*
X-43428Y763092*
X-42569Y763289*
X-31496*
X-30874Y763188*
X-27183Y761958*
X-26413Y761482*
X-25183Y760252*
X-24814Y759741*
X-23584Y757280*
X-23376Y756400*
Y752709*
X-23584Y751828*
X-24814Y749368*
X-25183Y748856*
X-26413Y747626*
X-27183Y747150*
X-30874Y745920*
X-31496Y745819*
X-40600*
Y735484*
X-40777Y734680*
X-41312Y733979*
X-42099Y733582*
X-42981Y733569*
X-43780Y733942*
X-44336Y734626*
X-44537Y735484*
G37*
G36*
X-136811D02*
G01Y761321D01*
X-136765Y761742*
X-136389Y762539*
X-135702Y763092*
X-134843Y763289*
X-123770*
X-123147Y763188*
X-119456Y761958*
X-118687Y761482*
X-117456Y760252*
X-117088Y759741*
X-115857Y757280*
X-115650Y756400*
Y753939*
X-115857Y753059*
X-117088Y750598*
X-117456Y750086*
X-118687Y748856*
X-119456Y748380*
X-122785Y747271*
X-115957Y736541*
X-115847Y736343*
X-115650Y735484*
X-115747Y734872*
X-116202Y734117*
X-116941Y733636*
X-117816Y733526*
X-118651Y733808*
X-119279Y734427*
X-127311Y747049*
X-132874*
Y735484*
X-133050Y734680*
X-133585Y733979*
X-134373Y733582*
X-135254Y733569*
X-136053Y733942*
X-136609Y734626*
X-136811Y735484*
G37*
G36*
X138583Y10630D02*
G01X127165D01*
X126969Y10827*
Y18701*
X118110*
Y24606*
X126969*
Y32480*
X127165Y32677*
X138583*
X138780Y32480*
Y26575*
X141732Y23622*
X149606*
Y19685*
X141732*
X138780Y16732*
Y10827*
X138583Y10630*
G37*
G36*
X-72835Y745327D02*
G01Y751478D01*
X-72734Y752101*
X-71503Y755792*
X-71397Y756050*
X-70166Y758510*
X-69797Y759022*
X-67337Y761482*
X-66825Y761851*
X-64365Y763081*
X-63484Y763289*
X-58563*
X-57683Y763081*
X-55222Y761851*
X-54710Y761482*
X-52250Y759022*
X-51881Y758510*
X-50651Y756050*
X-50544Y755792*
X-49314Y752101*
X-49213Y751478*
Y745327*
X-49314Y744704*
X-50544Y741013*
X-50651Y740755*
X-51881Y738295*
X-52250Y737783*
X-54710Y735323*
X-55222Y734954*
X-57683Y733724*
X-58563Y733516*
X-63484*
X-64365Y733724*
X-66825Y734954*
X-67337Y735323*
X-69797Y737783*
X-70166Y738295*
X-71397Y740755*
X-71503Y741013*
X-72734Y744704*
X-72835Y745327*
G37*
G36*
X169291Y61024D02*
G01Y70866D01*
X170276Y71850*
X176181*
X179134Y74803*
Y82677*
X183071*
Y74803*
X186024Y71850*
X191929*
X192913Y70866*
Y61024*
X191929Y60039*
X184055*
Y51181*
X178150*
Y60039*
X170276*
X169291Y61024*
G37*
G36*
X-225394Y735484D02*
G01Y761321D01*
X-225218Y762125*
X-224682Y762826*
X-223895Y763223*
X-223013Y763236*
X-222214Y762863*
X-221658Y762179*
X-221457Y761321*
Y737453*
X-208661*
X-208502Y737446*
X-207662Y737177*
X-198198Y762022*
X-198068Y762297*
X-197470Y762945*
X-196649Y763268*
X-195770Y763199*
X-195009Y762754*
X-194519Y762022*
X-184676Y736185*
X-184547Y735484*
X-184552Y735352*
X-184806Y734508*
X-185404Y733860*
X-186225Y733537*
X-187104Y733606*
X-187865Y734051*
X-188355Y734783*
X-191153Y742128*
X-201563*
X-204361Y734783*
X-204420Y734644*
X-204966Y733951*
X-205759Y733566*
X-206640Y733565*
X-207434Y733950*
X-207803Y733716*
X-208661Y733516*
X-223425*
X-224371Y733761*
X-225028Y734349*
X-225193Y734626*
X-225394Y735484*
G37*
%LPC*%
G36*
X-31816Y749756D02*
G01X-28868Y750738D01*
X-28193Y751414*
X-27313Y753173*
Y755935*
X-28193Y757694*
X-28868Y758370*
X-31816Y759352*
X-40600*
Y749756*
X-31816*
G37*
G36*
X-128207Y750986D02*
G01X-124089D01*
X-121142Y751969*
X-120466Y752644*
X-119587Y754404*
Y755935*
X-120466Y757694*
X-121142Y758370*
X-124089Y759352*
X-132874*
Y750986*
X-128207*
G37*
G36*
X-67813Y742391D02*
G01X-66788Y740341D01*
X-64779Y738332*
X-63020Y737453*
X-59028*
X-57268Y738332*
X-55260Y740341*
X-54235Y742391*
X-53150Y745646*
Y751159*
X-54235Y754414*
X-55260Y756464*
X-57268Y758473*
X-59028Y759352*
X-63020*
X-64779Y758473*
X-66788Y756464*
X-67813Y754414*
X-68898Y751159*
Y745646*
X-67813Y742391*
G37*
G36*
X-192653Y746065D02*
G01X-196358Y755791D01*
X-200064Y746065*
X-192653*
G37*
%LPD*%
G36*
X-186024Y761321D02*
G01X-185981Y761728D01*
X-185610Y762527*
X-184928Y763085*
X-184070Y763289*
X-183209Y763098*
X-182518Y762551*
X-174213Y752169*
X-165907Y762551*
X-165620Y762842*
X-164831Y763235*
X-163949Y763244*
X-163152Y762867*
X-162599Y762180*
X-162402Y761321*
X-162450Y760885*
X-162833Y760091*
X-172244Y748327*
Y735484*
X-172420Y734680*
X-172955Y733979*
X-173743Y733582*
X-174624Y733569*
X-175423Y733942*
X-175979Y734626*
X-176181Y735484*
Y748327*
X-185592Y760091*
X-185826Y760461*
X-186024Y761321*
G37*
G54D16*
X240157Y-172382D03*
G54D27*
Y-162205D03*
Y-168504D03*
X248031Y-162205D03*
Y-168504D03*
G54D105*
X223031Y-203937D03*
X265157D03*
G54D117*
X311890Y43720D03*
Y148838D03*
G54D95*
X232283Y-181299D03*
X240157D03*
X248031D03*
X255906D03*
G54D118*
X289252Y68720D03*
Y60846D03*
Y52972D03*
Y76594D03*
Y84468D03*
Y92342D03*
Y100216D03*
Y108090D03*
Y115964D03*
Y123838D03*
Y131713D03*
Y139587D03*
G54D37*
X249016Y-151181D03*
G54D34*
X239173Y-140157D03*
Y-151181D03*
X249016Y-140157D03*
G54D35*
X307874Y60846D03*
X302943Y52972D03*
X298917Y92342D03*
Y84468D03*
Y76594D03*
G54D38*
X246063Y88583D03*
X257874D03*
X246063Y100394D03*
X257874D03*
X246063Y112205D03*
X257874D03*
X246063Y135827D03*
X257874D03*
X246063Y124016D03*
X257874D03*
X246063Y147638D03*
X257874D03*
G54D35*
X312776Y68720D03*
G54D119*
X251969Y80118D03*
Y156102D03*
G54D10*
X307087Y15748D03*
X235236Y195866D03*
X309055Y203740D03*
G54D144*
X-148524Y-40748D03*
Y-38780D03*
Y-36811D03*
Y-34843D03*
Y-32874D03*
Y-30906D03*
Y-28937D03*
Y-26969D03*
Y-25000D03*
Y-23031D03*
Y-21063D03*
Y-19094D03*
Y-17126D03*
Y-15157D03*
Y-13189D03*
Y-11220D03*
Y-9252D03*
Y-7283D03*
Y-5315D03*
Y-3346D03*
Y-1378D03*
Y591D03*
Y6496D03*
Y4528D03*
Y2559D03*
Y28150D03*
Y26181D03*
Y24213D03*
Y22244D03*
Y20276D03*
Y18307D03*
Y16339D03*
Y14370D03*
Y12402D03*
Y10433D03*
Y8465D03*
G54D180*
X-36446Y-183967D03*
X-22443Y-145491D03*
X20897Y-204838D03*
X34901Y-166362D03*
G54D153*
X-156496Y591D03*
X-153543Y-2953D03*
Y26181D03*
X-141675Y-4437D03*
X-142818Y-649D03*
X-128930Y-6188D03*
X-129120Y-2236D03*
X-132874Y-984D03*
X-138780Y28150D03*
X-134646Y23622D03*
X-118110Y-78740D03*
X-102362Y-70866D03*
X-123031Y-30512D03*
X-125000Y-6890D03*
X-122047Y-9843D03*
X-120079Y27559D03*
Y11524D03*
X-95276Y-102343D03*
X-90551Y-70866D03*
X-96457Y-78740D03*
X-84646Y-72835D03*
X-96457Y-70866D03*
X-85754Y-14888D03*
X-82677Y-17717D03*
X-88583Y-11811D03*
X-96457Y0D03*
X-90551Y-217D03*
X-95472Y16201D03*
Y21201D03*
Y26201D03*
Y11201D03*
X-78740Y-72835D03*
X-78204Y-18807D03*
X-70866Y-7874D03*
X-42323Y-59843D03*
X-56240Y-35433D03*
X-42185D03*
X-46063Y16732D03*
X-56102Y13780D03*
X-36417Y23622D03*
X-56102Y25591D03*
Y19685D03*
X-42323Y31496D03*
X-56102Y37402D03*
X-53150Y40354D03*
X-44783Y163386D03*
X-34941Y160433D03*
X-49705Y166339D03*
X-39862Y169291D03*
X-54626Y172028D03*
X-10827Y-134843D03*
X-24606Y-17717D03*
Y-13760D03*
X-18807Y7874D03*
X-24606D03*
X-23622Y-5906D03*
X-26791Y30512D03*
X-20669Y19685D03*
X-12795Y11811D03*
X-21654Y10933D03*
X-15666Y39370D03*
X-11811Y43307D03*
X-24409Y60236D03*
X-23819Y69685D03*
X-27559Y80709D03*
X-30020Y183071D03*
X-25098D03*
X2953Y-133858D03*
X5906Y-137795D03*
X0Y-114173D03*
X-4921Y-110236D03*
X4724Y-118110D03*
X-4921Y-104331D03*
X-6890Y-78740D03*
X5906Y-57087D03*
Y-42323D03*
X-984Y-17717D03*
X7480Y-21654D03*
X6890Y1969D03*
X-984Y4921D03*
X6890Y7874D03*
X-9843Y-1969D03*
X-5906Y16732D03*
X-3937Y24606D03*
X10642Y14764D03*
X1969Y8858D03*
X-7874Y37402D03*
X8752Y37831D03*
X-2421Y80197D03*
X-7421Y101378D03*
X-492Y183484D03*
X-5413D03*
X11892Y185393D03*
X28937Y-133858D03*
X25591Y-143701D03*
X15748Y-118307D03*
X32480Y-79508D03*
X27559Y-78740D03*
X23622Y-68898D03*
Y-44291D03*
X15748Y-21654D03*
X34449Y-27559D03*
X17717Y-37402D03*
X24606Y-3937D03*
X20382Y-14173D03*
X24562Y13824D03*
X17731Y22177D03*
X13900Y18701D03*
X33465Y38386D03*
X12902Y37794D03*
X30650Y60236D03*
X18169Y73031D03*
X23169Y78740D03*
X13169Y76772D03*
X28156Y112736D03*
X23169D03*
X33848Y126070D03*
X31002Y123031D03*
X25591Y195866D03*
X49213Y-185650D03*
X36417Y-114173D03*
X53543Y-17913D03*
X36417Y-19685D03*
X35528Y-37402D03*
X48425Y1969D03*
X41339Y-11614D03*
X42126Y1181D03*
X48425Y11673D03*
X42126Y11417D03*
X48425Y35295D03*
X42126Y43307D03*
X53150Y140748D03*
X40354Y131890D03*
X36959Y122948D03*
X43307Y155512D03*
X53150Y145669D03*
X62992Y-149606D03*
X74803Y-112205D03*
X64961Y-51181D03*
X63976Y-16732D03*
X75787Y23622D03*
X83465Y-98287D03*
X82677Y-62028D03*
Y-12795D03*
X90551Y16732D03*
X92520Y35433D03*
X101516Y132874D03*
X97441Y135827D03*
X99606Y150394D03*
X114173Y-62028D03*
X112205Y25591D03*
X118110Y55118D03*
X121063Y137795D03*
X134646Y-98287D03*
X131890Y-51181D03*
X146654Y-18701D03*
X142618Y-24811D03*
X142717Y1189D03*
X136811Y11811D03*
X132874D03*
X128937D03*
X132874Y36417D03*
X136811Y31496D03*
X132874D03*
X128937D03*
X153543Y35433D03*
X168406Y46260D03*
X171260Y62008D03*
Y65945D03*
Y69882D03*
X168307Y86004D03*
X152559D03*
X182165Y13949D03*
X186228Y44496D03*
X190945Y69882D03*
Y65945D03*
Y62008D03*
X201850Y13949D03*
Y49213D03*
G54D179*
X-52362Y-35433D03*
X-46063D03*
Y25591D03*
X-52362D03*
X-46063Y13780D03*
X-52362D03*
X-46063Y31496D03*
X-52362D03*
X-46063Y19685D03*
X-52362D03*
X4724Y-122047D03*
X11024D03*
X26772D03*
X20472D03*
X48425Y-1969D03*
X42126D03*
X48425Y15748D03*
X42126D03*
X48425Y39370D03*
X42126D03*
X79528Y23622D03*
Y16732D03*
X89764Y-102362D03*
X83465D03*
X85827Y23622D03*
Y16732D03*
X106102Y136811D03*
X112402D03*
X140945Y-102362D03*
X134646D03*
X146850Y-33465D03*
X140551D03*
X160630Y13780D03*
X154331D03*
G54D176*
X-159055Y80709D03*
X-36811D03*
G54D154*
X12802Y-148715D03*
X6883Y-146561D03*
G54D169*
X-131378Y-130315D03*
Y-97638D03*
X-77244Y-130315D03*
Y-97638D03*
G54D162*
X72244Y108661D03*
X177756D03*
G54D151*
X10630Y-133858D03*
Y-130118D03*
Y-137598D03*
X20866Y-130118D03*
Y-133858D03*
Y-137598D03*
G54D149*
X-54626Y177756D03*
X-49705D03*
X-44783D03*
X-39862D03*
X-34941D03*
X-30020D03*
X-25098D03*
X-20177D03*
X-15256D03*
X-10335D03*
X-492D03*
X-5413D03*
X12795Y-85236D03*
X17717D03*
X22638D03*
X27559D03*
X32480D03*
G54D36*
X-10589Y-156090D03*
X9929Y-157273D03*
X2530Y-154580D03*
X-6719Y-151214D03*
X-3190Y-158783D03*
X4209Y-161476D03*
X11609Y-164169D03*
X19008Y-166862D03*
X19178Y-160639D03*
G54D170*
X-123031Y-60630D03*
Y-35827D03*
X49213Y-179724D03*
Y-154921D03*
G54D165*
X-2953Y-62500D03*
Y-47736D03*
G54D158*
X82677Y-33071D03*
Y-53543D03*
X114173Y-33071D03*
Y-53543D03*
G54D156*
X145866Y21654D03*
Y12598D03*
Y30709D03*
G54D178*
X-136811Y-41535D03*
Y-35236D03*
X-102362Y-66142D03*
Y-59843D03*
X-96457Y-66142D03*
X-84646D03*
X-78740D03*
X-90551D03*
X-96457Y-59843D03*
X-84646D03*
X-78740D03*
X-90551D03*
X-58071Y186811D03*
Y193110D03*
X-46260Y186811D03*
X-52165D03*
X-40354D03*
X-34449D03*
X-46260Y193110D03*
X-52165D03*
X-40354D03*
X-34449D03*
X-19685Y53937D03*
Y60236D03*
X-13780Y69685D03*
Y75984D03*
X-12795Y121260D03*
Y114961D03*
X-28543Y186811D03*
X-22638D03*
X-28543Y193110D03*
X-22638D03*
X-6890Y-75984D03*
Y-69685D03*
X984D03*
Y-75984D03*
X5906Y-53346D03*
Y-47047D03*
X-1969Y69685D03*
Y75984D03*
X-7874Y69685D03*
Y75984D03*
X19685Y53937D03*
X26575D03*
X19685Y60236D03*
X26575D03*
X12795Y114961D03*
Y121260D03*
X25591Y175394D03*
Y169094D03*
X33465Y175394D03*
Y169094D03*
X45276Y-17913D03*
Y-11614D03*
X36417Y93307D03*
Y99606D03*
X57087Y175394D03*
Y169094D03*
X49213Y175394D03*
Y169094D03*
X41339Y175394D03*
Y169094D03*
X62992Y-154331D03*
Y-160630D03*
X64961Y-40157D03*
Y-46457D03*
X63976Y-1181D03*
Y5118D03*
Y-12992D03*
Y-6693D03*
X64961Y175394D03*
Y169094D03*
X102362Y-1772D03*
Y-8071D03*
Y3740D03*
Y15551D03*
Y21850D03*
Y10039D03*
X97441Y139567D03*
Y131102D03*
Y124803D03*
Y145866D03*
X112205Y3740D03*
Y-1772D03*
Y-8071D03*
Y15551D03*
Y21850D03*
Y10039D03*
X113189Y131102D03*
Y124803D03*
X121063Y131102D03*
Y124803D03*
Y143504D03*
X105315Y131102D03*
Y124803D03*
X121063Y149803D03*
X131890Y-40157D03*
Y-46457D03*
X190945Y-1181D03*
Y5118D03*
X198819Y-1181D03*
Y5118D03*
G54D111*
X-11445Y-140433D03*
X-4303Y-143032D03*
X22020Y-152244D03*
X29161Y-154843D03*
G54D164*
X-4921Y119094D03*
X4921D03*
G54D92*
X153680Y31496D03*
X161280D03*
X177302Y88583D03*
X184902D03*
G54D91*
X82677Y-15885D03*
Y-23485D03*
X114173Y-15885D03*
Y-23485D03*
X146654Y-15611D03*
Y-8011D03*
G54D166*
X97441Y99409D03*
X89567D03*
X81693D03*
X121063D03*
X113189D03*
X105315D03*
X144685D03*
X136811D03*
X128937D03*
X152559D03*
X160433D03*
X168307D03*
G54D161*
X33465Y181299D03*
Y190748D03*
X25591Y181299D03*
Y190748D03*
X57087Y181299D03*
Y190748D03*
X49213Y181299D03*
Y190748D03*
X41339Y181299D03*
Y190748D03*
X64961Y181299D03*
Y190748D03*
G54D157*
X172047Y78937D03*
X181102D03*
X190157D03*
G54D148*
X-116930Y-107874D03*
X-112599D03*
X-108268D03*
X-103937D03*
X-99607D03*
X-95276D03*
X-90945D03*
X-86615D03*
G54D147*
X-30512Y-17717D03*
Y-23622D03*
Y-21654D03*
Y-19685D03*
Y-15748D03*
Y-11811D03*
Y-9843D03*
Y-13780D03*
Y-5906D03*
Y-3937D03*
Y-7874D03*
Y3937D03*
Y1969D03*
Y0D03*
Y-1969D03*
Y5906D03*
Y9843D03*
Y7874D03*
Y13780D03*
Y11811D03*
Y15748D03*
Y17717D03*
Y21654D03*
Y19685D03*
Y23622D03*
X30512Y-23622D03*
Y-15748D03*
Y-17717D03*
Y-19685D03*
Y-21654D03*
Y5906D03*
Y3937D03*
Y1969D03*
Y0D03*
Y-1969D03*
Y-3937D03*
Y-5906D03*
Y-7874D03*
Y-11811D03*
Y-13780D03*
Y-9843D03*
Y23622D03*
Y21654D03*
Y19685D03*
Y17717D03*
Y15748D03*
Y13780D03*
Y11811D03*
Y9843D03*
Y7874D03*
G54D174*
X181102Y54921D03*
G54D163*
X81102Y-125984D03*
X75197Y35433D03*
X92126Y-125984D03*
X86220Y35433D03*
X148031Y45276D03*
X139370D03*
X128346D03*
X159055D03*
G54D155*
X-91772Y11201D03*
Y16201D03*
Y21201D03*
Y26201D03*
X-61772Y16201D03*
Y11201D03*
Y26201D03*
Y21201D03*
G54D146*
X-11811Y-30512D03*
X-13780D03*
X-15748D03*
X-17717D03*
X-19685D03*
X-21654D03*
X-23622D03*
X-19685Y30512D03*
X-21654D03*
X-23622D03*
X-13780D03*
X-17717D03*
X-15748D03*
X-11811D03*
X7874Y-30512D03*
X9843D03*
X5906D03*
X3937D03*
X1969D03*
X0D03*
X-1969D03*
X-3937D03*
X-5906D03*
X-7874D03*
X-9843D03*
Y30512D03*
X-7874D03*
X-5906D03*
X-3937D03*
X-1969D03*
X0D03*
X1969D03*
X3937D03*
X5906D03*
X7874D03*
X9843D03*
X11811Y-30512D03*
X13780D03*
X17717D03*
X19685D03*
X15748D03*
X23622D03*
X21654D03*
X11811Y30512D03*
X13780D03*
X15748D03*
X17717D03*
X19685D03*
X21654D03*
X23622D03*
G54D143*
X104134Y142913D03*
Y150394D03*
Y146654D03*
X114370Y142913D03*
Y146654D03*
Y150394D03*
G54D38*
X82677Y-87598D03*
Y-69882D03*
X92677Y-87598D03*
Y-69882D03*
X133858Y-87598D03*
X143858D03*
Y-69882D03*
X133858D03*
G54D177*
X-64567Y-5906D03*
X-53543D03*
X81102Y-112205D03*
X92126D03*
X128346D03*
X139370D03*
G54D173*
X121850Y21654D03*
G54D168*
X-10630Y51988D03*
Y63012D03*
X10630Y51988D03*
Y63012D03*
G54D128*
X72677Y-87598D03*
Y-69882D03*
X123858Y-87598D03*
Y-69882D03*
G54D160*
X116142Y48819D03*
Y37795D03*
G54D159*
X-64469Y166142D03*
X2953Y-96850D03*
X9350Y166142D03*
X42323Y-96850D03*
G54D152*
X-12421Y85827D03*
Y107087D03*
X2579Y85827D03*
X-2421D03*
X-7421D03*
X-2421Y107087D03*
X-7421D03*
X2579D03*
X28169Y85827D03*
X23169D03*
X18169D03*
X13169D03*
Y107087D03*
X23169D03*
X18169D03*
X28169D03*
G54D175*
X-9843Y200787D03*
X9843D03*
X45276Y29528D03*
X70866Y-125984D03*
X115157Y-112205D03*
X144685Y125984D03*
X151575Y-112205D03*
X168307Y125984D03*
G54D172*
X118110Y61024D03*
X145669D03*
X133858D03*
X161417D03*
G54D150*
X72047Y-6516D03*
Y-1516D03*
Y3484D03*
Y8484D03*
X93307Y-1516D03*
Y3484D03*
Y-6516D03*
Y8484D03*
G54D171*
X116142Y76772D03*
X147638D03*
X127953D03*
X159449D03*
G54D167*
X66929Y50000D03*
Y75984D03*
X94488Y50000D03*
Y75984D03*
G54D145*
X138858Y-24811D03*
X128858D03*
Y1189D03*
X138858D03*
X182165Y18496D03*
X172165D03*
X191850D03*
X172165Y44496D03*
X182165D03*
X191850D03*
X201850Y18496D03*
Y44496D03*
G54D10*
X-204724Y206693D03*
G54D115*
X-93504Y174213D03*
G54D10*
X-200787Y-169291D03*
G54D115*
X-67913Y-186024D03*
G54D10*
X194882Y218504D03*
G54D115*
X205709Y-32480D03*
G54D23*
X249016Y-140157D02*
G01Y-136811D01*
X246063Y-133858*
X232283*
X230315Y-135827*
Y-159449*
X233071Y-162205*
X240157*
X239173Y-151181D02*
G01Y-152559D01*
X244094Y-157480*
Y-164567*
X248031Y-168504*
X249016Y-151181D02*
G01Y-156496D01*
X248031Y-157480*
Y-162205*
G54D24*
X232283Y-181299D02*
G01Y-170276D01*
X234055Y-168504*
X240157*
Y-181299D02*
G01Y-172382D01*
X248031Y-168504D02*
G01Y-181299D01*
X255906D02*
G01Y-164370D01*
X253740Y-162205*
X248031*
X289252Y68720D02*
G01X312776D01*
X289252Y60846D02*
G01X307874D01*
X289252Y52972D02*
G01X302943D01*
X289252Y92342D02*
G01X298917D01*
X289252Y84468D02*
G01X298917D01*
X289252Y76594D02*
G01X298917D01*
X289252Y100216D02*
G01X279350D01*
X267717Y88583*
X257874*
X289252Y108090D02*
G01X275413D01*
X267717Y100394*
X257874*
X289252Y115964D02*
G01X271476D01*
X267717Y112205*
X257874*
X289252Y123838D02*
G01X258051D01*
X257874Y124016*
X289252Y131713D02*
G01X273799D01*
X269685Y135827*
X257874*
X289252Y139587D02*
G01X277736D01*
X269685Y147638*
X257874*
G54D12*
X-148524Y591D02*
G01X-156496D01*
X-148524Y-1378D02*
G01X-151969D01*
X-153543Y-2953*
X-148524Y26181D02*
G01X-153543D01*
X-148524Y-38780D02*
G01X-139370D01*
X-136811Y-41535*
X-148524Y-40748D02*
G01X-144488D01*
X-143701Y-41535*
X-136811*
X-148524Y-36811D02*
G01X-138386D01*
X-136811Y-35236*
X-148524Y-34843D02*
G01X-137205D01*
X-136811Y-35236*
X-148524Y-21063D02*
G01X-109252D01*
X-83071Y-47244*
X-20669*
X-13780Y-40354*
Y-30512*
X-148524Y-19094D02*
G01X-131299D01*
X-122047Y-9843*
X-148524Y-5315D02*
G01X-142553D01*
X-141675Y-4437*
X-142818Y-649D02*
G01X-145515Y-3346D01*
X-148524*
X-128930Y-6188D02*
G01X-133963Y-11220D01*
X-148524*
X-125000Y-6890D02*
G01X-131299Y-13189D01*
X-148524*
X-19685Y-30512D02*
G01Y-37402D01*
X-23823Y-41539*
X-42290*
X-42491Y-41339*
X-80203*
X-128038Y6496*
X-148524*
Y2559D02*
G01X-129669D01*
X-81835Y-45276*
X-21654*
X-15748Y-39370*
Y-30512*
X-129120Y-2236D02*
G01X-136136Y-9252D01*
X-148524*
Y4528D02*
G01X-128854D01*
X-81019Y-43307*
X-22469*
X-20500Y-41338*
X-20216*
X-17717Y-38839*
Y-30512*
X-132874Y-984D02*
G01X-139173Y-7283D01*
X-148524*
Y28150D02*
G01X-138780D01*
X-30512Y-9843D02*
G01X-36417D01*
X-48228Y-21654*
X-83014*
X-115264Y10596*
Y13519*
X-118083Y16339*
X-148524*
Y8465D02*
G01X-127222D01*
X-87261Y-31496*
X-43307*
X-35433Y-23622*
X-30512*
X-148524Y24213D02*
G01X-138189D01*
X-134843Y27559*
X-120079*
X-30512Y-21654D02*
G01X-36417D01*
X-44291Y-29528*
X-86446*
X-126406Y10433*
X-148524*
Y18307D02*
G01X-116732D01*
X-103023Y4598*
X-45599*
X-38386Y11811*
X-30512*
X-148524Y14370D02*
G01X-118899D01*
X-117232Y12703*
Y9780*
X-83830Y-23622*
X-47244*
X-35433Y-11811*
X-30512*
Y13780D02*
G01X-39370D01*
X-46583Y6566*
X-102039*
X-115748Y20276*
X-148524*
X-30512Y-19685D02*
G01X-37402D01*
X-45276Y-27559*
X-85630*
X-125591Y12402*
X-148524*
X-134646Y23622D02*
G01X-136024Y22244D01*
X-148524*
X-112599Y-107874D02*
G01Y-81103D01*
X-102362Y-70866*
X-108268Y-107874D02*
G01Y-82678D01*
X-96457Y-70866*
X-30512Y-15748D02*
G01X-36417D01*
X-46260Y-25591*
X-84646*
X-120079Y9843*
Y11524*
X-90945Y-107874D02*
G01Y-85040D01*
X-78740Y-72835*
X-99607Y-107874D02*
G01Y-87796D01*
X-84646Y-72835*
X-102362Y-70866D02*
G01Y-66142D01*
X-84646D02*
G01Y-72835D01*
X-96457Y-70866D02*
G01Y-66142D01*
X-30512Y-1969D02*
G01X-34707D01*
X-48484Y-15746*
X-80706*
X-82677Y-17717*
X-30512Y1969D02*
G01X-36338D01*
X-50115Y-11809*
X-82338*
X-82340Y-11811*
X-88583*
X-30512Y0D02*
G01X-35522D01*
X-49300Y-13777*
X-81522*
X-81524Y-13780*
X-82766*
X-83874Y-14888*
X-85754*
X-96457Y0D02*
G01X-93828Y2629D01*
X-44615*
X-37402Y9843*
X-30512*
X-90551Y-217D02*
G01X-44509D01*
X-36417Y7874*
X-30512*
X-78740Y-66142D02*
G01Y-72835D01*
X-78204Y-18807D02*
G01X-48761D01*
X-33891Y-3937*
X-30512*
X-56102Y13780D02*
G01Y13169D01*
X-58071Y11201*
X-61772*
X-52362Y31496D02*
G01X-58445D01*
X-61772Y28169*
Y26201*
Y21201D02*
G01X-60492D01*
X-56555Y25138*
X-61772Y16201D02*
G01X-59587D01*
X-56102Y19685*
X-42185Y-35433D02*
G01Y-33327D01*
X-39370Y-30512*
X-31496*
X-17717Y-16732*
Y0*
X-21654Y3937*
X-30512*
X-42185Y-35433D02*
G01X-41201Y-36417D01*
X-22638*
X-21654Y-35433*
Y-30512*
X-53543Y-5906D02*
G01X-47244D01*
X-35433Y5906*
X-30512*
X-52362Y13780D02*
G01X-56102D01*
X-30512Y23622D02*
G01X-36417D01*
X-52362Y25591D02*
G01X-56102D01*
X-52362Y19685D02*
G01X-56102D01*
X-21654Y30512D02*
G01Y34449D01*
X-22638Y35433*
X-50394*
X-52362Y33465*
Y31496*
X-56102Y37402D02*
G01X-22106D01*
X-19685Y34980*
Y30512*
X-53150Y40354D02*
G01X-22559D01*
X-17717Y35512*
Y30512*
X-5906Y16732D02*
G01X-13780D01*
X-15748Y14764*
Y-17717*
X-23622Y-25591*
Y-30512*
X-30512Y-17717D02*
G01X-24606D01*
Y-13760D02*
G01X-24626Y-13780D01*
X-30512*
X-12795Y11811D02*
G01Y-4528D01*
X-8465Y-8858*
X21457*
X24516Y-11917*
Y-25500*
X30411Y-31396*
Y-42222*
X-23622Y-5906D02*
G01X-25591Y-7874D01*
X-30512*
Y19685D02*
G01X-20669D01*
X-18807Y7874D02*
G01Y14657D01*
X-13780Y19685*
Y30512*
X-24606Y7874D02*
G01Y14764D01*
X-25591Y15748*
X-30512*
X-21654Y10933D02*
G01Y15659D01*
X-23711Y17717*
X-30512*
X-23622Y30512D02*
G01X-26791D01*
X-15666Y39370D02*
G01Y37483D01*
X-15748Y37402*
Y30512*
X-11811D02*
G01Y43307D01*
X5906Y-137795D02*
G01X6102Y-137598D01*
X10630*
X-2953Y-47736D02*
G01X-8366D01*
X-10335Y-49705*
Y-103839*
X-6890Y-107283*
X13673*
X22638Y-98319*
Y-85236*
X984Y-69685D02*
G01Y-66437D01*
X-2953Y-62500*
X-6890Y-69685D02*
G01Y-66437D01*
X-2953Y-62500*
Y-47736D02*
G01Y-41339D01*
X0Y-38386*
Y-30512*
X5906D02*
G01Y-42323D01*
X-984Y-17717D02*
G01X-1969Y-18701D01*
Y-30512*
X7480Y-21654D02*
G01X6890D01*
X3937Y-24606*
Y-30512*
X15748Y-21654D02*
G01X12795D01*
X9843Y-24606*
Y-30512*
X6890Y1969D02*
G01X16732D01*
X26575Y11811*
X30512*
X-984Y4921D02*
G01X10827D01*
X23622Y17717*
X30512*
X-9843Y-1969D02*
G01X19685D01*
X23622Y1969*
X30512*
X-3937Y30512D02*
G01Y24606D01*
X6890Y7874D02*
G01X10827D01*
X22638Y19685*
X30512*
X10642Y14764D02*
G01Y24606D01*
X11811Y25776*
Y30512*
X1969Y8858D02*
G01X3937Y10827D01*
X10827*
X21654Y21654*
Y25164*
X19685Y27133*
Y30512*
X26575Y53937D02*
G01Y50197D01*
X21382Y45004*
X4650*
X1969Y42323*
Y30512*
X5906D02*
G01Y39299D01*
X7874Y41268*
X23383*
X47335Y65220*
Y147560*
X57087Y157312*
Y169094*
X49213D02*
G01Y152222D01*
X45366Y148376*
Y66035*
X22366Y43035*
X5906*
X3937Y41067*
Y30512*
X-7874Y37402D02*
G01X-9843Y35433D01*
Y30512*
X7874D02*
G01Y36954D01*
X8752Y37831*
X12902Y37794D02*
G01Y37508D01*
X9843Y34449*
Y30512*
X25591Y-143701D02*
G01Y-139764D01*
X23622Y-137795*
X21063*
X20866Y-137598*
X23622Y-30512D02*
G01Y-35344D01*
X26469Y-38191*
Y-60146*
X12795Y-73819*
Y-85236*
X23622Y-68898D02*
G01X17717Y-74803D01*
Y-85236*
X32581Y-31065D02*
G01X26283Y-24768D01*
Y-8723*
X27133Y-7874*
X30512*
X23622Y-44291D02*
G01Y-39370D01*
X21654Y-37402*
Y-30512*
X30512Y-15748D02*
G01X43110D01*
X45276Y-17913*
X30512Y-17717D02*
G01X34449D01*
X36417Y-19685*
X20382Y-14173D02*
G01Y-22925D01*
X18701Y-24606*
X15748*
X13780Y-26575*
Y-30512*
X17717Y-37402D02*
G01X12795D01*
X11811Y-36417*
Y-30512*
X30512Y-3937D02*
G01X24606D01*
X30512Y-13780D02*
G01X39173D01*
X41339Y-11614*
X42126Y-1969D02*
G01X30512D01*
Y-5906D02*
G01X49361D01*
X51272Y-3994*
Y23146*
X55209Y27083*
Y125091*
X85327Y155209*
X107309*
X112124Y150394*
X114370*
X30512Y-9843D02*
G01X37402D01*
X39370Y-7874*
X50176*
X53240Y-4810*
Y22330*
X57177Y26267*
Y124275*
X86143Y153240*
X106494*
X113080Y146654*
X114370*
X53150Y140748D02*
G01X51272Y138870D01*
Y28714*
X46180Y23622*
X30512*
Y13780D02*
G01X24651D01*
X24606Y13824*
X24562*
X30512Y21654D02*
G01X30563Y21705D01*
X30665*
X30717Y21654*
X46995*
X53240Y27898*
Y135917*
X56102Y138780*
Y142717*
X53150Y145669*
X42126Y15748D02*
G01X30512D01*
X17731Y22177D02*
G01Y22600D01*
X17717Y22614*
Y30512*
X13900Y18701D02*
G01Y27013D01*
X13780Y30512*
X42126Y39370D02*
G01X38189Y35433D01*
X16732*
X15748Y34449*
Y30512*
X45276Y29528D02*
G01X40354D01*
X39370Y30512*
X23622*
X33465Y38386D02*
G01Y48565D01*
X49303Y64404*
Y146744*
X64961Y162402*
Y169094*
X13169Y85827D02*
G01Y76772D01*
X33848Y126070D02*
G01Y163002D01*
X33465Y163386*
Y169094*
X31002Y123031D02*
G01Y159943D01*
X25591Y165354*
Y169094*
X33465Y181299D02*
G01Y175394D01*
X25591Y181299D02*
G01Y175394D01*
X36959Y122948D02*
G01Y160975D01*
X41339Y165354*
Y169094*
X49213Y181299D02*
G01Y175394D01*
X41339Y181299D02*
G01Y175394D01*
X64961Y181299D02*
G01Y175394D01*
X57087Y181299D02*
G01Y175394D01*
X97441Y139567D02*
G01Y135827D01*
G54D23*
X-95276Y-107874D02*
G01Y-102343D01*
X-95472Y16201D02*
G01X-91772D01*
Y11201D02*
G01X-95472D01*
Y21201D02*
G01X-91772D01*
Y26201D02*
G01X-95472D01*
X-64567Y-5906D02*
G01X-68898D01*
X-70866Y-7874*
X-54626Y177756D02*
G01Y183366D01*
X-58071Y186811*
Y193110D02*
G01X-52165D01*
X-52362Y-35433D02*
G01X-56240D01*
X-46063D02*
G01X-42185D01*
X-46063Y16732D02*
G01Y19685D01*
Y19685D02*
G01Y25591D01*
Y13780D02*
G01Y16732D01*
Y31496D02*
G01Y25591D01*
X-44783Y163386D02*
G01Y177756D01*
X-34941Y160433D02*
G01Y177756D01*
X-49705Y166339D02*
G01Y177756D01*
X-44783D02*
G01Y185335D01*
X-46260Y186811*
X-34941Y177756D02*
G01Y186319D01*
X-34449Y186811*
X-39862Y177756D02*
G01Y186319D01*
X-40354Y186811*
X-39862Y169291D02*
G01Y177756D01*
X-49705D02*
G01Y184350D01*
X-52165Y186811*
X-54626Y172028D02*
G01Y177756D01*
X-40354Y193110D02*
G01X-34449D01*
Y193110D02*
G01X-28543D01*
X-46260D02*
G01X-40354D01*
X-52165D02*
G01X-46260D01*
X-10630Y63012D02*
G01X-10650Y62992D01*
X-17717*
X-19685Y61024*
Y60236*
X-7874Y69685D02*
G01X-13780D01*
X13169Y97441D02*
G01X-12421D01*
Y107087*
Y107087D02*
G01Y114587D01*
X-12795Y114961*
X-30020Y177756D02*
G01Y183071D01*
Y183071D02*
G01Y185335D01*
X-28543Y186811*
X-25098Y177756D02*
G01Y183071D01*
Y183071D02*
G01Y184350D01*
X-22638Y186811*
X-15256Y192126D02*
G01Y177756D01*
X-22638Y193110D02*
G01X-16240D01*
X-15256Y192126*
X-28543Y193110D02*
G01X-22638D01*
X-10335Y192126D02*
G01X-15256D01*
X-6890Y-75984D02*
G01Y-78740D01*
X984Y-75984D02*
G01X4724D01*
X10827Y-69882*
Y-44291*
X8858Y-42323*
X5906*
Y-53346D02*
G01Y-57087D01*
Y-42323D02*
G01Y-47047D01*
X10630Y51988D02*
G01X17736D01*
X19685Y53937*
X2579Y85827D02*
G01Y69685D01*
X-1969D02*
G01X-7874D01*
X2579D02*
G01X25394D01*
X28169Y72461*
Y85827*
X2579Y69685D02*
G01X-1969D01*
X25591Y119095D02*
G01Y160694D01*
X18504Y167781*
Y178781*
X11893Y185393*
X11892*
X-10335Y177756D02*
G01Y192126D01*
Y192126D02*
G01X5159D01*
X11892Y185393*
X32480Y-85236D02*
G01Y-79508D01*
X30650Y60236D02*
G01X26575D01*
X36417Y85630D02*
G01Y61024D01*
X29331Y53937*
X26575*
X23169Y97441D02*
G01Y107087D01*
Y97441D02*
G01Y85827D01*
X13169Y97441D02*
G01X23169D01*
X13169Y107087D02*
G01Y97441D01*
X23169Y85827D02*
G01Y78740D01*
X28169Y85827D02*
G01X28366Y85630D01*
X36417*
X28156Y112736D02*
G01X30512D01*
X36417Y106831*
Y99606*
X23169Y107087D02*
G01Y112736D01*
X18169Y107087D02*
G01Y116465D01*
X20799Y119095*
X25591*
Y119095D02*
G01Y119094D01*
X35433*
X40354Y114173*
Y95472*
X38189Y93307*
X36417*
X41339Y190748D02*
G01X33465D01*
X25591D02*
G01X33465D01*
X25591D02*
G01Y195866D01*
X48425Y-1969D02*
G01Y138D01*
X42126Y1181D02*
G01Y-1969D01*
Y15748D02*
G01Y11417D01*
Y43307D02*
G01Y39370D01*
X36417Y85630D02*
G01Y93307D01*
X64961Y190748D02*
G01X57087D01*
Y190748D02*
G01X49213D01*
Y190748D02*
G01X41339D01*
X81102Y-112205D02*
G01X74803D01*
X63976Y-12992D02*
G01Y-16732D01*
Y-6693D02*
G01X64016D01*
X64193Y-6516*
X72047*
X79528Y23622D02*
G01X75787D01*
X83465Y-102362D02*
G01Y-98287D01*
X97441Y124803D02*
G01Y99409D01*
X105315Y131102D02*
G01X103287D01*
X101516Y132874*
X104134Y150394D02*
G01X99606D01*
X121063Y124803D02*
G01Y99409D01*
X113189Y124803D02*
G01Y99409D01*
X105315Y124803D02*
G01Y99409D01*
X138858Y-24811D02*
G01X142618D01*
G54D24*
X-123031Y-69882D02*
G01X-157480D01*
X-171752Y-55610*
Y17224*
X-162795Y26181*
X-153543*
X-159055Y80709D02*
G01X-109252D01*
X-83661Y106299*
X-13209*
X-12421Y107087*
X-123031Y-60630D02*
G01X-132283D01*
X-136811Y-56102*
Y-41535*
X-123031Y-35827D02*
G01X-131299D01*
X-131890Y-35236*
X-136811*
X-103937Y-107874D02*
G01Y-86221D01*
X-96457Y-78740*
X-118110D02*
G01Y-74803D01*
X-123031Y-69882*
Y-60630D02*
G01Y-69882D01*
X-102362Y-59843D02*
G01X-103150Y-60630D01*
X-123031*
X-96457Y-59843D02*
G01X-102362D01*
X-123031Y-35827D02*
G01Y-30512D01*
X-90551Y-66142D02*
G01Y-70866D01*
X-84646Y-59843D02*
G01X-78740D01*
X-90551D02*
G01X-84646D01*
X-96457D02*
G01X-90551D01*
X-78740D02*
G01X-42323D01*
Y-59843D02*
G01Y-79724D01*
X-11811Y-110236*
X-4921*
X-42323Y31496D02*
G01X-46063D01*
X-27559Y80709D02*
G01X-36811D01*
X-10827Y-134843D02*
G01Y-139283D01*
X-11131Y-140118*
X-11445Y-140433*
X-19685Y60236D02*
G01X-24409D01*
X-13780Y69685D02*
G01X-23819D01*
X10630Y-133858D02*
G01X2953D01*
X-6719Y-151214D02*
G01X-4303Y-143032D01*
Y-143032D02*
G01X6883Y-146561D01*
X0Y-114173D02*
G01X36417D01*
X-4921Y-110236D02*
G01X23622D01*
X27559Y-106299*
Y-85236*
X-4921Y-104331D02*
G01Y-83661D01*
X984Y-77756*
Y-75984*
X-10630Y63012D02*
G01X-4941D01*
X6083Y51988*
X10630*
X-7421Y107087D02*
G01Y101378D01*
X-492Y177756D02*
G01Y183484D01*
X-5413Y177756D02*
G01Y183484D01*
X29161Y-154843D02*
G01X31496Y-152508D01*
Y-136417*
X28937Y-133858*
X49213Y-154921D02*
G01X29240D01*
X29161Y-154843*
X19178Y-160639D02*
G01X22020Y-152244D01*
X12802Y-148715D02*
G01X22020Y-152244D01*
X20866Y-133858D02*
G01X28937D01*
X27559Y-85236D02*
G01Y-78740D01*
X28169Y107087D02*
G01Y112722D01*
X28156Y112736*
X13169Y107087D02*
G01Y114587D01*
X12795Y114961*
X49213Y-179724D02*
G01Y-185650D01*
Y-179724D02*
G01X59449D01*
X62992Y-176181*
Y-160630*
X49213Y-154921D02*
G01X49803Y-154331D01*
X62992*
X48425Y138D02*
G01Y1969D01*
Y1969D02*
G01Y11673D01*
Y11673D02*
G01Y15748D01*
Y39370D02*
G01Y35295D01*
X40354Y131890D02*
G01Y152559D01*
X43307Y155512*
X62992Y-149606D02*
G01Y-154331D01*
X81102Y-125984D02*
G01X70866D01*
X64961Y-40157D02*
G01X61024D01*
X59055Y-42126*
Y-64961*
X63976Y-69882*
X72677*
X64961Y-46457D02*
G01Y-51181D01*
X82677Y-33071D02*
G01X67323D01*
X64961Y-35433*
Y-40157*
X82677Y-12795D02*
G01X75000D01*
X72047Y-9843*
Y-6516*
X92126Y-112205D02*
G01Y-104724D01*
X89764Y-102362*
X92126Y-125984D02*
G01Y-112205D01*
X92677Y-87598D02*
G01Y-99449D01*
X89764Y-102362*
X82677Y-53543D02*
G01Y-62028D01*
Y-23485D02*
G01Y-33071D01*
Y-12795D02*
G01X98425D01*
X101515Y-15885*
X114173*
X82677D02*
G01Y-12795D01*
X93307Y8484D02*
G01Y13976D01*
X90551Y16732*
X85827D02*
G01X90551D01*
X116142Y48819D02*
G01X109843D01*
X102362Y41339*
Y21850*
X128346Y-112205D02*
G01X115157D01*
X114173Y-53543D02*
G01Y-62028D01*
X131890Y-40157D02*
G01X127165D01*
X123858Y-43465*
Y-69882*
X114173Y-33071D02*
G01X129528D01*
X131890Y-35433*
Y-40157*
X114173Y-23485D02*
G01Y-33071D01*
X112205Y21850D02*
G01Y25591D01*
X145866Y21654D02*
G01X121850D01*
X151575Y-112205D02*
G01X139370D01*
Y-112205D02*
G01Y-103937D01*
X140945Y-102362*
X134646Y-98287D02*
G01Y-102362D01*
X143858Y-87598D02*
G01Y-99449D01*
X140945Y-102362*
X131890Y-46457D02*
G01Y-51181D01*
X146654Y-15611D02*
G01Y-18701D01*
X138858Y1189D02*
G01X142717D01*
X146654Y-8011D02*
G01Y-2748D01*
X142717Y1189*
X128858D02*
G01Y4843D01*
X130827Y6811*
X156976*
X160630Y10465*
Y13780*
X145866Y30709D02*
G01X152893D01*
X153680Y31496*
X145866Y12598D02*
G01X153150D01*
X154331Y13780*
X160630D02*
G01Y27169D01*
X161093Y27631*
Y31308*
X161280Y31496*
X153543Y35433D02*
G01Y31633D01*
X153680Y31496*
X168406Y46260D02*
G01X170169Y44496D01*
X172165*
X177302Y88583D02*
G01X174213D01*
X182165Y18496D02*
G01Y13949D01*
Y44496D02*
G01X186228D01*
X181102Y78937D02*
G01Y54921D01*
X184902Y88583D02*
G01X188189D01*
X201850Y18496D02*
G01Y13949D01*
Y44496D02*
G01Y49213D01*
G54D129*
X66929Y50000D02*
G01Y37402D01*
X68898Y35433*
X75197*
X66929Y75984D02*
G01X78114D01*
X81693Y79563*
Y99409*
X86220Y35433D02*
G01X92520D01*
Y35433D02*
G01X92827D01*
X94488Y37094*
Y50000*
X89567Y99409D02*
G01Y80906D01*
X94488Y75984*
X116142Y76772D02*
G01X95276D01*
X94488Y75984*
X116142Y37795D02*
G01Y34449D01*
X121850Y28740*
Y21654*
X116142Y48819D02*
G01X122835D01*
X126378Y45276*
X128346*
X118110Y61024D02*
G01Y68898D01*
X116142Y70866*
Y76772*
X118110Y55118D02*
G01Y61024D01*
X148031Y45276D02*
G01Y51181D01*
X145669Y53543*
Y61024*
X133858D02*
G01Y57087D01*
X139370Y51575*
Y45276*
X132874Y36417D02*
G01X136811D01*
X139370Y38976*
Y45276*
X145669Y61024D02*
G01Y68898D01*
X147638Y70866*
Y76772*
X136811Y99409D02*
G01Y83661D01*
X143701Y76772*
X147638*
X133858Y61024D02*
G01Y74803D01*
X131890Y76772*
X127953*
X128937Y99409D02*
G01Y85630D01*
X127953Y84646*
Y76772*
X144685Y125984D02*
G01Y99409D01*
Y125984D02*
G01X153543D01*
X160433Y119094*
Y99409*
X159055Y45276D02*
G01Y45866D01*
X168110Y54921*
X181102*
X160433Y99409D02*
G01Y84646D01*
X159449Y83661*
Y76772*
X161417Y61024D02*
G01Y68898D01*
X159449Y70866*
Y76772*
X174213Y88583D02*
G01X172244Y86614D01*
Y86004*
X168307Y125984D02*
G01Y99409D01*
Y86004D02*
G01Y99409D01*
X172047Y78937D02*
G01Y85807D01*
X172244Y86004*
Y86004D02*
G01X168307D01*
X152559Y99409D02*
G01Y86004D01*
X191850Y44496D02*
G01Y48150D01*
X196850Y53150*
Y74803*
X192717Y78937*
X190157*
X188189Y88583D02*
G01X190157Y86614D01*
Y78937*
G54D33*
X72677Y-87598D02*
G01Y-69882D01*
X82677Y-87598D02*
G01Y-69882D01*
X92677Y-87598D02*
G01Y-69882D01*
X123858Y-87598D02*
G01Y-69882D01*
X133858Y-87598D02*
G01Y-69882D01*
X143858Y-87598D02*
G01Y-69882D01*
G54D181*
X-56555Y25138D02*
G01X-56102Y25591D01*
X30411Y-42222D02*
G01Y-60170D01*
X49213Y-78971*
Y-120079*
X67913Y-138780*
X138088*
X160829Y-116039*
Y-50901*
X198819Y-12911*
Y-1181*
X-1969Y30512D02*
G01Y41339D01*
X-7874Y47244*
X-19685*
Y53937*
Y53937D02*
G01X-16535D01*
X-14587Y51988*
X-10630*
X-12421Y85827D02*
G01Y77343D01*
X-13780Y75984*
X-12421Y85827D02*
G01Y91909D01*
X-9843Y94488*
X9843*
X13169Y91161*
Y85827*
X-12795Y121260D02*
G01X-7087D01*
X-4921Y119094*
X11024Y-122047D02*
G01Y-129724D01*
X10630Y-130118*
X4724Y-122047D02*
G01Y-118110D01*
X0Y30512D02*
G01Y43307D01*
X3766Y47073*
X17835*
X22750Y51988*
Y59927*
X22441Y60236*
X19685*
X10630Y63012D02*
G01X16909D01*
X19685Y60236*
X18169Y73031D02*
G01X9843D01*
X7874Y75000*
Y88478*
X5906Y90447*
X-6879*
X-7421Y89904*
Y85827*
Y85827D02*
G01Y78740D01*
X-7874Y78287*
Y75984*
X-2421Y85827D02*
G01Y80197D01*
Y80197D02*
G01Y78740D01*
X-1969Y78287*
Y75984*
X-2421Y107087D02*
G01Y116594D01*
X-4921Y119094*
X2579Y107087D02*
G01Y116752D01*
X4921Y119094*
X12795Y121260D02*
G01X7087D01*
X4921Y119094*
X20472Y-122047D02*
G01Y-129724D01*
X20866Y-130118*
X15748Y-118307D02*
G01X23031D01*
X26772Y-122047*
X190945Y-1181D02*
G01Y-17717D01*
X158659Y-50002*
Y-115140*
X137189Y-136610*
X68812*
X51382Y-119180*
Y-78072*
X32581Y-59271*
Y-31065*
X18169Y85827D02*
G01Y73031D01*
Y86083D02*
G01Y85827D01*
X35528Y-37402D02*
G01Y-59150D01*
X53551Y-77173*
Y-118281*
X69711Y-134441*
X136290*
X156490Y-114241*
Y-40348*
X149606Y-33465*
X146850*
X45276Y-17913D02*
G01X53543D01*
X63976Y-1181D02*
G01X59843D01*
X57874Y-3150*
Y-22047*
X52362Y-27559*
X34449*
X45276Y-11614D02*
G01X41339D01*
X93307Y-6516D02*
G01X87224D01*
X82677Y-1969*
Y3937*
X78130Y8484*
X72047*
X63976Y5118D02*
G01Y13780D01*
X66929Y16732*
X79528*
X72047Y3484D02*
G01X65610D01*
X63976Y5118*
Y-1181D02*
G01X64626Y-1516D01*
X72047*
X112205Y-8071D02*
G01X102362D01*
Y-8071D02*
G01X99980D01*
X98425Y-6516*
X93307*
X112205Y-1772D02*
G01X102362D01*
Y-1772D02*
G01X101122Y-1516D01*
X93307*
X85827Y23622D02*
G01X95472D01*
X98425Y20669*
Y3740*
X93307Y3484D02*
G01X98169D01*
X98425Y3740*
Y3740D02*
G01X102362D01*
Y10039D02*
G01Y15551D01*
X97441Y145866D02*
G01X95304D01*
X93336Y143898*
Y133239*
X95472Y131102*
X97441*
Y145866D02*
G01X100394D01*
X101181Y146654*
X104134*
X112205Y-1772D02*
G01Y3740D01*
Y10039D02*
G01Y15551D01*
X104134Y150394D02*
G01X105565D01*
X107671Y148288*
Y145281*
X110039Y142913*
X114370*
X121063Y137795D02*
G01Y143504D01*
Y131102D02*
G01Y137795D01*
X113189Y131102D02*
G01Y136024D01*
X112402Y136811*
X104134Y142913D02*
G01Y138780D01*
X106102Y136811*
X121063Y149803D02*
G01X119094D01*
X118504Y150394*
X114370*
X140551Y-33465D02*
G01X135827D01*
X128858Y-26496*
Y-24811*
X172165Y18496D02*
G01Y15256D01*
X182303Y5118*
X190945*
X191850Y18496D02*
G01Y14843D01*
X198819Y7874*
Y5118*
M02*
