G04 CAM350 V9.0 (Build 156) Date:  Wed Jul 31 17:37:15 2019 *
G04 Database: C:\1\627\100.0000627.cam *
G04 Layer 6: 1000000627-SSB *
%FSLAX25Y25*%
%MOIN*%
%SFA1.000B1.000*%

%MIA0B0*%
%IPPOS*%
%ADD10C,0.03937*%
%ADD13C,0.00800*%
%ADD20C,0.00787*%
%ADD21C,0.00394*%
%ADD114C,0.00394*%
%LN1000000627-SSB*%
%LPD*%
G54D10*
G01X-207431Y557579D02*
X-209892Y560039D01*
X-213583Y561270D01*
X-218504D01*
X-222195Y560039D01*
X-224656Y557579D01*
Y555118D01*
X-223425Y552657D01*
X-222195Y551427D01*
X-219734Y550197D01*
X-212352Y547736D01*
X-209892Y546506D01*
X-208661Y545276D01*
X-207431Y542815D01*
Y539124D01*
X-209892Y536663D01*
X-213583Y535433D01*
X-218504D01*
X-222195Y536663D01*
X-224656Y539124D01*
X-198819Y561270D02*
Y535433D01*
X-188976Y561270D02*
Y535433D01*
Y535433D02*
X-174213D01*
X-168061Y561270D02*
Y535433D01*
X-150837Y561270D02*
X-168061Y544045D01*
X-161909Y550197D02*
X-150837Y535433D01*
X-106545Y557579D02*
X-109006Y560039D01*
X-112697Y561270D01*
X-117618D01*
X-121309Y560039D01*
X-123770Y557579D01*
Y555118D01*
X-122539Y552657D01*
X-121309Y551427D01*
X-118848Y550197D01*
X-111467Y547736D01*
X-109006Y546506D01*
X-107776Y545276D01*
X-106545Y542815D01*
Y539124D01*
X-109006Y536663D01*
X-112697Y535433D01*
X-117618D01*
X-121309Y536663D01*
X-123770Y539124D01*
X-80709Y555118D02*
X-81939Y557579D01*
X-84400Y560039D01*
X-86860Y561270D01*
X-91781D01*
X-94242Y560039D01*
X-96703Y557579D01*
X-97933Y555118D01*
X-99163Y551427D01*
Y545276D01*
X-97933Y541585D01*
X-96703Y539124D01*
X-94242Y536663D01*
X-91781Y535433D01*
X-86860D01*
X-84400Y536663D01*
X-81939Y539124D01*
X-80709Y541585D01*
X-72096Y561270D02*
Y535433D01*
Y561270D02*
X-61024D01*
X-57333Y560039D01*
X-56102Y558809D01*
X-54872Y556348D01*
Y553888D01*
X-56102Y551427D01*
X-57333Y550197D01*
X-61024Y548967D01*
X-72096D01*
X-63484D02*
X-54872Y535433D01*
X-46260Y561270D02*
Y535433D01*
Y561270D02*
X-30266D01*
X-46260Y548967D02*
X-36417D01*
X-46260Y535433D02*
X-30266D01*
X-22884Y561270D02*
Y535433D01*
Y561270D02*
X-6890D01*
X-22884Y548967D02*
X-13041D01*
X-22884Y535433D02*
X-6890D01*
X492Y561270D02*
Y535433D01*
Y561270D02*
X17717Y535433D01*
Y561270D02*
Y535433D01*
X47244Y561270D02*
Y535433D01*
Y535433D02*
X62008D01*
X74311Y561270D02*
X64469Y535433D01*
X74311Y561270D02*
X84154Y535433D01*
X68159Y544045D02*
X80463D01*
X86614Y561270D02*
X96457Y548967D01*
Y535433D01*
X106299Y561270D02*
X96457Y548967D01*
X112451Y561270D02*
Y535433D01*
Y561270D02*
X128445D01*
X112451Y548967D02*
X122293D01*
X112451Y535433D02*
X128445D01*
X135827Y561270D02*
Y535433D01*
Y561270D02*
X146900D01*
X150591Y560039D01*
X151821Y558809D01*
X153051Y556348D01*
Y553888D01*
X151821Y551427D01*
X150591Y550197D01*
X146900Y548967D01*
X135827D01*
X144439D02*
X153051Y535433D01*
X181348Y561270D02*
Y535433D01*
Y561270D02*
X192421D01*
X196112Y560039D01*
X197343Y558809D01*
X198573Y556348D01*
Y553888D01*
X197343Y551427D01*
X196112Y550197D01*
X192421Y548967D01*
X181348D02*
X192421D01*
X196112Y547736D01*
X197343Y546506D01*
X198573Y544045D01*
Y540354D01*
X197343Y537894D01*
X196112Y536663D01*
X192421Y535433D01*
X181348D01*
X213337Y561270D02*
X210876Y560039D01*
X208415Y557579D01*
X207185Y555118D01*
X205955Y551427D01*
Y545276D01*
X207185Y541585D01*
X208415Y539124D01*
X210876Y536663D01*
X213337Y535433D01*
X218258D01*
X220719Y536663D01*
X223179Y539124D01*
X224409Y541585D01*
X225640Y545276D01*
Y551427D01*
X224409Y555118D01*
X223179Y557579D01*
X220719Y560039D01*
X218258Y561270D01*
X213337D01*
X239173D02*
Y535433D01*
X230561Y561270D02*
X247785D01*
X290846Y555118D02*
X289616Y557579D01*
X287156Y560039D01*
X284695Y561270D01*
X279774D01*
X277313Y560039D01*
X274852Y557579D01*
X273622Y555118D01*
X272392Y551427D01*
Y545276D01*
X273622Y541585D01*
X274852Y539124D01*
X277313Y536663D01*
X279774Y535433D01*
X284695D01*
X287156Y536663D01*
X289616Y539124D01*
X290846Y541585D01*
X305610Y561270D02*
X303150Y560039D01*
X300689Y557579D01*
X299459Y555118D01*
X298228Y551427D01*
Y545276D01*
X299459Y541585D01*
X300689Y539124D01*
X303150Y536663D01*
X305610Y535433D01*
X310531D01*
X312992Y536663D01*
X315453Y539124D01*
X316683Y541585D01*
X317913Y545276D01*
Y551427D01*
X316683Y555118D01*
X315453Y557579D01*
X312992Y560039D01*
X310531Y561270D01*
X305610D01*
X326526D02*
Y535433D01*
Y535433D02*
X341289D01*
X353593Y561270D02*
X351132Y560039D01*
X348671Y557579D01*
X347441Y555118D01*
X346211Y551427D01*
Y545276D01*
X347441Y541585D01*
X348671Y539124D01*
X351132Y536663D01*
X353593Y535433D01*
X358514D01*
X360974Y536663D01*
X363435Y539124D01*
X364665Y541585D01*
X365896Y545276D01*
Y551427D01*
X364665Y555118D01*
X363435Y557579D01*
X360974Y560039D01*
X358514Y561270D01*
X353593D01*
X374508D02*
Y535433D01*
Y561270D02*
X385581D01*
X389272Y560039D01*
X390502Y558809D01*
X391732Y556348D01*
Y553888D01*
X390502Y551427D01*
X389272Y550197D01*
X385581Y548967D01*
X374508D01*
X383120D02*
X391732Y535433D01*
X417569Y561270D02*
X423720Y535433D01*
X429872Y561270D02*
X423720Y535433D01*
X429872Y561270D02*
X436024Y535433D01*
X442175Y561270D02*
X436024Y535433D01*
X449557Y561270D02*
Y535433D01*
X464321Y561270D02*
Y535433D01*
X455709Y561270D02*
X472933D01*
X479085D02*
Y535433D01*
X496309Y561270D02*
Y535433D01*
X479085Y548967D02*
X496309D01*
X506152Y561270D02*
Y535433D01*
Y561270D02*
X522146D01*
X506152Y548967D02*
X515994D01*
X506152Y535433D02*
X522146D01*
G54D20*
X268110Y161417D02*
G01Y74803D01*
X238189*
Y161417*
X268110*
X238189Y124409D02*
G01X233465D01*
Y111811*
X238189*
G54D13*
X274606Y88583D02*
G01X269606D01*
X270606Y89342*
X274606D02*
G01Y87823D01*
X263462Y70745D02*
G01X263962Y70428D01*
X264295Y70048*
X264462Y69605*
X264295Y69098*
X263962Y68718*
X263462Y68338*
X262795Y68212*
X259462*
X264462Y64380D02*
G01X264378Y63937D01*
X264129Y63430*
X263712Y63113*
X263128Y62987*
X262545Y63113*
X262045Y63493*
X261795Y64063*
Y64696*
X261628Y65076*
X261212Y65393*
X260628Y65520*
X260045Y65329*
X259628Y64887*
X259462Y64380*
X259628Y63873*
X260045Y63430*
X260628Y63240*
X261212Y63367*
X261628Y63683*
X261795Y64063*
Y64696*
X262045Y65266*
X262545Y65646*
X263128Y65773*
X263712Y65646*
X264129Y65329*
X264378Y64823*
X264462Y64380*
G54D21*
X228279Y54038D02*
G01X229743Y54377D01*
X231443Y54625*
X233157Y54724*
X234874Y54673*
X236579Y54473*
X238261Y54125*
X239906Y53632*
X241502Y52998*
X243036Y52226*
X244497Y51324*
X245874Y50298*
X247157Y49156*
X248335Y47906*
X249399Y46559*
X250342Y45124*
X251157Y43612*
X251836Y42035*
X252376Y40405*
X252771Y38733*
X253020Y37034*
X253119Y35320*
X253068Y33603*
X252868Y31898*
X252520Y30216*
X252027Y28571*
X251392Y26975*
X250621Y25441*
X249719Y23980*
X248693Y22603*
X247551Y21320*
X246301Y20142*
X244954Y19078*
X243519Y18134*
X242945Y17757*
X242406Y17331*
X241906Y16860*
X241449Y16347*
X241038Y15796*
X240678Y15212*
X240369Y14598*
X240115Y13960*
X239918Y13302*
X239779Y12629*
X239699Y11947*
X239678Y11260*
X239718Y10575*
X239817Y9895*
X239976Y9226*
X240191Y8574*
X240463Y7943*
X240764Y7381*
X242945Y3753*
X243329Y3184*
X243762Y2651*
X244240Y2157*
X244759Y1707*
X245315Y1304*
X245904Y951*
X246522Y650*
X247163Y404*
X247824Y216*
X248498Y85*
X249182Y14*
X249655Y0*
Y-1*
X314961*
X315647Y29*
X316328Y119*
X316999Y268*
X317654Y474*
X318288Y737*
X318898Y1054*
X319477Y1423*
X320022Y1842*
X320528Y2306*
X320992Y2812*
X321411Y3357*
X321780Y3936*
X322097Y4546*
X322360Y5180*
X322566Y5835*
X322715Y6506*
X322805Y7187*
X322835Y7873*
Y208661*
X322805Y209348*
X322715Y210029*
X322566Y210699*
X322360Y211354*
X322097Y211989*
X321780Y212598*
X321411Y213178*
X320992Y213723*
X320528Y214229*
X320022Y214693*
X319477Y215111*
X318898Y215481*
X318288Y215798*
X317654Y216061*
X316999Y216267*
X316328Y216416*
X315647Y216505*
X314961Y216535*
X238962*
X238275Y216505*
X237594Y216416*
X236924Y216267*
X236269Y216061*
X235634Y215798*
X235025Y215480*
X234445Y215111*
X233900Y214693*
X233394Y214229*
X232930Y213723*
X232512Y213178*
X232143Y212598*
X231853Y212046*
X224416Y194495*
X218538Y176362*
X214262Y157786*
X211622Y138907*
X210637Y119871*
X211315Y100821*
X213651Y81903*
X217627Y63260*
X218630Y59527*
Y59526*
X218843Y58873*
X219111Y58241*
X219435Y57635*
X219809Y57059*
X220233Y56518*
X220701Y56016*
X221212Y55557*
X221761Y55144*
X222344Y54781*
X222957Y54469*
X223594Y54213*
X224251Y54012*
X224923Y53870*
X225605Y53787*
X226291Y53764*
X226977Y53800*
X227657Y53896*
X228279Y54038*
G54D114*
X271654Y-212598D02*
G01Y-131890D01*
X271639Y-131547*
X271594Y-131206*
X271519Y-130871*
X271416Y-130543*
X271285Y-130226*
X271126Y-129921*
X270942Y-129632*
X270732Y-129359*
X270500Y-129106*
X270247Y-128874*
X269975Y-128665*
X269685Y-128480*
X269380Y-128322*
X269063Y-128190*
X268736Y-128087*
X268400Y-128013*
X268060Y-127968*
X267717Y-127953*
X220472*
X220129Y-127968*
X219789Y-128013*
X219453Y-128087*
X219126Y-128190*
X218809Y-128322*
X218504Y-128480*
X218214Y-128665*
X217942Y-128874*
X217689Y-129106*
X217457Y-129359*
X217247Y-129632*
X217063Y-129921*
X216904Y-130226*
X216773Y-130543*
X216670Y-130871*
X216595Y-131206*
X216550Y-131547*
X216535Y-131890*
Y-212598*
X216550Y-212942*
X216595Y-213282*
X216670Y-213617*
X216773Y-213945*
X216904Y-214262*
X217063Y-214567*
X217247Y-214857*
X217457Y-215129*
X217689Y-215382*
X217942Y-215614*
X218214Y-215823*
X218504Y-216008*
X218809Y-216167*
X219126Y-216298*
X219453Y-216401*
X219789Y-216476*
X220129Y-216520*
X220472Y-216535*
X267717*
X268060Y-216520*
X268400Y-216476*
X268736Y-216401*
X269063Y-216298*
X269380Y-216167*
X269685Y-216008*
X269975Y-215823*
X270247Y-215614*
X270500Y-215382*
X270732Y-215129*
X270942Y-214857*
X271126Y-214567*
X271285Y-214262*
X271416Y-213945*
X271519Y-213617*
X271594Y-213282*
X271639Y-212942*
X271654Y-212598*
G54D21*
X-196850Y-37795D02*
G01Y25197D01*
X-196865Y25540*
X-196910Y25880*
X-196985Y26216*
X-197088Y26543*
X-197219Y26861*
X-197378Y27165*
X-197562Y27455*
X-197772Y27728*
X-198004Y27981*
X-198257Y28213*
X-198529Y28422*
X-198819Y28606*
X-199124Y28765*
X-199441Y28896*
X-199769Y29000*
X-200104Y29074*
X-200444Y29119*
X-200787Y29134*
X-210011*
X-210281Y29143*
X-210623Y29182*
X-210959Y29250*
X-211289Y29347*
X-211609Y29473*
X-211916Y29626*
X-212209Y29805*
X-212485Y30009*
X-212743Y30236*
X-212980Y30485*
X-213194Y30754*
X-213383Y31040*
X-213548Y31342*
X-213685Y31657*
X-213794Y31982*
X-213874Y32316*
X-213926Y32656*
X-213947Y32999*
X-213938Y33342*
X-213900Y33683*
X-212459Y41820*
X-208005Y60178*
X-201969Y78078*
X-194395Y95384*
X-185343Y111963*
X-174879Y127691*
X-163084Y142447*
X-150049Y156119*
X-135871Y168602*
X-120659Y179802*
X-104530Y189634*
X-87604Y198023*
X-70012Y204905*
X-51887Y210227*
X-33367Y213949*
X-14593Y216043*
X4292Y216493*
X23144Y215295*
X41820Y212459*
X60178Y208005*
X78078Y201969*
X78984Y201586*
X80206Y200957*
X81368Y200225*
X82462Y199394*
X83480Y198471*
X84413Y197463*
X85255Y196377*
X85998Y195222*
X86639Y194006*
X87171Y192740*
X87591Y191431*
X87895Y190092*
X88081Y188731*
X88148Y187359*
X88094Y185986*
X87922Y184623*
X87631Y183280*
X87341Y181937*
X87168Y180574*
X87115Y179202*
X87181Y177829*
X87368Y176468*
X87672Y175128*
X88091Y173820*
X88623Y172554*
X89264Y171338*
X90008Y170183*
X90850Y169097*
X91783Y168089*
X92800Y167166*
X93894Y166335*
X95026Y165620*
X103309Y160583*
X104496Y159891*
X105739Y159305*
X107028Y158830*
X108353Y158468*
X109705Y158224*
X111073Y158098*
X112447Y158092*
X113816Y158205*
X115170Y158438*
X116498Y158787*
X117792Y159252*
X119039Y159827*
X120232Y160508*
X121361Y161291*
X122391Y162146*
X123141Y162782*
X124252Y163591*
X125429Y164299*
X126663Y164902*
X127946Y165395*
X129266Y165774*
X130615Y166037*
X131981Y166182*
X133354Y166207*
X134725Y166112*
X136082Y165898*
X137415Y165566*
X138715Y165120*
X139970Y164562*
X141172Y163896*
X142311Y163129*
X143380Y162265*
X157307Y148802*
X169678Y134526*
X180756Y119225*
X190460Y103018*
X198714Y86026*
X205455Y68380*
X210633Y50213*
X214208Y31664*
X216152Y12874*
X216452Y-6014*
X215104Y-24856*
X212119Y-43509*
X207520Y-61831*
X201421Y-79451*
X200315Y-82205*
X197835Y-87992*
X195354Y-93386*
X191575Y-100906*
X189094Y-105472*
X183031Y-115669*
X179921Y-120472*
X177953Y-123346*
X172559Y-130787*
X168425Y-136063*
X163543Y-141890*
X156260Y-149882*
X152913Y-153307*
X150984Y-155197*
X149961Y-156181*
X147087Y-158898*
X142165Y-163307*
X136890Y-167756*
X131299Y-172165*
X124963Y-176808*
X109028Y-163437*
X108483Y-163019*
X107904Y-162650*
X107295Y-162333*
X106660Y-162070*
X106005Y-161863*
X105334Y-161715*
X104654Y-161625*
X103967Y-161595*
X103281Y-161625*
X102600Y-161715*
X101929Y-161863*
X101274Y-162070*
X100639Y-162333*
X100030Y-162650*
X99850Y-162757*
X87711Y-169607*
X86519Y-170291*
X85392Y-171076*
X84337Y-171957*
X83363Y-172925*
X82477Y-173976*
X81686Y-175099*
X80996Y-176287*
X80412Y-177530*
X79939Y-178820*
X79579Y-180146*
X79337Y-181498*
X79214Y-182867*
X79210Y-184240*
X79326Y-185609*
X79553Y-186928*
X79731Y-187895*
X79878Y-189261*
X79905Y-190635*
X79813Y-192006*
X79601Y-193363*
X79272Y-194697*
X78828Y-195997*
X78272Y-197253*
X77609Y-198456*
X76843Y-199597*
X75981Y-200667*
X75029Y-201657*
X73994Y-202561*
X72885Y-203371*
X71709Y-204082*
X70476Y-204687*
X69194Y-205182*
X56166Y-209124*
X37726Y-213224*
X18998Y-215700*
X18653Y-215716*
X18310Y-215700*
X17969Y-215656*
X17634Y-215581*
X17306Y-215478*
X16989Y-215347*
X16685Y-215188*
X16395Y-215004*
X16122Y-214794*
X15869Y-214563*
X15637Y-214309*
X15428Y-214037*
X15243Y-213747*
X15085Y-213443*
X14954Y-213125*
X14850Y-212798*
X14776Y-212462*
X14731Y-212122*
X14716Y-211779*
X14731Y-211435*
X14776Y-211095*
X14850Y-210759*
X14954Y-210432*
X28099Y-174315*
X28150Y-174152*
X28187Y-173984*
X28210Y-173814*
X28217Y-173642*
X28210Y-173471*
X28187Y-173300*
X28150Y-173133*
X28099Y-172969*
X28033Y-172810*
X27954Y-172658*
X27861Y-172513*
X27757Y-172377*
X27641Y-172250*
X27514Y-172134*
X27378Y-172030*
X27233Y-171937*
X27081Y-171858*
X26922Y-171793*
X26758Y-171741*
X26591Y-171704*
X26420Y-171681*
X26249Y-171674*
X26078Y-171681*
X25907Y-171704*
X25739Y-171741*
X25576Y-171793*
X25417Y-171858*
X25265Y-171937*
X25120Y-172030*
X24983Y-172134*
X24857Y-172250*
X24741Y-172377*
X24637Y-172513*
X24544Y-172658*
X24465Y-172810*
X24399Y-172969*
X-18886Y-157215*
X-18834Y-157051*
X-18797Y-156883*
X-18775Y-156713*
X-18767Y-156541*
X-18775Y-156370*
X-18797Y-156199*
X-18834Y-156032*
X-18886Y-155868*
X-18952Y-155709*
X-19031Y-155557*
X-19123Y-155412*
X-19228Y-155276*
X-19344Y-155149*
X-19470Y-155033*
X-19607Y-154929*
X-19752Y-154837*
X-19904Y-154757*
X-20062Y-154691*
X-20226Y-154640*
X-20394Y-154603*
X-20564Y-154580*
X-20736Y-154573*
X-20907Y-154580*
X-21078Y-154603*
X-21245Y-154640*
X-21409Y-154691*
X-21568Y-154757*
X-21720Y-154837*
X-21865Y-154929*
X-22001Y-155033*
X-22128Y-155149*
X-22244Y-155276*
X-22348Y-155412*
X-22441Y-155557*
X-22520Y-155709*
X-22585Y-155868*
X-39552Y-202483*
X-39683Y-202800*
X-39842Y-203105*
X-40026Y-203394*
X-40235Y-203667*
X-40467Y-203920*
X-40721Y-204152*
X-40993Y-204361*
X-41283Y-204546*
X-41587Y-204704*
X-41905Y-204836*
X-42232Y-204939*
X-42568Y-205013*
X-42908Y-205058*
X-43251Y-205073*
X-43594Y-205058*
X-43935Y-205013*
X-44270Y-204939*
X-44598Y-204836*
X-48852Y-203287*
X-49180Y-203184*
X-49515Y-203109*
X-49856Y-203065*
X-50199Y-203050*
X-50542Y-203065*
X-50883Y-203109*
X-51218Y-203184*
X-51546Y-203287*
X-51863Y-203419*
X-52167Y-203577*
X-52457Y-203762*
X-52730Y-203971*
X-52983Y-204203*
X-53215Y-204456*
X-53424Y-204729*
X-53609Y-205018*
X-53767Y-205323*
X-53898Y-205640*
X-54015Y-205961*
X-54033Y-206009*
X-54169Y-206325*
X-54331Y-206628*
X-54520Y-206915*
X-54732Y-207185*
X-54968Y-207435*
X-55224Y-207663*
X-55499Y-207869*
X-55791Y-208050*
X-56098Y-208204*
X-56417Y-208331*
X-56746Y-208430*
X-57082Y-208500*
X-57423Y-208541*
X-57767Y-208551*
X-58109Y-208531*
X-58449Y-208482*
X-58784Y-208404*
X-71187Y-204499*
X-88740Y-197517*
X-105617Y-189031*
X-121690Y-179106*
X-136837Y-167819*
X-150943Y-155254*
X-163900Y-141508*
X-164371Y-141008*
X-164884Y-140551*
X-165435Y-140141*
X-166019Y-139780*
X-166633Y-139471*
X-167271Y-139217*
X-167929Y-139020*
X-168602Y-138881*
X-169284Y-138801*
X-169860Y-138780*
X-182087*
X-182773Y-138750*
X-183454Y-138660*
X-184124Y-138511*
X-184780Y-138305*
X-185414Y-138042*
X-186024Y-137724*
X-186603Y-137356*
X-187148Y-136937*
X-187654Y-136473*
X-188119Y-135967*
X-188537Y-135422*
X-188906Y-134843*
X-189223Y-134233*
X-189486Y-133598*
X-189692Y-132943*
X-189841Y-132273*
X-189931Y-131592*
X-189961Y-130906*
Y-115170*
X-189906Y-113862*
X-189732Y-112499*
X-189441Y-111157*
X-189033Y-109845*
X-188512Y-108573*
X-187883Y-107352*
X-187149Y-106191*
X-186317Y-105097*
X-185393Y-104080*
X-184384Y-103148*
X-183298Y-102307*
X-182142Y-101565*
X-179710Y-100286*
X-178554Y-99543*
X-177468Y-98702*
X-176459Y-97770*
X-175535Y-96754*
X-174703Y-95660*
X-173969Y-94498*
X-173340Y-93277*
X-172819Y-92006*
X-172411Y-90694*
X-172120Y-89352*
X-171946Y-87989*
X-171891Y-86616*
X-171957Y-85244*
X-172142Y-83882*
X-172445Y-82542*
X-172863Y-81233*
X-173343Y-80076*
X-176733Y-72287*
X-177308Y-71039*
X-177990Y-69846*
X-178773Y-68717*
X-179651Y-67661*
X-180619Y-66685*
X-181667Y-65797*
X-182789Y-65004*
X-183976Y-64312*
X-185218Y-63726*
X-186507Y-63250*
X-187832Y-62889*
X-189184Y-62644*
X-190552Y-62519*
X-191926Y-62512*
X-193260Y-62622*
X-194239Y-62713*
X-195613Y-62737*
X-196983Y-62643*
X-198341Y-62428*
X-199674Y-62097*
X-200973Y-61650*
X-202228Y-61093*
X-203430Y-60427*
X-204570Y-59660*
X-205638Y-58796*
X-206627Y-57842*
X-207529Y-56806*
X-208337Y-55695*
X-209045Y-54518*
X-209648Y-53283*
X-210141Y-52001*
X-210521Y-50681*
X-211480Y-46515*
X-211513Y-46353*
X-211557Y-46013*
X-211572Y-45669*
X-211557Y-45326*
X-211513Y-44986*
X-211438Y-44650*
X-211335Y-44323*
X-211204Y-44006*
X-211045Y-43701*
X-210860Y-43411*
X-210651Y-43139*
X-210419Y-42885*
X-210166Y-42654*
X-209893Y-42444*
X-209604Y-42260*
X-209299Y-42101*
X-208982Y-41970*
X-208654Y-41867*
X-208319Y-41792*
X-207978Y-41747*
X-207635Y-41732*
X-200787*
X-200444Y-41717*
X-200104Y-41672*
X-199769Y-41598*
X-199441Y-41495*
X-199124Y-41363*
X-198819Y-41205*
X-198529Y-41020*
X-198257Y-40811*
X-198004Y-40579*
X-197772Y-40326*
X-197562Y-40054*
X-197378Y-39764*
X-197219Y-39459*
X-197088Y-39142*
X-196985Y-38814*
X-196910Y-38479*
X-196865Y-38139*
X-196850Y-37795*
G54D13*
G01X231002Y86833D02*
X236252Y89333D01*
X231002Y90333D02*
Y86833D01*
G01X271122Y146138D02*
X270622Y146388D01*
X270372Y147138D01*
Y147638D01*
X270622Y148388D01*
X271372Y148888D01*
X272622Y149138D01*
X273872D01*
X274872Y148888D01*
X275372Y148388D01*
X275622Y147638D01*
Y147388D01*
X275372Y146638D01*
X274872Y146138D01*
X274122Y145888D01*
X273872D01*
X273122Y146138D01*
X272622Y146638D01*
X272372Y147388D01*
Y147638D01*
X272622Y148388D01*
X273122Y148888D01*
X273872Y149138D01*
G01X232002Y151138D02*
X231752Y150638D01*
X231002Y149888D01*
X236252D01*
X232252Y146638D02*
X232002D01*
X231502Y146388D01*
X231252Y146138D01*
X231002Y145638D01*
Y144638D01*
X231252Y144138D01*
X231502Y143888D01*
X232002Y143638D01*
X232502D01*
X233002Y143888D01*
X233752Y144388D01*
X236252Y146888D01*
Y143388D01*
M02*
