G04 CAM350 V9.0 (Build 156) Date:  Wed Jul 31 17:37:15 2019 *
G04 Database: C:\1\627\100.0000627.cam *
G04 Layer 4: 1000000627-SMB *
%FSLAX25Y25*%
%MOIN*%
%SFA1.000B1.000*%

%MIA0B0*%
%IPPOS*%
%AMMACRO11_1*
20,1,0.03937,0.02220,-0.00808,-0.02220,0.00808,0.00000*
1,1,0.04724,0.00673,0.01850*
1,1,0.04724,-0.00673,-0.01850*
%
%ADD10C,0.03937*%
%ADD71C,0.14567*%
%ADD21C,0.00394*%
%ADD41C,0.05118*%
%ADD42C,0.07480*%
%ADD43C,0.05787*%
%ADD44C,0.06984*%
%ADD45C,0.07800*%
%ADD46R,0.06984X0.06984*%
%ADD47MACRO11_1*%
%ADD114C,0.00394*%
%ADD122O,0.12598X0.07480*%
%ADD138C,0.07799*%
%ADD139C,0.07787*%
%ADD140R,0.07799X0.07799*%
%ADD141R,0.07787X0.07787*%
%LN1000000627-SMB*%
%LPD*%
G36*
X15748Y127165D02*
G01X-125984D01*
X-126396Y127183*
X-126805Y127237*
X-127207Y127326*
X-127600Y127450*
X-127981Y127608*
X-128346Y127798*
X-128694Y128020*
X-129021Y128271*
X-129325Y128549*
X-129603Y128853*
X-129854Y129180*
X-130076Y129528*
X-130266Y129893*
X-130424Y130274*
X-130548Y130667*
X-130637Y131069*
X-130691Y131478*
X-130709Y131890*
Y151575*
X-130691Y151987*
X-130637Y152395*
X-130548Y152798*
X-130424Y153191*
X-130266Y153571*
X-130076Y153937*
X-129854Y154285*
X-129603Y154612*
X-129325Y154915*
X-129021Y155194*
X-128694Y155445*
X-128346Y155666*
X-127981Y155857*
X-127600Y156014*
X-127207Y156138*
X-126805Y156227*
X-126396Y156281*
X-125984Y156299*
X15757*
X16177Y156271*
X16593Y156207*
X17002Y156107*
X17400Y155972*
X17785Y155802*
X18154Y155599*
X18504Y155365*
X18832Y155102*
X19136Y154811*
X19413Y154494*
X19662Y154155*
X19880Y153795*
X20066Y153417*
X20218Y153025*
X20336Y152621*
X20418Y152208*
X20463Y151790*
X20472Y151584*
Y131890*
X20454Y131478*
X20401Y131069*
X20311Y130667*
X20188Y130274*
X20030Y129893*
X19839Y129528*
X19618Y129180*
X19367Y128853*
X19089Y128549*
X18785Y128271*
X18458Y128020*
X18110Y127798*
X17745Y127608*
X17364Y127450*
X16971Y127326*
X16568Y127237*
X16160Y127183*
X15748Y127165*
G37*
G54D71*
X279528Y24016D03*
X251969Y196850D03*
G54D44*
X239173Y-140157D03*
Y-151181D03*
X249016Y-140157D03*
G54D46*
Y-151181D03*
G54D45*
X246063Y88583D03*
X257874D03*
X246063Y100394D03*
X257874D03*
X246063Y112205D03*
X257874D03*
X246063Y135827D03*
X257874D03*
X246063Y124016D03*
X257874D03*
X246063Y147638D03*
X257874D03*
G54D41*
X242323Y76772D03*
Y159449D03*
G54D122*
X251969Y80118D03*
Y156102D03*
G54D71*
X-169291Y-120079D03*
X-183071Y84646D03*
X169291Y-9843D03*
G54D47*
X-36446Y-183967D03*
X-22443Y-145491D03*
X20897Y-204838D03*
X34901Y-166362D03*
G54D43*
X-10589Y-156090D03*
X9929Y-157273D03*
X2530Y-154580D03*
X-6719Y-151214D03*
X-3190Y-158783D03*
X4209Y-161476D03*
X11609Y-164169D03*
X19008Y-166862D03*
X19178Y-160639D03*
G54D42*
X-9843Y200787D03*
X9843D03*
X45276Y29528D03*
X70866Y-125984D03*
X115157Y-112205D03*
X144685Y125984D03*
X151575Y-112205D03*
X168307Y125984D03*
G54D139*
X82677Y-87598D03*
X92677D03*
X133858D03*
X143858D03*
G54D141*
X72677D03*
X123858D03*
G54D138*
X82677Y-69882D03*
X92677D03*
X143858D03*
X133858D03*
G54D140*
X72677D03*
X123858D03*
G54D10*
G01X-207431Y636319D02*
X-209892Y638780D01*
X-213583Y640010D01*
X-218504D01*
X-222195Y638780D01*
X-224656Y636319D01*
Y633858D01*
X-223425Y631398D01*
X-222195Y630167D01*
X-219734Y628937D01*
X-212352Y626476D01*
X-209892Y625246D01*
X-208661Y624016D01*
X-207431Y621555D01*
Y617864D01*
X-209892Y615404D01*
X-213583Y614173D01*
X-218504D01*
X-222195Y615404D01*
X-224656Y617864D01*
X-192667Y640010D02*
X-195128Y638780D01*
X-197589Y636319D01*
X-198819Y633858D01*
X-200049Y630167D01*
Y624016D01*
X-198819Y620325D01*
X-197589Y617864D01*
X-195128Y615404D01*
X-192667Y614173D01*
X-187746D01*
X-185285Y615404D01*
X-182825Y617864D01*
X-181594Y620325D01*
X-180364Y624016D01*
Y630167D01*
X-181594Y633858D01*
X-182825Y636319D01*
X-185285Y638780D01*
X-187746Y640010D01*
X-192667D01*
X-171752D02*
Y614173D01*
Y614173D02*
X-156988D01*
X-150837Y640010D02*
Y614173D01*
Y640010D02*
X-142224D01*
X-138533Y638780D01*
X-136073Y636319D01*
X-134843Y633858D01*
X-133612Y630167D01*
Y624016D01*
X-134843Y620325D01*
X-136073Y617864D01*
X-138533Y615404D01*
X-142224Y614173D01*
X-150837D01*
X-125000Y640010D02*
Y614173D01*
Y640010D02*
X-109006D01*
X-125000Y627707D02*
X-115157D01*
X-125000Y614173D02*
X-109006D01*
X-101624Y640010D02*
Y614173D01*
Y640010D02*
X-90551D01*
X-86860Y638780D01*
X-85630Y637549D01*
X-84400Y635089D01*
Y632628D01*
X-85630Y630167D01*
X-86860Y628937D01*
X-90551Y627707D01*
X-101624D01*
X-93012D02*
X-84400Y614173D01*
X-56102Y640010D02*
Y614173D01*
Y640010D02*
X-46260Y614173D01*
X-36417Y640010D02*
X-46260Y614173D01*
X-36417Y640010D02*
Y614173D01*
X-20423Y640010D02*
X-30266Y614173D01*
X-20423Y640010D02*
X-10581Y614173D01*
X-26575Y622785D02*
X-14272D01*
X11565Y636319D02*
X9104Y638780D01*
X5413Y640010D01*
X492D01*
X-3199Y638780D01*
X-5659Y636319D01*
Y633858D01*
X-4429Y631398D01*
X-3199Y630167D01*
X-738Y628937D01*
X6644Y626476D01*
X9104Y625246D01*
X10335Y624016D01*
X11565Y621555D01*
Y617864D01*
X9104Y615404D01*
X5413Y614173D01*
X492D01*
X-3199Y615404D01*
X-5659Y617864D01*
X20177Y640010D02*
Y614173D01*
X37402Y640010D02*
X20177Y622785D01*
X26329Y628937D02*
X37402Y614173D01*
X65699Y640010D02*
Y614173D01*
Y614173D02*
X80463D01*
X92766Y640010D02*
X82923Y614173D01*
X92766Y640010D02*
X102608Y614173D01*
X86614Y622785D02*
X98917D01*
X105069Y640010D02*
X114911Y627707D01*
Y614173D01*
X124754Y640010D02*
X114911Y627707D01*
X130906Y640010D02*
Y614173D01*
Y640010D02*
X146900D01*
X130906Y627707D02*
X140748D01*
X130906Y614173D02*
X146900D01*
X154281Y640010D02*
Y614173D01*
Y640010D02*
X165354D01*
X169045Y638780D01*
X170276Y637549D01*
X171506Y635089D01*
Y632628D01*
X170276Y630167D01*
X169045Y628937D01*
X165354Y627707D01*
X154281D01*
X162894D02*
X171506Y614173D01*
X199803Y640010D02*
Y614173D01*
Y640010D02*
X210876D01*
X214567Y638780D01*
X215797Y637549D01*
X217028Y635089D01*
Y632628D01*
X215797Y630167D01*
X214567Y628937D01*
X210876Y627707D01*
X199803D02*
X210876D01*
X214567Y626476D01*
X215797Y625246D01*
X217028Y622785D01*
Y619094D01*
X215797Y616634D01*
X214567Y615404D01*
X210876Y614173D01*
X199803D01*
X231791Y640010D02*
X229331Y638780D01*
X226870Y636319D01*
X225640Y633858D01*
X224409Y630167D01*
Y624016D01*
X225640Y620325D01*
X226870Y617864D01*
X229331Y615404D01*
X231791Y614173D01*
X236713D01*
X239173Y615404D01*
X241634Y617864D01*
X242864Y620325D01*
X244094Y624016D01*
Y630167D01*
X242864Y633858D01*
X241634Y636319D01*
X239173Y638780D01*
X236713Y640010D01*
X231791D01*
X257628D02*
Y614173D01*
X249016Y640010D02*
X266240D01*
X309301Y633858D02*
X308071Y636319D01*
X305610Y638780D01*
X303150Y640010D01*
X298228D01*
X295768Y638780D01*
X293307Y636319D01*
X292077Y633858D01*
X290846Y630167D01*
Y624016D01*
X292077Y620325D01*
X293307Y617864D01*
X295768Y615404D01*
X298228Y614173D01*
X303150D01*
X305610Y615404D01*
X308071Y617864D01*
X309301Y620325D01*
X324065Y640010D02*
X321604Y638780D01*
X319144Y636319D01*
X317913Y633858D01*
X316683Y630167D01*
Y624016D01*
X317913Y620325D01*
X319144Y617864D01*
X321604Y615404D01*
X324065Y614173D01*
X328986D01*
X331447Y615404D01*
X333907Y617864D01*
X335138Y620325D01*
X336368Y624016D01*
Y630167D01*
X335138Y633858D01*
X333907Y636319D01*
X331447Y638780D01*
X328986Y640010D01*
X324065D01*
X344980D02*
Y614173D01*
Y614173D02*
X359744D01*
X372047Y640010D02*
X369587Y638780D01*
X367126Y636319D01*
X365896Y633858D01*
X364665Y630167D01*
Y624016D01*
X365896Y620325D01*
X367126Y617864D01*
X369587Y615404D01*
X372047Y614173D01*
X376969D01*
X379429Y615404D01*
X381890Y617864D01*
X383120Y620325D01*
X384350Y624016D01*
Y630167D01*
X383120Y633858D01*
X381890Y636319D01*
X379429Y638780D01*
X376969Y640010D01*
X372047D01*
X392963D02*
Y614173D01*
Y640010D02*
X404035D01*
X407726Y638780D01*
X408957Y637549D01*
X410187Y635089D01*
Y632628D01*
X408957Y630167D01*
X407726Y628937D01*
X404035Y627707D01*
X392963D01*
X401575D02*
X410187Y614173D01*
X438484Y640010D02*
Y614173D01*
Y640010D02*
X449557D01*
X453248Y638780D01*
X454478Y637549D01*
X455709Y635089D01*
Y632628D01*
X454478Y630167D01*
X453248Y628937D01*
X449557Y627707D01*
X438484D02*
X449557D01*
X453248Y626476D01*
X454478Y625246D01*
X455709Y622785D01*
Y619094D01*
X454478Y616634D01*
X453248Y615404D01*
X449557Y614173D01*
X438484D01*
X464321Y640010D02*
Y614173D01*
Y614173D02*
X479085D01*
X491388Y640010D02*
X481545Y614173D01*
X491388Y640010D02*
X501230Y614173D01*
X485236Y622785D02*
X497539D01*
X524606Y633858D02*
X523376Y636319D01*
X520915Y638780D01*
X518455Y640010D01*
X513533D01*
X511073Y638780D01*
X508612Y636319D01*
X507382Y633858D01*
X506152Y630167D01*
Y624016D01*
X507382Y620325D01*
X508612Y617864D01*
X511073Y615404D01*
X513533Y614173D01*
X518455D01*
X520915Y615404D01*
X523376Y617864D01*
X524606Y620325D01*
X533219Y640010D02*
Y614173D01*
X550443Y640010D02*
X533219Y622785D01*
X539370Y628937D02*
X550443Y614173D01*
G54D21*
X228279Y54038D02*
G01X229743Y54377D01*
X231443Y54625*
X233157Y54724*
X234874Y54673*
X236579Y54473*
X238261Y54125*
X239906Y53632*
X241502Y52998*
X243036Y52226*
X244497Y51324*
X245874Y50298*
X247157Y49156*
X248335Y47906*
X249399Y46559*
X250342Y45124*
X251157Y43612*
X251836Y42035*
X252376Y40405*
X252771Y38733*
X253020Y37034*
X253119Y35320*
X253068Y33603*
X252868Y31898*
X252520Y30216*
X252027Y28571*
X251392Y26975*
X250621Y25441*
X249719Y23980*
X248693Y22603*
X247551Y21320*
X246301Y20142*
X244954Y19078*
X243519Y18134*
X242945Y17757*
X242406Y17331*
X241906Y16860*
X241449Y16347*
X241038Y15796*
X240678Y15212*
X240369Y14598*
X240115Y13960*
X239918Y13302*
X239779Y12629*
X239699Y11947*
X239678Y11260*
X239718Y10575*
X239817Y9895*
X239976Y9226*
X240191Y8574*
X240463Y7943*
X240764Y7381*
X242945Y3753*
X243329Y3184*
X243762Y2651*
X244240Y2157*
X244759Y1707*
X245315Y1304*
X245904Y951*
X246522Y650*
X247163Y404*
X247824Y216*
X248498Y85*
X249182Y14*
X249655Y0*
Y-1*
X314961*
X315647Y29*
X316328Y119*
X316999Y268*
X317654Y474*
X318288Y737*
X318898Y1054*
X319477Y1423*
X320022Y1842*
X320528Y2306*
X320992Y2812*
X321411Y3357*
X321780Y3936*
X322097Y4546*
X322360Y5180*
X322566Y5835*
X322715Y6506*
X322805Y7187*
X322835Y7873*
Y208661*
X322805Y209348*
X322715Y210029*
X322566Y210699*
X322360Y211354*
X322097Y211989*
X321780Y212598*
X321411Y213178*
X320992Y213723*
X320528Y214229*
X320022Y214693*
X319477Y215111*
X318898Y215481*
X318288Y215798*
X317654Y216061*
X316999Y216267*
X316328Y216416*
X315647Y216505*
X314961Y216535*
X238962*
X238275Y216505*
X237594Y216416*
X236924Y216267*
X236269Y216061*
X235634Y215798*
X235025Y215480*
X234445Y215111*
X233900Y214693*
X233394Y214229*
X232930Y213723*
X232512Y213178*
X232143Y212598*
X231853Y212046*
X224416Y194495*
X218538Y176362*
X214262Y157786*
X211622Y138907*
X210637Y119871*
X211315Y100821*
X213651Y81903*
X217627Y63260*
X218630Y59527*
Y59526*
X218843Y58873*
X219111Y58241*
X219435Y57635*
X219809Y57059*
X220233Y56518*
X220701Y56016*
X221212Y55557*
X221761Y55144*
X222344Y54781*
X222957Y54469*
X223594Y54213*
X224251Y54012*
X224923Y53870*
X225605Y53787*
X226291Y53764*
X226977Y53800*
X227657Y53896*
X228279Y54038*
G54D114*
X271654Y-212598D02*
G01Y-131890D01*
X271639Y-131547*
X271594Y-131206*
X271519Y-130871*
X271416Y-130543*
X271285Y-130226*
X271126Y-129921*
X270942Y-129632*
X270732Y-129359*
X270500Y-129106*
X270247Y-128874*
X269975Y-128665*
X269685Y-128480*
X269380Y-128322*
X269063Y-128190*
X268736Y-128087*
X268400Y-128013*
X268060Y-127968*
X267717Y-127953*
X220472*
X220129Y-127968*
X219789Y-128013*
X219453Y-128087*
X219126Y-128190*
X218809Y-128322*
X218504Y-128480*
X218214Y-128665*
X217942Y-128874*
X217689Y-129106*
X217457Y-129359*
X217247Y-129632*
X217063Y-129921*
X216904Y-130226*
X216773Y-130543*
X216670Y-130871*
X216595Y-131206*
X216550Y-131547*
X216535Y-131890*
Y-212598*
X216550Y-212942*
X216595Y-213282*
X216670Y-213617*
X216773Y-213945*
X216904Y-214262*
X217063Y-214567*
X217247Y-214857*
X217457Y-215129*
X217689Y-215382*
X217942Y-215614*
X218214Y-215823*
X218504Y-216008*
X218809Y-216167*
X219126Y-216298*
X219453Y-216401*
X219789Y-216476*
X220129Y-216520*
X220472Y-216535*
X267717*
X268060Y-216520*
X268400Y-216476*
X268736Y-216401*
X269063Y-216298*
X269380Y-216167*
X269685Y-216008*
X269975Y-215823*
X270247Y-215614*
X270500Y-215382*
X270732Y-215129*
X270942Y-214857*
X271126Y-214567*
X271285Y-214262*
X271416Y-213945*
X271519Y-213617*
X271594Y-213282*
X271639Y-212942*
X271654Y-212598*
G54D21*
X-196850Y-37795D02*
G01Y25197D01*
X-196865Y25540*
X-196910Y25880*
X-196985Y26216*
X-197088Y26543*
X-197219Y26861*
X-197378Y27165*
X-197562Y27455*
X-197772Y27728*
X-198004Y27981*
X-198257Y28213*
X-198529Y28422*
X-198819Y28606*
X-199124Y28765*
X-199441Y28896*
X-199769Y29000*
X-200104Y29074*
X-200444Y29119*
X-200787Y29134*
X-210011*
X-210281Y29143*
X-210623Y29182*
X-210959Y29250*
X-211289Y29347*
X-211609Y29473*
X-211916Y29626*
X-212209Y29805*
X-212485Y30009*
X-212743Y30236*
X-212980Y30485*
X-213194Y30754*
X-213383Y31040*
X-213548Y31342*
X-213685Y31657*
X-213794Y31982*
X-213874Y32316*
X-213926Y32656*
X-213947Y32999*
X-213938Y33342*
X-213900Y33683*
X-212459Y41820*
X-208005Y60178*
X-201969Y78078*
X-194395Y95384*
X-185343Y111963*
X-174879Y127691*
X-163084Y142447*
X-150049Y156119*
X-135871Y168602*
X-120659Y179802*
X-104530Y189634*
X-87604Y198023*
X-70012Y204905*
X-51887Y210227*
X-33367Y213949*
X-14593Y216043*
X4292Y216493*
X23144Y215295*
X41820Y212459*
X60178Y208005*
X78078Y201969*
X78984Y201586*
X80206Y200957*
X81368Y200225*
X82462Y199394*
X83480Y198471*
X84413Y197463*
X85255Y196377*
X85998Y195222*
X86639Y194006*
X87171Y192740*
X87591Y191431*
X87895Y190092*
X88081Y188731*
X88148Y187359*
X88094Y185986*
X87922Y184623*
X87631Y183280*
X87341Y181937*
X87168Y180574*
X87115Y179202*
X87181Y177829*
X87368Y176468*
X87672Y175128*
X88091Y173820*
X88623Y172554*
X89264Y171338*
X90008Y170183*
X90850Y169097*
X91783Y168089*
X92800Y167166*
X93894Y166335*
X95026Y165620*
X103309Y160583*
X104496Y159891*
X105739Y159305*
X107028Y158830*
X108353Y158468*
X109705Y158224*
X111073Y158098*
X112447Y158092*
X113816Y158205*
X115170Y158438*
X116498Y158787*
X117792Y159252*
X119039Y159827*
X120232Y160508*
X121361Y161291*
X122391Y162146*
X123141Y162782*
X124252Y163591*
X125429Y164299*
X126663Y164902*
X127946Y165395*
X129266Y165774*
X130615Y166037*
X131981Y166182*
X133354Y166207*
X134725Y166112*
X136082Y165898*
X137415Y165566*
X138715Y165120*
X139970Y164562*
X141172Y163896*
X142311Y163129*
X143380Y162265*
X157307Y148802*
X169678Y134526*
X180756Y119225*
X190460Y103018*
X198714Y86026*
X205455Y68380*
X210633Y50213*
X214208Y31664*
X216152Y12874*
X216452Y-6014*
X215104Y-24856*
X212119Y-43509*
X207520Y-61831*
X201421Y-79451*
X200315Y-82205*
X197835Y-87992*
X195354Y-93386*
X191575Y-100906*
X189094Y-105472*
X183031Y-115669*
X179921Y-120472*
X177953Y-123346*
X172559Y-130787*
X168425Y-136063*
X163543Y-141890*
X156260Y-149882*
X152913Y-153307*
X150984Y-155197*
X149961Y-156181*
X147087Y-158898*
X142165Y-163307*
X136890Y-167756*
X131299Y-172165*
X124963Y-176808*
X109028Y-163437*
X108483Y-163019*
X107904Y-162650*
X107295Y-162333*
X106660Y-162070*
X106005Y-161863*
X105334Y-161715*
X104654Y-161625*
X103967Y-161595*
X103281Y-161625*
X102600Y-161715*
X101929Y-161863*
X101274Y-162070*
X100639Y-162333*
X100030Y-162650*
X99850Y-162757*
X87711Y-169607*
X86519Y-170291*
X85392Y-171076*
X84337Y-171957*
X83363Y-172925*
X82477Y-173976*
X81686Y-175099*
X80996Y-176287*
X80412Y-177530*
X79939Y-178820*
X79579Y-180146*
X79337Y-181498*
X79214Y-182867*
X79210Y-184240*
X79326Y-185609*
X79553Y-186928*
X79731Y-187895*
X79878Y-189261*
X79905Y-190635*
X79813Y-192006*
X79601Y-193363*
X79272Y-194697*
X78828Y-195997*
X78272Y-197253*
X77609Y-198456*
X76843Y-199597*
X75981Y-200667*
X75029Y-201657*
X73994Y-202561*
X72885Y-203371*
X71709Y-204082*
X70476Y-204687*
X69194Y-205182*
X56166Y-209124*
X37726Y-213224*
X18998Y-215700*
X18653Y-215716*
X18310Y-215700*
X17969Y-215656*
X17634Y-215581*
X17306Y-215478*
X16989Y-215347*
X16685Y-215188*
X16395Y-215004*
X16122Y-214794*
X15869Y-214563*
X15637Y-214309*
X15428Y-214037*
X15243Y-213747*
X15085Y-213443*
X14954Y-213125*
X14850Y-212798*
X14776Y-212462*
X14731Y-212122*
X14716Y-211779*
X14731Y-211435*
X14776Y-211095*
X14850Y-210759*
X14954Y-210432*
X28099Y-174315*
X28150Y-174152*
X28187Y-173984*
X28210Y-173814*
X28217Y-173642*
X28210Y-173471*
X28187Y-173300*
X28150Y-173133*
X28099Y-172969*
X28033Y-172810*
X27954Y-172658*
X27861Y-172513*
X27757Y-172377*
X27641Y-172250*
X27514Y-172134*
X27378Y-172030*
X27233Y-171937*
X27081Y-171858*
X26922Y-171793*
X26758Y-171741*
X26591Y-171704*
X26420Y-171681*
X26249Y-171674*
X26078Y-171681*
X25907Y-171704*
X25739Y-171741*
X25576Y-171793*
X25417Y-171858*
X25265Y-171937*
X25120Y-172030*
X24983Y-172134*
X24857Y-172250*
X24741Y-172377*
X24637Y-172513*
X24544Y-172658*
X24465Y-172810*
X24399Y-172969*
X-18886Y-157215*
X-18834Y-157051*
X-18797Y-156883*
X-18775Y-156713*
X-18767Y-156541*
X-18775Y-156370*
X-18797Y-156199*
X-18834Y-156032*
X-18886Y-155868*
X-18952Y-155709*
X-19031Y-155557*
X-19123Y-155412*
X-19228Y-155276*
X-19344Y-155149*
X-19470Y-155033*
X-19607Y-154929*
X-19752Y-154837*
X-19904Y-154757*
X-20062Y-154691*
X-20226Y-154640*
X-20394Y-154603*
X-20564Y-154580*
X-20736Y-154573*
X-20907Y-154580*
X-21078Y-154603*
X-21245Y-154640*
X-21409Y-154691*
X-21568Y-154757*
X-21720Y-154837*
X-21865Y-154929*
X-22001Y-155033*
X-22128Y-155149*
X-22244Y-155276*
X-22348Y-155412*
X-22441Y-155557*
X-22520Y-155709*
X-22585Y-155868*
X-39552Y-202483*
X-39683Y-202800*
X-39842Y-203105*
X-40026Y-203394*
X-40235Y-203667*
X-40467Y-203920*
X-40721Y-204152*
X-40993Y-204361*
X-41283Y-204546*
X-41587Y-204704*
X-41905Y-204836*
X-42232Y-204939*
X-42568Y-205013*
X-42908Y-205058*
X-43251Y-205073*
X-43594Y-205058*
X-43935Y-205013*
X-44270Y-204939*
X-44598Y-204836*
X-48852Y-203287*
X-49180Y-203184*
X-49515Y-203109*
X-49856Y-203065*
X-50199Y-203050*
X-50542Y-203065*
X-50883Y-203109*
X-51218Y-203184*
X-51546Y-203287*
X-51863Y-203419*
X-52167Y-203577*
X-52457Y-203762*
X-52730Y-203971*
X-52983Y-204203*
X-53215Y-204456*
X-53424Y-204729*
X-53609Y-205018*
X-53767Y-205323*
X-53898Y-205640*
X-54015Y-205961*
X-54033Y-206009*
X-54169Y-206325*
X-54331Y-206628*
X-54520Y-206915*
X-54732Y-207185*
X-54968Y-207435*
X-55224Y-207663*
X-55499Y-207869*
X-55791Y-208050*
X-56098Y-208204*
X-56417Y-208331*
X-56746Y-208430*
X-57082Y-208500*
X-57423Y-208541*
X-57767Y-208551*
X-58109Y-208531*
X-58449Y-208482*
X-58784Y-208404*
X-71187Y-204499*
X-88740Y-197517*
X-105617Y-189031*
X-121690Y-179106*
X-136837Y-167819*
X-150943Y-155254*
X-163900Y-141508*
X-164371Y-141008*
X-164884Y-140551*
X-165435Y-140141*
X-166019Y-139780*
X-166633Y-139471*
X-167271Y-139217*
X-167929Y-139020*
X-168602Y-138881*
X-169284Y-138801*
X-169860Y-138780*
X-182087*
X-182773Y-138750*
X-183454Y-138660*
X-184124Y-138511*
X-184780Y-138305*
X-185414Y-138042*
X-186024Y-137724*
X-186603Y-137356*
X-187148Y-136937*
X-187654Y-136473*
X-188119Y-135967*
X-188537Y-135422*
X-188906Y-134843*
X-189223Y-134233*
X-189486Y-133598*
X-189692Y-132943*
X-189841Y-132273*
X-189931Y-131592*
X-189961Y-130906*
Y-115170*
X-189906Y-113862*
X-189732Y-112499*
X-189441Y-111157*
X-189033Y-109845*
X-188512Y-108573*
X-187883Y-107352*
X-187149Y-106191*
X-186317Y-105097*
X-185393Y-104080*
X-184384Y-103148*
X-183298Y-102307*
X-182142Y-101565*
X-179710Y-100286*
X-178554Y-99543*
X-177468Y-98702*
X-176459Y-97770*
X-175535Y-96754*
X-174703Y-95660*
X-173969Y-94498*
X-173340Y-93277*
X-172819Y-92006*
X-172411Y-90694*
X-172120Y-89352*
X-171946Y-87989*
X-171891Y-86616*
X-171957Y-85244*
X-172142Y-83882*
X-172445Y-82542*
X-172863Y-81233*
X-173343Y-80076*
X-176733Y-72287*
X-177308Y-71039*
X-177990Y-69846*
X-178773Y-68717*
X-179651Y-67661*
X-180619Y-66685*
X-181667Y-65797*
X-182789Y-65004*
X-183976Y-64312*
X-185218Y-63726*
X-186507Y-63250*
X-187832Y-62889*
X-189184Y-62644*
X-190552Y-62519*
X-191926Y-62512*
X-193260Y-62622*
X-194239Y-62713*
X-195613Y-62737*
X-196983Y-62643*
X-198341Y-62428*
X-199674Y-62097*
X-200973Y-61650*
X-202228Y-61093*
X-203430Y-60427*
X-204570Y-59660*
X-205638Y-58796*
X-206627Y-57842*
X-207529Y-56806*
X-208337Y-55695*
X-209045Y-54518*
X-209648Y-53283*
X-210141Y-52001*
X-210521Y-50681*
X-211480Y-46515*
X-211513Y-46353*
X-211557Y-46013*
X-211572Y-45669*
X-211557Y-45326*
X-211513Y-44986*
X-211438Y-44650*
X-211335Y-44323*
X-211204Y-44006*
X-211045Y-43701*
X-210860Y-43411*
X-210651Y-43139*
X-210419Y-42885*
X-210166Y-42654*
X-209893Y-42444*
X-209604Y-42260*
X-209299Y-42101*
X-208982Y-41970*
X-208654Y-41867*
X-208319Y-41792*
X-207978Y-41747*
X-207635Y-41732*
X-200787*
X-200444Y-41717*
X-200104Y-41672*
X-199769Y-41598*
X-199441Y-41495*
X-199124Y-41363*
X-198819Y-41205*
X-198529Y-41020*
X-198257Y-40811*
X-198004Y-40579*
X-197772Y-40326*
X-197562Y-40054*
X-197378Y-39764*
X-197219Y-39459*
X-197088Y-39142*
X-196985Y-38814*
X-196910Y-38479*
X-196865Y-38139*
X-196850Y-37795*
X-125984Y127953D02*
G01X15748D01*
Y127953D02*
G75*
G03X19685Y131890J3937D01*
Y131890D02*
G01Y151575D01*
Y151575D02*
G03X15748Y155512I-4035J-98D01*
Y155512D02*
G01X-125984D01*
Y155512D02*
G03X-129921Y151575J-3937D01*
Y151575D02*
G01Y131890D01*
Y131890D02*
G03X-125984Y127953I3937D01*
M02*
