G04 CAM350 V9.0 (Build 156) Date:  Wed Jul 31 17:37:15 2019 *
G04 Database: C:\1\627\100.0000627.cam *
G04 Layer 8: 1000000627-DRD *
%FSLAX25Y25*%
%MOIN*%
%SFA1.000B1.000*%

%MIA0B0*%
%IPPOS*%
%AMMACRO12*
20,1,0.03937,0.00925,-0.00337,-0.00925,0.00337,0.00000*
1,1,0.01969,0.00673,0.01850*
1,1,0.01969,-0.00673,-0.01850*
%
%AMrect38x7xr1*
4,1,68,-0.74803,0.09843,-0.74784,0.10228,-0.74728,0.10611,-0.74634,0.10985,-0.74503,0.11349,-0.74338,0.11698,-0.74140,0.12030,-0.73909,0.12340,-0.73650,0.12626,-0.73364,0.12886,-0.73053,0.13116,-0.72722,0.13315,-0.72373,0.13480,-0.72009,0.13610,-0.71634,0.13704,-0.71252,0.13761,-0.70866,0.13780,0.70866,0.13780,0.71252,0.13761,0.71634,0.13704,0.72009,0.13610,0.72373,0.13480,0.72722,0.13315,0.73053,0.13116,0.73364,0.12886,0.73650,0.12626,0.73909,0.12340,0.74140,0.12030,0.74338,0.11698,0.74503,0.11349,0.74634,0.10985,0.74728,0.10611,0.74784,0.10228,0.74803,0.09843,0.74803,-0.09843,0.74784,-0.10228,0.74728,-0.10611,0.74634,-0.10985,0.74503,-0.11349,0.74338,-0.11698,0.74140,-0.12030,0.73909,-0.12340,0.73650,-0.12626,0.73364,-0.12886,0.73053,-0.13116,0.72722,-0.13315,0.72373,-0.13480,0.72009,-0.13610,0.71634,-0.13704,0.71252,-0.13761,0.70866,-0.13780,-0.70866,-0.13780,-0.71252,-0.13761,-0.71634,-0.13704,-0.72009,-0.13610,-0.72373,-0.13480,-0.72722,-0.13315,-0.73053,-0.13116,-0.73364,-0.12886,-0.73650,-0.12626,-0.73909,-0.12340,-0.74140,-0.12030,-0.74338,-0.11698,-0.74503,-0.11349,-0.74634,-0.10985,-0.74728,-0.10611,-0.74784,-0.10228,-0.74803,-0.09843,-0.74803,0.09843,0.00000*
%
%ADD10C,0.03937*%
%ADD11C,0.04331*%
%ADD15C,0.01969*%
%ADD17C,0.03543*%
%ADD19C,0.13780*%
%ADD21C,0.00394*%
%ADD29C,0.01181*%
%ADD35C,0.03150*%
%ADD39MACRO12*%
%ADD40C,0.01969*%
%ADD113rect38x7xr1*%
%ADD114C,0.00394*%
%ADD124O,0.09449X0.03937*%
%LN1000000627-DRD*%
%LPD*%
G54D19*
X-169291Y-120079D03*
X279528Y24016D03*
X251969Y196850D03*
G54D29*
X240157Y-172382D03*
G54D17*
X239173Y-140157D03*
Y-151181D03*
X249016Y-140157D03*
Y-151181D03*
G54D15*
X307874Y60846D03*
X302943Y52972D03*
X298917Y92342D03*
Y84468D03*
Y76594D03*
G54D11*
X246063Y88583D03*
X257874D03*
X242323Y76772D03*
X246063Y100394D03*
X257874D03*
X246063Y112205D03*
X257874D03*
X246063Y135827D03*
X257874D03*
X246063Y124016D03*
X257874D03*
X246063Y147638D03*
X257874D03*
X242323Y159449D03*
G54D124*
X251969Y80118D03*
Y156102D03*
G54D15*
X312776Y68720D03*
G54D40*
X239370Y-127953D03*
X242520D03*
X245669D03*
X248819D03*
X251969D03*
X255118D03*
X258268D03*
Y-216535D03*
X255118D03*
X251969D03*
X248819D03*
X245669D03*
X242520D03*
X239370D03*
X267717Y-1D03*
X270866D03*
X274016D03*
X277165D03*
X280315D03*
X283465D03*
X286614D03*
X264567Y216535D03*
X267717D03*
X270866D03*
X274016D03*
X277165D03*
X280315D03*
X283465D03*
X-170632Y133313D03*
X-168754Y135682D03*
X-166843Y138025D03*
X-164900Y140341D03*
X-176065Y126050D03*
X-174288Y128496D03*
X-172477Y130917D03*
X-184429Y113462D03*
X-182827Y116025D03*
X-181189Y118567D03*
X-179516Y121085D03*
X-177808Y123580D03*
X-160917Y-144890D03*
X-152578Y-153647D03*
X-154709Y-151502D03*
X-156809Y-149327D03*
X-158879Y-147123D03*
X-143764Y-161925D03*
X-146010Y-159902D03*
X-148229Y-157848D03*
X-150418Y-155763D03*
X-136857Y-167803D03*
X-139186Y-165876D03*
X-141489Y-163916D03*
X53850Y-209733D03*
X50917Y-210464D03*
X47973Y-211154D03*
X65474Y-206400D03*
X62586Y-207294D03*
X59685Y-208147D03*
X56773Y-208960D03*
X212700Y-40575D03*
X212113Y-43540D03*
X211484Y-46498D03*
X210814Y-49446D03*
X210103Y-52385D03*
X209352Y-55313D03*
X208559Y-58231D03*
X207725Y-61137D03*
X206852Y-64031D03*
X146010Y159902D03*
X148229Y157848D03*
X150418Y155763D03*
X143764Y161925D03*
X156809Y149327D03*
X158879Y147123D03*
X152578Y153647D03*
X154709Y151502D03*
X160917Y144890D03*
X162924Y142630D03*
X164900Y140341D03*
X166843Y138025D03*
G54D19*
X-183071Y84646D03*
X169291Y-9843D03*
G54D29*
X-156496Y591D03*
X-153543Y-2953D03*
Y26181D03*
X-141675Y-4437D03*
X-142818Y-649D03*
X-128930Y-6188D03*
X-129120Y-2236D03*
X-132874Y-984D03*
X-138780Y28150D03*
X-134646Y23622D03*
X-118110Y-78740D03*
X-102362Y-70866D03*
X-123031Y-30512D03*
X-125000Y-6890D03*
X-122047Y-9843D03*
X-120079Y27559D03*
Y11524D03*
X-95276Y-102343D03*
X-90551Y-70866D03*
X-96457Y-78740D03*
X-84646Y-72835D03*
X-96457Y-70866D03*
X-85754Y-14888D03*
X-82677Y-17717D03*
X-88583Y-11811D03*
X-96457Y0D03*
X-90551Y-217D03*
X-95472Y16201D03*
Y21201D03*
Y26201D03*
Y11201D03*
X-78740Y-72835D03*
X-78204Y-18807D03*
X-70866Y-7874D03*
X-42323Y-59843D03*
X-56240Y-35433D03*
X-42185D03*
X-46063Y16732D03*
X-56102Y13780D03*
X-36417Y23622D03*
X-56102Y25591D03*
Y19685D03*
X-42323Y31496D03*
X-56102Y37402D03*
X-53150Y40354D03*
X-44783Y163386D03*
X-34941Y160433D03*
X-49705Y166339D03*
X-39862Y169291D03*
X-54626Y172028D03*
X-10827Y-134843D03*
X-24606Y-17717D03*
Y-13760D03*
X-18807Y7874D03*
X-24606D03*
X-23622Y-5906D03*
X-26791Y30512D03*
X-20669Y19685D03*
X-12795Y11811D03*
X-21654Y10933D03*
X-15666Y39370D03*
X-11811Y43307D03*
X-24409Y60236D03*
X-23819Y69685D03*
X-27559Y80709D03*
X-30020Y183071D03*
X-25098D03*
X2953Y-133858D03*
X5906Y-137795D03*
X0Y-114173D03*
X-4921Y-110236D03*
X4724Y-118110D03*
X-4921Y-104331D03*
X-6890Y-78740D03*
X5906Y-57087D03*
Y-42323D03*
X-984Y-17717D03*
X7480Y-21654D03*
X6890Y1969D03*
X-984Y4921D03*
X6890Y7874D03*
X-9843Y-1969D03*
X-5906Y16732D03*
X-3937Y24606D03*
X10642Y14764D03*
X1969Y8858D03*
X-7874Y37402D03*
X8752Y37831D03*
X-2421Y80197D03*
X-7421Y101378D03*
X-5413Y183484D03*
X-492D03*
X11892Y185393D03*
X28937Y-133858D03*
X25591Y-143701D03*
X15748Y-118307D03*
X32480Y-79508D03*
X27559Y-78740D03*
X23622Y-68898D03*
Y-44291D03*
X20382Y-14173D03*
X15748Y-21654D03*
X34449Y-27559D03*
X17717Y-37402D03*
X24606Y-3937D03*
X24562Y13824D03*
X17731Y22177D03*
X13900Y18701D03*
X33465Y38386D03*
X12902Y37794D03*
X30650Y60236D03*
X18169Y73031D03*
X23169Y78740D03*
X13169Y76772D03*
X28156Y112736D03*
X23169D03*
X33848Y126070D03*
X31002Y123031D03*
X25591Y195866D03*
X49213Y-185650D03*
X36417Y-114173D03*
X53543Y-17913D03*
X36417Y-19685D03*
X35528Y-37402D03*
X48425Y1969D03*
X41339Y-11614D03*
X42126Y1181D03*
X48425Y11673D03*
X42126Y11417D03*
X48425Y35295D03*
X42126Y43307D03*
X53150Y140748D03*
X40354Y131890D03*
X36959Y122948D03*
X43307Y155512D03*
X53150Y145669D03*
X62992Y-149606D03*
X74803Y-112205D03*
X64961Y-51181D03*
X63976Y-16732D03*
X75787Y23622D03*
X83465Y-98287D03*
X82677Y-62028D03*
Y-12795D03*
X90551Y16732D03*
X92520Y35433D03*
X101516Y132874D03*
X97441Y135827D03*
X99606Y150394D03*
X114173Y-62028D03*
X112205Y25591D03*
X118110Y55118D03*
X121063Y137795D03*
X134646Y-98287D03*
X131890Y-51181D03*
X146654Y-18701D03*
X142618Y-24811D03*
X142717Y1189D03*
X136811Y11811D03*
X132874D03*
X128937D03*
X132874Y36417D03*
X136811Y31496D03*
X132874D03*
X128937D03*
X153543Y35433D03*
X168406Y46260D03*
X171260Y62008D03*
Y65945D03*
Y69882D03*
X168307Y86004D03*
X152559D03*
X182165Y13949D03*
X186228Y44496D03*
X190945Y69882D03*
Y65945D03*
Y62008D03*
X201850Y13949D03*
Y49213D03*
G54D39*
X-36446Y-183967D03*
X-22443Y-145491D03*
X20897Y-204838D03*
X34901Y-166362D03*
G54D35*
X-10589Y-156090D03*
X9929Y-157273D03*
X2530Y-154580D03*
X-6719Y-151214D03*
X-3190Y-158783D03*
X4209Y-161476D03*
X11609Y-164169D03*
X19008Y-166862D03*
X19178Y-160639D03*
G54D10*
X-9843Y200787D03*
X9843D03*
X45276Y29528D03*
X70866Y-125984D03*
X82677Y-87598D03*
X72677D03*
X82677Y-69882D03*
X72677D03*
X92677Y-87598D03*
Y-69882D03*
X115157Y-112205D03*
X123858Y-87598D03*
Y-69882D03*
X133858Y-87598D03*
X143858D03*
Y-69882D03*
X133858D03*
X144685Y125984D03*
X151575Y-112205D03*
X168307Y125984D03*
G54D113*
X-55118Y141732D03*
G54D10*
G01X-227362Y-306841D02*
Y-332677D01*
Y-306841D02*
X-217520Y-332677D01*
X-207677Y-306841D02*
X-217520Y-332677D01*
X-207677Y-306841D02*
Y-332677D01*
X-191683Y-306841D02*
X-201526Y-332677D01*
X-191683Y-306841D02*
X-181841Y-332677D01*
X-197835Y-324065D02*
X-185531D01*
X-170768Y-306841D02*
Y-332677D01*
X-179380Y-306841D02*
X-162156D01*
X-156004D02*
Y-332677D01*
Y-306841D02*
X-140010D01*
X-156004Y-319144D02*
X-146161D01*
X-156004Y-332677D02*
X-140010D01*
X-132628Y-306841D02*
Y-332677D01*
Y-306841D02*
X-121555D01*
X-117864Y-308071D01*
X-116634Y-309301D01*
X-115404Y-311762D01*
Y-314222D01*
X-116634Y-316683D01*
X-117864Y-317913D01*
X-121555Y-319144D01*
X-132628D01*
X-124016D02*
X-115404Y-332677D01*
X-106791Y-306841D02*
Y-332677D01*
X-90797Y-306841D02*
X-100640Y-332677D01*
X-90797Y-306841D02*
X-80955Y-332677D01*
X-96949Y-324065D02*
X-84646D01*
X-74803Y-306841D02*
Y-332677D01*
Y-332677D02*
X-60039D01*
X-34203Y-306841D02*
Y-332677D01*
Y-306841D02*
X-18209D01*
X-34203Y-319144D02*
X-24360D01*
X-12057Y-306841D02*
Y-332677D01*
Y-306841D02*
X-984D01*
X2707Y-308071D01*
X3937Y-309301D01*
X5167Y-311762D01*
Y-314222D01*
X3937Y-316683D01*
X2707Y-317913D01*
X-984Y-319144D01*
X-12057D01*
X-3445D02*
X5167Y-332677D01*
X24852Y-306841D02*
X12549Y-324065D01*
X31004D01*
X24852Y-306841D02*
Y-332677D01*
X58071Y-312992D02*
Y-311762D01*
X59301Y-309301D01*
X60531Y-308071D01*
X62992Y-306841D01*
X67913D01*
X70374Y-308071D01*
X71604Y-309301D01*
X72835Y-311762D01*
Y-314222D01*
X71604Y-316683D01*
X69144Y-320374D01*
X56841Y-332677D01*
X74065D01*
X102362Y-306841D02*
Y-332677D01*
Y-332677D02*
X117126D01*
X129429Y-306841D02*
X119587Y-332677D01*
X129429Y-306841D02*
X139272Y-332677D01*
X123278Y-324065D02*
X135581D01*
X141732Y-306841D02*
X151575Y-319144D01*
Y-332677D01*
X161417Y-306841D02*
X151575Y-319144D01*
X167569Y-306841D02*
Y-332677D01*
Y-306841D02*
X183563D01*
X167569Y-319144D02*
X177411D01*
X167569Y-332677D02*
X183563D01*
X190945Y-306841D02*
Y-332677D01*
Y-306841D02*
X202018D01*
X205709Y-308071D01*
X206939Y-309301D01*
X208169Y-311762D01*
Y-314222D01*
X206939Y-316683D01*
X205709Y-317913D01*
X202018Y-319144D01*
X190945D01*
X199557D02*
X208169Y-332677D01*
X241388Y-306841D02*
Y-332677D01*
X232776Y-306841D02*
X250000D01*
X256152D02*
Y-332677D01*
X273376Y-306841D02*
Y-332677D01*
X256152Y-319144D02*
X273376D01*
X283219Y-306841D02*
Y-332677D01*
X310285Y-312992D02*
X309055Y-310531D01*
X306594Y-308071D01*
X304134Y-306841D01*
X299213D01*
X296752Y-308071D01*
X294291Y-310531D01*
X293061Y-312992D01*
X291831Y-316683D01*
Y-322835D01*
X293061Y-326526D01*
X294291Y-328986D01*
X296752Y-331447D01*
X299213Y-332677D01*
X304134D01*
X306594Y-331447D01*
X309055Y-328986D01*
X310285Y-326526D01*
X318898Y-306841D02*
Y-332677D01*
X336122Y-306841D02*
X318898Y-324065D01*
X325049Y-317913D02*
X336122Y-332677D01*
X344734Y-306841D02*
Y-332677D01*
Y-306841D02*
X361959Y-332677D01*
Y-306841D02*
Y-332677D01*
X371801Y-306841D02*
Y-332677D01*
Y-306841D02*
X387795D01*
X371801Y-319144D02*
X381644D01*
X371801Y-332677D02*
X387795D01*
X411171Y-310531D02*
X408711Y-308071D01*
X405020Y-306841D01*
X400098D01*
X396407Y-308071D01*
X393947Y-310531D01*
Y-312992D01*
X395177Y-315453D01*
X396407Y-316683D01*
X398868Y-317913D01*
X406250Y-320374D01*
X408711Y-321604D01*
X409941Y-322835D01*
X411171Y-325295D01*
Y-328986D01*
X408711Y-331447D01*
X405020Y-332677D01*
X400098D01*
X396407Y-331447D01*
X393947Y-328986D01*
X435778Y-310531D02*
X433317Y-308071D01*
X429626Y-306841D01*
X424705D01*
X421014Y-308071D01*
X418553Y-310531D01*
Y-312992D01*
X419783Y-315453D01*
X421014Y-316683D01*
X423474Y-317913D01*
X430856Y-320374D01*
X433317Y-321604D01*
X434547Y-322835D01*
X435778Y-325295D01*
Y-328986D01*
X433317Y-331447D01*
X429626Y-332677D01*
X424705D01*
X421014Y-331447D01*
X418553Y-328986D01*
X466535Y-311762D02*
X468996Y-310531D01*
X472687Y-306841D01*
Y-332677D01*
X489911Y-330217D02*
X488681Y-331447D01*
X489911Y-332677D01*
X491142Y-331447D01*
X489911Y-330217D01*
X515748Y-310531D02*
X514518Y-308071D01*
X510827Y-306841D01*
X508366D01*
X504675Y-308071D01*
X502215Y-311762D01*
X500984Y-317913D01*
Y-324065D01*
X502215Y-328986D01*
X504675Y-331447D01*
X508366Y-332677D01*
X509596D01*
X513287Y-331447D01*
X515748Y-328986D01*
X516978Y-325295D01*
Y-324065D01*
X515748Y-320374D01*
X513287Y-317913D01*
X509596Y-316683D01*
X508366D01*
X504675Y-317913D01*
X502215Y-320374D01*
X500984Y-324065D01*
X545276Y-315453D02*
Y-332677D01*
Y-320374D02*
X548967Y-316683D01*
X551427Y-315453D01*
X555118D01*
X557579Y-316683D01*
X558809Y-320374D01*
Y-332677D01*
Y-320374D02*
X562500Y-316683D01*
X564961Y-315453D01*
X568652D01*
X571112Y-316683D01*
X572343Y-320374D01*
Y-332677D01*
X582185Y-315453D02*
Y-332677D01*
Y-320374D02*
X585876Y-316683D01*
X588337Y-315453D01*
X592028D01*
X594488Y-316683D01*
X595719Y-320374D01*
Y-332677D01*
Y-320374D02*
X599409Y-316683D01*
X601870Y-315453D01*
X605561D01*
X608022Y-316683D01*
X609252Y-320374D01*
Y-332677D01*
X-211368Y-350689D02*
X-213829Y-348228D01*
X-217520Y-346998D01*
X-222441D01*
X-226132Y-348228D01*
X-228593Y-350689D01*
Y-353150D01*
X-227362Y-355610D01*
X-226132Y-356841D01*
X-223671Y-358071D01*
X-216289Y-360531D01*
X-213829Y-361762D01*
X-212598Y-362992D01*
X-211368Y-365453D01*
Y-369144D01*
X-213829Y-371604D01*
X-217520Y-372835D01*
X-222441D01*
X-226132Y-371604D01*
X-228593Y-369144D01*
X-202756Y-346998D02*
Y-365453D01*
X-201526Y-369144D01*
X-199065Y-371604D01*
X-195374Y-372835D01*
X-192913D01*
X-189222Y-371604D01*
X-186762Y-369144D01*
X-185531Y-365453D01*
Y-346998D01*
X-175689D02*
Y-372835D01*
Y-346998D02*
X-164616D01*
X-160925Y-348228D01*
X-159695Y-349459D01*
X-158465Y-351919D01*
Y-354380D01*
X-159695Y-356841D01*
X-160925Y-358071D01*
X-164616Y-359301D01*
X-175689D01*
X-167077D02*
X-158465Y-372835D01*
X-149852Y-346998D02*
Y-372835D01*
Y-346998D02*
X-133858D01*
X-149852Y-359301D02*
X-140010D01*
X-121555Y-346998D02*
X-131398Y-372835D01*
X-121555Y-346998D02*
X-111713Y-372835D01*
X-127707Y-364222D02*
X-115404D01*
X-88337Y-353150D02*
X-89567Y-350689D01*
X-92028Y-348228D01*
X-94488Y-346998D01*
X-99409D01*
X-101870Y-348228D01*
X-104331Y-350689D01*
X-105561Y-353150D01*
X-106791Y-356841D01*
Y-362992D01*
X-105561Y-366683D01*
X-104331Y-369144D01*
X-101870Y-371604D01*
X-99409Y-372835D01*
X-94488D01*
X-92028Y-371604D01*
X-89567Y-369144D01*
X-88337Y-366683D01*
X-79724Y-346998D02*
Y-372835D01*
Y-346998D02*
X-63730D01*
X-79724Y-359301D02*
X-69882D01*
X-79724Y-372835D02*
X-63730D01*
X-31742Y-346998D02*
Y-372835D01*
X-40354Y-346998D02*
X-23130D01*
X-16978D02*
Y-372835D01*
Y-346998D02*
X-5906D01*
X-2215Y-348228D01*
X-984Y-349459D01*
X246Y-351919D01*
Y-354380D01*
X-984Y-356841D01*
X-2215Y-358071D01*
X-5906Y-359301D01*
X-16978D01*
X-8366D02*
X246Y-372835D01*
X8858Y-346998D02*
Y-372835D01*
Y-346998D02*
X24852D01*
X8858Y-359301D02*
X18701D01*
X8858Y-372835D02*
X24852D01*
X38386Y-346998D02*
X28543Y-372835D01*
X38386Y-346998D02*
X48228Y-372835D01*
X32234Y-364222D02*
X44537D01*
X59301Y-346998D02*
Y-372835D01*
X50689Y-346998D02*
X67913D01*
X74065D02*
Y-372835D01*
Y-346998D02*
X83907Y-372835D01*
X93750Y-346998D02*
X83907Y-372835D01*
X93750Y-346998D02*
Y-372835D01*
X103593Y-346998D02*
Y-372835D01*
Y-346998D02*
X119587D01*
X103593Y-359301D02*
X113435D01*
X103593Y-372835D02*
X119587D01*
X126969Y-346998D02*
Y-372835D01*
Y-346998D02*
X144193Y-372835D01*
Y-346998D02*
Y-372835D01*
X158957Y-346998D02*
Y-372835D01*
X150344Y-346998D02*
X167569D01*
X213091D02*
Y-372835D01*
Y-346998D02*
X230315Y-372835D01*
Y-346998D02*
Y-372835D01*
X238927Y-346998D02*
X240157Y-348228D01*
X241388Y-346998D01*
X240157Y-345768D01*
X238927Y-346998D01*
X240157Y-355610D02*
Y-372835D01*
X262303Y-348228D02*
X248770Y-374065D01*
X283219Y-346998D02*
X273376Y-372835D01*
X283219Y-346998D02*
X293061Y-372835D01*
X277067Y-364222D02*
X289370D01*
X299213Y-355610D02*
Y-367913D01*
X300443Y-371604D01*
X302904Y-372835D01*
X306594D01*
X309055Y-371604D01*
X312746Y-367913D01*
Y-355610D02*
Y-372835D01*
X359498Y-353150D02*
X358268Y-350689D01*
X355807Y-348228D01*
X353346Y-346998D01*
X348425D01*
X345965Y-348228D01*
X343504Y-350689D01*
X342274Y-353150D01*
X341043Y-356841D01*
Y-362992D01*
X342274Y-366683D01*
X343504Y-369144D01*
X345965Y-371604D01*
X348425Y-372835D01*
X353346D01*
X355807Y-371604D01*
X358268Y-369144D01*
X359498Y-366683D01*
X368110Y-346998D02*
Y-372835D01*
X385335Y-346998D02*
Y-372835D01*
X368110Y-359301D02*
X385335D01*
X395177Y-346998D02*
Y-372835D01*
Y-346998D02*
X411171D01*
X395177Y-359301D02*
X405020D01*
X395177Y-372835D02*
X411171D01*
X418553Y-346998D02*
Y-372835D01*
Y-346998D02*
X428396Y-372835D01*
X438238Y-346998D02*
X428396Y-372835D01*
X438238Y-346998D02*
Y-372835D01*
X448081Y-346998D02*
Y-372835D01*
X475148Y-353150D02*
X473917Y-350689D01*
X471457Y-348228D01*
X468996Y-346998D01*
X464075D01*
X461614Y-348228D01*
X459154Y-350689D01*
X457923Y-353150D01*
X456693Y-356841D01*
Y-362992D01*
X457923Y-366683D01*
X459154Y-369144D01*
X461614Y-371604D01*
X464075Y-372835D01*
X468996D01*
X471457Y-371604D01*
X473917Y-369144D01*
X475148Y-366683D01*
X489911Y-346998D02*
X480069Y-372835D01*
X489911Y-346998D02*
X499754Y-372835D01*
X483760Y-364222D02*
X496063D01*
X505906Y-346998D02*
Y-372835D01*
Y-372835D02*
X520669D01*
X-227362Y-387156D02*
Y-412992D01*
Y-387156D02*
X-216289D01*
X-212598Y-388386D01*
X-211368Y-389616D01*
X-210138Y-392077D01*
Y-394537D01*
X-211368Y-396998D01*
X-212598Y-398228D01*
X-216289Y-399459D01*
X-227362D02*
X-216289D01*
X-212598Y-400689D01*
X-211368Y-401919D01*
X-210138Y-404380D01*
Y-408071D01*
X-211368Y-410531D01*
X-212598Y-411762D01*
X-216289Y-412992D01*
X-227362D01*
X-195374Y-387156D02*
X-205217Y-412992D01*
X-195374Y-387156D02*
X-185531Y-412992D01*
X-201526Y-404380D02*
X-189222D01*
X-163386Y-390846D02*
X-165846Y-388386D01*
X-169537Y-387156D01*
X-174459D01*
X-178150Y-388386D01*
X-180610Y-390846D01*
Y-393307D01*
X-179380Y-395768D01*
X-178150Y-396998D01*
X-175689Y-398228D01*
X-168307Y-400689D01*
X-165846Y-401919D01*
X-164616Y-403150D01*
X-163386Y-405610D01*
Y-409301D01*
X-165846Y-411762D01*
X-169537Y-412992D01*
X-174459D01*
X-178150Y-411762D01*
X-180610Y-409301D01*
X-154774Y-387156D02*
Y-412992D01*
Y-387156D02*
X-138780D01*
X-154774Y-399459D02*
X-144931D01*
X-154774Y-412992D02*
X-138780D01*
X-94488Y-393307D02*
X-95719Y-390846D01*
X-98179Y-388386D01*
X-100640Y-387156D01*
X-105561D01*
X-108022Y-388386D01*
X-110482Y-390846D01*
X-111713Y-393307D01*
X-112943Y-396998D01*
Y-403150D01*
X-111713Y-406841D01*
X-110482Y-409301D01*
X-108022Y-411762D01*
X-105561Y-412992D01*
X-100640D01*
X-98179Y-411762D01*
X-95719Y-409301D01*
X-94488Y-406841D01*
X-79724Y-387156D02*
X-82185Y-388386D01*
X-84646Y-390846D01*
X-85876Y-393307D01*
X-87106Y-396998D01*
Y-403150D01*
X-85876Y-406841D01*
X-84646Y-409301D01*
X-82185Y-411762D01*
X-79724Y-412992D01*
X-74803D01*
X-72343Y-411762D01*
X-69882Y-409301D01*
X-68652Y-406841D01*
X-67421Y-403150D01*
Y-396998D01*
X-68652Y-393307D01*
X-69882Y-390846D01*
X-72343Y-388386D01*
X-74803Y-387156D01*
X-79724D01*
X-58809D02*
Y-412992D01*
Y-387156D02*
X-47736D01*
X-44045Y-388386D01*
X-42815Y-389616D01*
X-41585Y-392077D01*
Y-395768D01*
X-42815Y-398228D01*
X-44045Y-399459D01*
X-47736Y-400689D01*
X-58809D01*
X-32972Y-387156D02*
Y-412992D01*
Y-387156D02*
X-21900D01*
X-18209Y-388386D01*
X-16978Y-389616D01*
X-15748Y-392077D01*
Y-395768D01*
X-16978Y-398228D01*
X-18209Y-399459D01*
X-21900Y-400689D01*
X-32972D01*
X-7136Y-387156D02*
Y-412992D01*
Y-387156D02*
X8858D01*
X-7136Y-399459D02*
X2707D01*
X-7136Y-412992D02*
X8858D01*
X16240Y-387156D02*
Y-412992D01*
Y-387156D02*
X27313D01*
X31004Y-388386D01*
X32234Y-389616D01*
X33465Y-392077D01*
Y-394537D01*
X32234Y-396998D01*
X31004Y-398228D01*
X27313Y-399459D01*
X16240D01*
X24852D02*
X33465Y-412992D01*
X62992Y-387156D02*
X76526D01*
X69144Y-396998D01*
X72835D01*
X75295Y-398228D01*
X76526Y-399459D01*
X77756Y-403150D01*
Y-405610D01*
X76526Y-409301D01*
X74065Y-411762D01*
X70374Y-412992D01*
X66683D01*
X62992Y-411762D01*
X61762Y-410531D01*
X60531Y-408071D01*
X99902Y-387156D02*
X87598D01*
X86368Y-398228D01*
X87598Y-396998D01*
X91289Y-395768D01*
X94980D01*
X98671Y-396998D01*
X101132Y-399459D01*
X102362Y-403150D01*
Y-405610D01*
X101132Y-409301D01*
X98671Y-411762D01*
X94980Y-412992D01*
X91289D01*
X87598Y-411762D01*
X86368Y-410531D01*
X85138Y-408071D01*
X130659Y-395768D02*
Y-408071D01*
X131890Y-411762D01*
X134350Y-412992D01*
X138041D01*
X140502Y-411762D01*
X144193Y-408071D01*
Y-395768D02*
Y-412992D01*
X154035Y-395768D02*
Y-412992D01*
Y-400689D02*
X157726Y-396998D01*
X160187Y-395768D01*
X163878D01*
X166339Y-396998D01*
X167569Y-400689D01*
Y-412992D01*
Y-400689D02*
X171260Y-396998D01*
X173720Y-395768D01*
X177411D01*
X179872Y-396998D01*
X181102Y-400689D01*
Y-412992D01*
X236467Y-387156D02*
X226624Y-412992D01*
X236467Y-387156D02*
X246309Y-412992D01*
X230315Y-404380D02*
X242618D01*
X252461Y-387156D02*
Y-412992D01*
Y-387156D02*
X268455D01*
X252461Y-399459D02*
X262303D01*
X279528Y-387156D02*
Y-412992D01*
X270915Y-387156D02*
X288140D01*
X294291D02*
Y-412992D01*
Y-387156D02*
X310285D01*
X294291Y-399459D02*
X304134D01*
X294291Y-412992D02*
X310285D01*
X317667Y-387156D02*
Y-412992D01*
Y-387156D02*
X328740D01*
X332431Y-388386D01*
X333661Y-389616D01*
X334892Y-392077D01*
Y-394537D01*
X333661Y-396998D01*
X332431Y-398228D01*
X328740Y-399459D01*
X317667D01*
X326280D02*
X334892Y-412992D01*
X380413Y-393307D02*
X379183Y-390846D01*
X376722Y-388386D01*
X374262Y-387156D01*
X369341D01*
X366880Y-388386D01*
X364419Y-390846D01*
X363189Y-393307D01*
X361959Y-396998D01*
Y-403150D01*
X363189Y-406841D01*
X364419Y-409301D01*
X366880Y-411762D01*
X369341Y-412992D01*
X374262D01*
X376722Y-411762D01*
X379183Y-409301D01*
X380413Y-406841D01*
Y-403150D01*
X374262D02*
X380413D01*
X395177Y-387156D02*
X385335Y-412992D01*
X395177Y-387156D02*
X405020Y-412992D01*
X389026Y-404380D02*
X401329D01*
X411171Y-387156D02*
Y-412992D01*
Y-412992D02*
X425935D01*
X428396Y-387156D02*
X438238Y-412992D01*
X448081Y-387156D02*
X438238Y-412992D01*
X460384Y-387156D02*
X450541Y-412992D01*
X460384Y-387156D02*
X470226Y-412992D01*
X454232Y-404380D02*
X466535D01*
X476378Y-387156D02*
Y-412992D01*
Y-387156D02*
X493602Y-412992D01*
Y-387156D02*
Y-412992D01*
X503445Y-387156D02*
Y-412992D01*
X530512Y-393307D02*
X529281Y-390846D01*
X526821Y-388386D01*
X524360Y-387156D01*
X519439D01*
X516978Y-388386D01*
X514518Y-390846D01*
X513287Y-393307D01*
X512057Y-396998D01*
Y-403150D01*
X513287Y-406841D01*
X514518Y-409301D01*
X516978Y-411762D01*
X519439Y-412992D01*
X524360D01*
X526821Y-411762D01*
X529281Y-409301D01*
X530512Y-406841D01*
X558809Y-387156D02*
Y-412992D01*
Y-387156D02*
X569882D01*
X573573Y-388386D01*
X574803Y-389616D01*
X576033Y-392077D01*
Y-394537D01*
X574803Y-396998D01*
X573573Y-398228D01*
X569882Y-399459D01*
X558809D02*
X569882D01*
X573573Y-400689D01*
X574803Y-401919D01*
X576033Y-404380D01*
Y-408071D01*
X574803Y-410531D01*
X573573Y-411762D01*
X569882Y-412992D01*
X558809D01*
X584646Y-387156D02*
Y-405610D01*
X585876Y-409301D01*
X588337Y-411762D01*
X592028Y-412992D01*
X594488D01*
X598179Y-411762D01*
X600640Y-409301D01*
X601870Y-405610D01*
Y-387156D01*
X611713D02*
Y-412992D01*
Y-412992D02*
X626476D01*
X649852Y-393307D02*
X648622Y-390846D01*
X646161Y-388386D01*
X643701Y-387156D01*
X638780D01*
X636319Y-388386D01*
X633858Y-390846D01*
X632628Y-393307D01*
X631398Y-396998D01*
Y-403150D01*
X632628Y-406841D01*
X633858Y-409301D01*
X636319Y-411762D01*
X638780Y-412992D01*
X643701D01*
X646161Y-411762D01*
X648622Y-409301D01*
X649852Y-406841D01*
Y-403150D01*
X643701D02*
X649852D01*
X658465Y-387156D02*
Y-412992D01*
Y-387156D02*
X674459D01*
X658465Y-399459D02*
X668307D01*
X658465Y-412992D02*
X674459D01*
X701526Y-387156D02*
Y-412992D01*
Y-387156D02*
X711368Y-412992D01*
X721211Y-387156D02*
X711368Y-412992D01*
X721211Y-387156D02*
Y-412992D01*
X731053Y-387156D02*
Y-412992D01*
X740896Y-387156D02*
Y-412992D01*
Y-387156D02*
X758120Y-412992D01*
Y-387156D02*
Y-412992D01*
X767963Y-387156D02*
Y-412992D01*
X777805Y-387156D02*
Y-412992D01*
Y-387156D02*
X787648Y-412992D01*
X797490Y-387156D02*
X787648Y-412992D01*
X797490Y-387156D02*
Y-412992D01*
X807333Y-387156D02*
Y-405610D01*
X808563Y-409301D01*
X811024Y-411762D01*
X814715Y-412992D01*
X817175D01*
X820866Y-411762D01*
X823327Y-409301D01*
X824557Y-405610D01*
Y-387156D01*
X834400D02*
Y-412992D01*
Y-387156D02*
X844242Y-412992D01*
X854085Y-387156D02*
X844242Y-412992D01*
X854085Y-387156D02*
Y-412992D01*
X897146Y-387156D02*
X884843D01*
X883612Y-398228D01*
X884843Y-396998D01*
X888533Y-395768D01*
X892224D01*
X895915Y-396998D01*
X898376Y-399459D01*
X899606Y-403150D01*
Y-405610D01*
X898376Y-409301D01*
X895915Y-411762D01*
X892224Y-412992D01*
X888533D01*
X884843Y-411762D01*
X883612Y-410531D01*
X882382Y-408071D01*
X914370Y-387156D02*
X910679Y-388386D01*
X908219Y-392077D01*
X906988Y-398228D01*
Y-401919D01*
X908219Y-408071D01*
X910679Y-411762D01*
X914370Y-412992D01*
X916831D01*
X920522Y-411762D01*
X922982Y-408071D01*
X924213Y-401919D01*
Y-398228D01*
X922982Y-392077D01*
X920522Y-388386D01*
X916831Y-387156D01*
X914370D01*
X952510Y-395768D02*
Y-408071D01*
X953740Y-411762D01*
X956201Y-412992D01*
X959892D01*
X962352Y-411762D01*
X966043Y-408071D01*
Y-395768D02*
Y-412992D01*
X975886Y-395768D02*
Y-412992D01*
Y-400689D02*
X979577Y-396998D01*
X982037Y-395768D01*
X985728D01*
X988189Y-396998D01*
X989419Y-400689D01*
Y-412992D01*
Y-400689D02*
X993110Y-396998D01*
X995571Y-395768D01*
X999262D01*
X1001722Y-396998D01*
X1002953Y-400689D01*
Y-412992D01*
X-227362Y-427313D02*
Y-453150D01*
Y-427313D02*
X-217520Y-453150D01*
X-207677Y-427313D02*
X-217520Y-453150D01*
X-207677Y-427313D02*
Y-453150D01*
X-197835Y-427313D02*
Y-453150D01*
Y-427313D02*
X-181841D01*
X-197835Y-439616D02*
X-187992D01*
X-197835Y-453150D02*
X-181841D01*
X-157234Y-433465D02*
X-158465Y-431004D01*
X-160925Y-428543D01*
X-163386Y-427313D01*
X-168307D01*
X-170768Y-428543D01*
X-173228Y-431004D01*
X-174459Y-433465D01*
X-175689Y-437156D01*
Y-443307D01*
X-174459Y-446998D01*
X-173228Y-449459D01*
X-170768Y-451919D01*
X-168307Y-453150D01*
X-163386D01*
X-160925Y-451919D01*
X-158465Y-449459D01*
X-157234Y-446998D01*
X-148622Y-427313D02*
Y-453150D01*
X-131398Y-427313D02*
Y-453150D01*
X-148622Y-439616D02*
X-131398D01*
X-115404Y-427313D02*
X-125246Y-453150D01*
X-115404Y-427313D02*
X-105561Y-453150D01*
X-121555Y-444537D02*
X-109252D01*
X-99409Y-427313D02*
Y-453150D01*
Y-427313D02*
X-82185Y-453150D01*
Y-427313D02*
Y-453150D01*
X-72343Y-427313D02*
Y-453150D01*
X-45276Y-433465D02*
X-46506Y-431004D01*
X-48967Y-428543D01*
X-51427Y-427313D01*
X-56348D01*
X-58809Y-428543D01*
X-61270Y-431004D01*
X-62500Y-433465D01*
X-63730Y-437156D01*
Y-443307D01*
X-62500Y-446998D01*
X-61270Y-449459D01*
X-58809Y-451919D01*
X-56348Y-453150D01*
X-51427D01*
X-48967Y-451919D01*
X-46506Y-449459D01*
X-45276Y-446998D01*
X-30512Y-427313D02*
X-40354Y-453150D01*
X-30512Y-427313D02*
X-20669Y-453150D01*
X-36663Y-444537D02*
X-24360D01*
X-14518Y-427313D02*
Y-453150D01*
Y-453150D02*
X246D01*
X22392Y-431004D02*
X19931Y-428543D01*
X16240Y-427313D01*
X11319D01*
X7628Y-428543D01*
X5167Y-431004D01*
Y-433465D01*
X6398Y-435925D01*
X7628Y-437156D01*
X10089Y-438386D01*
X17470Y-440846D01*
X19931Y-442077D01*
X21161Y-443307D01*
X22392Y-445768D01*
Y-449459D01*
X19931Y-451919D01*
X16240Y-453150D01*
X11319D01*
X7628Y-451919D01*
X5167Y-449459D01*
X55610Y-427313D02*
Y-453150D01*
X46998Y-427313D02*
X64222D01*
X76526D02*
X74065Y-428543D01*
X71604Y-431004D01*
X70374Y-433465D01*
X69144Y-437156D01*
Y-443307D01*
X70374Y-446998D01*
X71604Y-449459D01*
X74065Y-451919D01*
X76526Y-453150D01*
X81447D01*
X83907Y-451919D01*
X86368Y-449459D01*
X87598Y-446998D01*
X88829Y-443307D01*
Y-437156D01*
X87598Y-433465D01*
X86368Y-431004D01*
X83907Y-428543D01*
X81447Y-427313D01*
X76526D01*
X97441D02*
Y-453150D01*
Y-453150D02*
X112205D01*
X118356Y-427313D02*
Y-453150D01*
Y-427313D02*
X134350D01*
X118356Y-439616D02*
X128199D01*
X118356Y-453150D02*
X134350D01*
X141732Y-427313D02*
Y-453150D01*
Y-427313D02*
X152805D01*
X156496Y-428543D01*
X157726Y-429774D01*
X158957Y-432234D01*
Y-434695D01*
X157726Y-437156D01*
X156496Y-438386D01*
X152805Y-439616D01*
X141732D01*
X150344D02*
X158957Y-453150D01*
X173720Y-427313D02*
X163878Y-453150D01*
X173720Y-427313D02*
X183563Y-453150D01*
X167569Y-444537D02*
X179872D01*
X189715Y-427313D02*
Y-453150D01*
Y-427313D02*
X206939Y-453150D01*
Y-427313D02*
Y-453150D01*
X234006Y-433465D02*
X232776Y-431004D01*
X230315Y-428543D01*
X227854Y-427313D01*
X222933D01*
X220472Y-428543D01*
X218012Y-431004D01*
X216781Y-433465D01*
X215551Y-437156D01*
Y-443307D01*
X216781Y-446998D01*
X218012Y-449459D01*
X220472Y-451919D01*
X222933Y-453150D01*
X227854D01*
X230315Y-451919D01*
X232776Y-449459D01*
X234006Y-446998D01*
X242618Y-427313D02*
Y-453150D01*
Y-427313D02*
X258612D01*
X242618Y-439616D02*
X252461D01*
X242618Y-453150D02*
X258612D01*
X281988Y-431004D02*
X279528Y-428543D01*
X275837Y-427313D01*
X270915D01*
X267224Y-428543D01*
X264764Y-431004D01*
Y-433465D01*
X265994Y-435925D01*
X267224Y-437156D01*
X269685Y-438386D01*
X277067Y-440846D01*
X279528Y-442077D01*
X280758Y-443307D01*
X281988Y-445768D01*
Y-449459D01*
X279528Y-451919D01*
X275837Y-453150D01*
X270915D01*
X267224Y-451919D01*
X264764Y-449459D01*
X321358Y-431004D02*
Y-453150D01*
X310285Y-442077D02*
X332431D01*
X354577Y-428543D02*
X341043Y-454380D01*
X369341Y-442077D02*
X391486D01*
X427165Y-427313D02*
X423474Y-428543D01*
X421014Y-432234D01*
X419783Y-438386D01*
Y-442077D01*
X421014Y-448228D01*
X423474Y-451919D01*
X427165Y-453150D01*
X429626D01*
X433317Y-451919D01*
X435778Y-448228D01*
X437008Y-442077D01*
Y-438386D01*
X435778Y-432234D01*
X433317Y-428543D01*
X429626Y-427313D01*
X427165D01*
X446850Y-450689D02*
X445620Y-451919D01*
X446850Y-453150D01*
X448081Y-451919D01*
X446850Y-450689D01*
X460384Y-432234D02*
X462844Y-431004D01*
X466535Y-427313D01*
Y-453150D01*
X482530Y-435925D02*
Y-453150D01*
Y-440846D02*
X486220Y-437156D01*
X488681Y-435925D01*
X492372D01*
X494833Y-437156D01*
X496063Y-440846D01*
Y-453150D01*
Y-440846D02*
X499754Y-437156D01*
X502215Y-435925D01*
X505906D01*
X508366Y-437156D01*
X509596Y-440846D01*
Y-453150D01*
X519439Y-435925D02*
Y-453150D01*
Y-440846D02*
X523130Y-437156D01*
X525591Y-435925D01*
X529281D01*
X531742Y-437156D01*
X532972Y-440846D01*
Y-453150D01*
Y-440846D02*
X536663Y-437156D01*
X539124Y-435925D01*
X542815D01*
X545276Y-437156D01*
X546506Y-440846D01*
Y-453150D01*
X-227362Y-467470D02*
Y-493307D01*
X-217520Y-467470D02*
Y-493307D01*
Y-467470D02*
X-206447D01*
X-202756Y-468701D01*
X-201526Y-469931D01*
X-200295Y-472392D01*
Y-476083D01*
X-201526Y-478543D01*
X-202756Y-479774D01*
X-206447Y-481004D01*
X-217520D01*
X-174459Y-473622D02*
X-175689Y-471161D01*
X-178150Y-468701D01*
X-180610Y-467470D01*
X-185531D01*
X-187992Y-468701D01*
X-190453Y-471161D01*
X-191683Y-473622D01*
X-192913Y-477313D01*
Y-483465D01*
X-191683Y-487156D01*
X-190453Y-489616D01*
X-187992Y-492077D01*
X-185531Y-493307D01*
X-180610D01*
X-178150Y-492077D01*
X-175689Y-489616D01*
X-174459Y-487156D01*
X-165846Y-482234D02*
X-143701D01*
X-127707Y-467470D02*
X-137549Y-493307D01*
X-127707Y-467470D02*
X-117864Y-493307D01*
X-133858Y-484695D02*
X-121555D01*
X-111713Y-482234D02*
X-89567D01*
X-64961Y-471161D02*
X-66191Y-468701D01*
X-69882Y-467470D01*
X-72343D01*
X-76033Y-468701D01*
X-78494Y-472392D01*
X-79724Y-478543D01*
Y-484695D01*
X-78494Y-489616D01*
X-76033Y-492077D01*
X-72343Y-493307D01*
X-71112D01*
X-67421Y-492077D01*
X-64961Y-489616D01*
X-63730Y-485925D01*
Y-484695D01*
X-64961Y-481004D01*
X-67421Y-478543D01*
X-71112Y-477313D01*
X-72343D01*
X-76033Y-478543D01*
X-78494Y-481004D01*
X-79724Y-484695D01*
X-48967Y-467470D02*
X-52657Y-468701D01*
X-55118Y-472392D01*
X-56348Y-478543D01*
Y-482234D01*
X-55118Y-488386D01*
X-52657Y-492077D01*
X-48967Y-493307D01*
X-46506D01*
X-42815Y-492077D01*
X-40354Y-488386D01*
X-39124Y-482234D01*
Y-478543D01*
X-40354Y-472392D01*
X-42815Y-468701D01*
X-46506Y-467470D01*
X-48967D01*
X-24360D02*
X-28051Y-468701D01*
X-30512Y-472392D01*
X-31742Y-478543D01*
Y-482234D01*
X-30512Y-488386D01*
X-28051Y-492077D01*
X-24360Y-493307D01*
X-21900D01*
X-18209Y-492077D01*
X-15748Y-488386D01*
X-14518Y-482234D01*
Y-478543D01*
X-15748Y-472392D01*
X-18209Y-468701D01*
X-21900Y-467470D01*
X-24360D01*
X11319Y-473622D02*
X10089Y-471161D01*
X7628Y-468701D01*
X5167Y-467470D01*
X246D01*
X-2215Y-468701D01*
X-4675Y-471161D01*
X-5906Y-473622D01*
X-7136Y-477313D01*
Y-483465D01*
X-5906Y-487156D01*
X-4675Y-489616D01*
X-2215Y-492077D01*
X246Y-493307D01*
X5167D01*
X7628Y-492077D01*
X10089Y-489616D01*
X11319Y-487156D01*
Y-483465D01*
X5167D02*
X11319D01*
X56841Y-473622D02*
X55610Y-471161D01*
X53150Y-468701D01*
X50689Y-467470D01*
X45768D01*
X43307Y-468701D01*
X40846Y-471161D01*
X39616Y-473622D01*
X38386Y-477313D01*
Y-483465D01*
X39616Y-487156D01*
X40846Y-489616D01*
X43307Y-492077D01*
X45768Y-493307D01*
X50689D01*
X53150Y-492077D01*
X55610Y-489616D01*
X56841Y-487156D01*
X65453Y-467470D02*
Y-493307D01*
Y-493307D02*
X80217D01*
X92520Y-467470D02*
X82677Y-493307D01*
X92520Y-467470D02*
X102362Y-493307D01*
X86368Y-484695D02*
X98671D01*
X124508Y-471161D02*
X122047Y-468701D01*
X118356Y-467470D01*
X113435D01*
X109744Y-468701D01*
X107283Y-471161D01*
Y-473622D01*
X108514Y-476083D01*
X109744Y-477313D01*
X112205Y-478543D01*
X119587Y-481004D01*
X122047Y-482234D01*
X123278Y-483465D01*
X124508Y-485925D01*
Y-489616D01*
X122047Y-492077D01*
X118356Y-493307D01*
X113435D01*
X109744Y-492077D01*
X107283Y-489616D01*
X149114Y-471161D02*
X146654Y-468701D01*
X142963Y-467470D01*
X138041D01*
X134350Y-468701D01*
X131890Y-471161D01*
Y-473622D01*
X133120Y-476083D01*
X134350Y-477313D01*
X136811Y-478543D01*
X144193Y-481004D01*
X146654Y-482234D01*
X147884Y-483465D01*
X149114Y-485925D01*
Y-489616D01*
X146654Y-492077D01*
X142963Y-493307D01*
X138041D01*
X134350Y-492077D01*
X131890Y-489616D01*
X177411Y-473622D02*
Y-472392D01*
X178642Y-469931D01*
X179872Y-468701D01*
X182333Y-467470D01*
X187254D01*
X189715Y-468701D01*
X190945Y-469931D01*
X192175Y-472392D01*
Y-474852D01*
X190945Y-477313D01*
X188484Y-481004D01*
X176181Y-493307D01*
X193406D01*
G01X-223425Y482530D02*
Y456693D01*
Y482530D02*
X-214813D01*
X-211122Y481299D01*
X-208661Y478839D01*
X-207431Y476378D01*
X-206201Y472687D01*
Y466535D01*
X-207431Y462844D01*
X-208661Y460384D01*
X-211122Y457923D01*
X-214813Y456693D01*
X-223425D01*
X-197589Y482530D02*
Y456693D01*
Y482530D02*
X-186516D01*
X-182825Y481299D01*
X-181594Y480069D01*
X-180364Y477608D01*
Y475148D01*
X-181594Y472687D01*
X-182825Y471457D01*
X-186516Y470226D01*
X-197589D01*
X-188976D02*
X-180364Y456693D01*
X-171752Y482530D02*
Y456693D01*
X-161909Y482530D02*
Y456693D01*
Y456693D02*
X-147146D01*
X-140994Y482530D02*
Y456693D01*
Y456693D02*
X-126230D01*
X-94242Y482530D02*
X-104085Y456693D01*
X-94242Y482530D02*
X-84400Y456693D01*
X-100394Y465305D02*
X-88091D01*
X-78248Y482530D02*
Y456693D01*
Y482530D02*
X-61024Y456693D01*
Y482530D02*
Y456693D01*
X-51181Y482530D02*
Y456693D01*
Y482530D02*
X-42569D01*
X-38878Y481299D01*
X-36417Y478839D01*
X-35187Y476378D01*
X-33957Y472687D01*
Y466535D01*
X-35187Y462844D01*
X-36417Y460384D01*
X-38878Y457923D01*
X-42569Y456693D01*
X-51181D01*
X10335Y478839D02*
X7874Y481299D01*
X4183Y482530D01*
X-738D01*
X-4429Y481299D01*
X-6890Y478839D01*
Y476378D01*
X-5659Y473917D01*
X-4429Y472687D01*
X-1969Y471457D01*
X5413Y468996D01*
X7874Y467766D01*
X9104Y466535D01*
X10335Y464075D01*
Y460384D01*
X7874Y457923D01*
X4183Y456693D01*
X-738D01*
X-4429Y457923D01*
X-6890Y460384D01*
X18947Y482530D02*
Y456693D01*
Y456693D02*
X33711D01*
X46014Y482530D02*
X43553Y481299D01*
X41093Y478839D01*
X39862Y476378D01*
X38632Y472687D01*
Y466535D01*
X39862Y462844D01*
X41093Y460384D01*
X43553Y457923D01*
X46014Y456693D01*
X50935D01*
X53396Y457923D01*
X55856Y460384D01*
X57087Y462844D01*
X58317Y466535D01*
Y472687D01*
X57087Y476378D01*
X55856Y478839D01*
X53396Y481299D01*
X50935Y482530D01*
X46014D01*
X71850D02*
Y456693D01*
X63238Y482530D02*
X80463D01*
X106299D02*
Y456693D01*
Y482530D02*
X114911D01*
X118602Y481299D01*
X121063Y478839D01*
X122293Y476378D01*
X123524Y472687D01*
Y466535D01*
X122293Y462844D01*
X121063Y460384D01*
X118602Y457923D01*
X114911Y456693D01*
X106299D01*
X132136Y482530D02*
Y456693D01*
Y482530D02*
X143209D01*
X146900Y481299D01*
X148130Y480069D01*
X149360Y477608D01*
Y475148D01*
X148130Y472687D01*
X146900Y471457D01*
X143209Y470226D01*
X132136D01*
X140748D02*
X149360Y456693D01*
X164124Y482530D02*
X154281Y456693D01*
X164124Y482530D02*
X173967Y456693D01*
X157972Y465305D02*
X170276D01*
X177657Y482530D02*
X183809Y456693D01*
X189961Y482530D02*
X183809Y456693D01*
X189961Y482530D02*
X196112Y456693D01*
X202264Y482530D02*
X196112Y456693D01*
X209646Y482530D02*
Y456693D01*
X219488Y482530D02*
Y456693D01*
Y482530D02*
X236713Y456693D01*
Y482530D02*
Y456693D01*
X263780Y476378D02*
X262549Y478839D01*
X260089Y481299D01*
X257628Y482530D01*
X252707D01*
X250246Y481299D01*
X247785Y478839D01*
X246555Y476378D01*
X245325Y472687D01*
Y466535D01*
X246555Y462844D01*
X247785Y460384D01*
X250246Y457923D01*
X252707Y456693D01*
X257628D01*
X260089Y457923D01*
X262549Y460384D01*
X263780Y462844D01*
Y466535D01*
X257628D02*
X263780D01*
X340059Y487451D02*
X337598Y484990D01*
X335138Y481299D01*
X332677Y476378D01*
X331447Y470226D01*
Y465305D01*
X332677Y459154D01*
X335138Y454232D01*
X337598Y450541D01*
X340059Y448081D01*
X368356Y482530D02*
Y456693D01*
Y482530D02*
X384350D01*
X368356Y470226D02*
X378199D01*
X390502Y482530D02*
Y456693D01*
X400344Y482530D02*
Y456693D01*
Y482530D02*
X417569Y456693D01*
Y482530D02*
Y456693D01*
X427411Y482530D02*
Y456693D01*
X453248Y478839D02*
X450787Y481299D01*
X447096Y482530D01*
X442175D01*
X438484Y481299D01*
X436024Y478839D01*
Y476378D01*
X437254Y473917D01*
X438484Y472687D01*
X440945Y471457D01*
X448327Y468996D01*
X450787Y467766D01*
X452018Y466535D01*
X453248Y464075D01*
Y460384D01*
X450787Y457923D01*
X447096Y456693D01*
X442175D01*
X438484Y457923D01*
X436024Y460384D01*
X461860Y482530D02*
Y456693D01*
X479085Y482530D02*
Y456693D01*
X461860Y470226D02*
X479085D01*
X488927Y482530D02*
Y456693D01*
Y482530D02*
X504921D01*
X488927Y470226D02*
X498770D01*
X488927Y456693D02*
X504921D01*
X512303Y482530D02*
Y456693D01*
Y482530D02*
X520915D01*
X524606Y481299D01*
X527067Y478839D01*
X528297Y476378D01*
X529528Y472687D01*
Y466535D01*
X528297Y462844D01*
X527067Y460384D01*
X524606Y457923D01*
X520915Y456693D01*
X512303D01*
X557825Y482530D02*
Y456693D01*
Y482530D02*
X566437D01*
X570128Y481299D01*
X572589Y478839D01*
X573819Y476378D01*
X575049Y472687D01*
Y466535D01*
X573819Y462844D01*
X572589Y460384D01*
X570128Y457923D01*
X566437Y456693D01*
X557825D01*
X583661Y482530D02*
Y456693D01*
X599656Y482530D02*
X589813Y456693D01*
X599656Y482530D02*
X609498Y456693D01*
X593504Y465305D02*
X605807D01*
X615650Y482530D02*
Y456693D01*
Y482530D02*
X625492Y456693D01*
X635335Y482530D02*
X625492Y456693D01*
X635335Y482530D02*
Y456693D01*
X645177Y482530D02*
Y456693D01*
Y482530D02*
X661171D01*
X645177Y470226D02*
X655020D01*
X645177Y456693D02*
X661171D01*
X673474Y482530D02*
Y456693D01*
X664862Y482530D02*
X682087D01*
X688238D02*
Y456693D01*
Y482530D02*
X704232D01*
X688238Y470226D02*
X698081D01*
X688238Y456693D02*
X704232D01*
X711614Y482530D02*
Y456693D01*
Y482530D02*
X722687D01*
X726378Y481299D01*
X727608Y480069D01*
X728839Y477608D01*
Y475148D01*
X727608Y472687D01*
X726378Y471457D01*
X722687Y470226D01*
X711614D01*
X720226D02*
X728839Y456693D01*
X753445Y478839D02*
X750984Y481299D01*
X747293Y482530D01*
X742372D01*
X738681Y481299D01*
X736220Y478839D01*
Y476378D01*
X737451Y473917D01*
X738681Y472687D01*
X741142Y471457D01*
X748524Y468996D01*
X750984Y467766D01*
X752215Y466535D01*
X753445Y464075D01*
Y460384D01*
X750984Y457923D01*
X747293Y456693D01*
X742372D01*
X738681Y457923D01*
X736220Y460384D01*
X780512Y487451D02*
X782972Y484990D01*
X785433Y481299D01*
X787894Y476378D01*
X789124Y470226D01*
Y465305D01*
X787894Y459154D01*
X785433Y454232D01*
X782972Y450541D01*
X780512Y448081D01*
G54D21*
X228279Y54038D02*
G01X229743Y54377D01*
X231443Y54625*
X233157Y54724*
X234874Y54673*
X236579Y54473*
X238261Y54125*
X239906Y53632*
X241502Y52998*
X243036Y52226*
X244497Y51324*
X245874Y50298*
X247157Y49156*
X248335Y47906*
X249399Y46559*
X250342Y45124*
X251157Y43612*
X251836Y42035*
X252376Y40405*
X252771Y38733*
X253020Y37034*
X253119Y35320*
X253068Y33603*
X252868Y31898*
X252520Y30216*
X252027Y28571*
X251392Y26975*
X250621Y25441*
X249719Y23980*
X248693Y22603*
X247551Y21320*
X246301Y20142*
X244954Y19078*
X243519Y18134*
X242945Y17757*
X242406Y17331*
X241906Y16860*
X241449Y16347*
X241038Y15796*
X240678Y15212*
X240369Y14598*
X240115Y13960*
X239918Y13302*
X239779Y12629*
X239699Y11947*
X239678Y11260*
X239718Y10575*
X239817Y9895*
X239976Y9226*
X240191Y8574*
X240463Y7943*
X240764Y7381*
X242945Y3753*
X243329Y3184*
X243762Y2651*
X244240Y2157*
X244759Y1707*
X245315Y1304*
X245904Y951*
X246522Y650*
X247163Y404*
X247824Y216*
X248498Y85*
X249182Y14*
X249655Y0*
Y-1*
X314961*
X315647Y29*
X316328Y119*
X316999Y268*
X317654Y474*
X318288Y737*
X318898Y1054*
X319477Y1423*
X320022Y1842*
X320528Y2306*
X320992Y2812*
X321411Y3357*
X321780Y3936*
X322097Y4546*
X322360Y5180*
X322566Y5835*
X322715Y6506*
X322805Y7187*
X322835Y7873*
Y208661*
X322805Y209348*
X322715Y210029*
X322566Y210699*
X322360Y211354*
X322097Y211989*
X321780Y212598*
X321411Y213178*
X320992Y213723*
X320528Y214229*
X320022Y214693*
X319477Y215111*
X318898Y215481*
X318288Y215798*
X317654Y216061*
X316999Y216267*
X316328Y216416*
X315647Y216505*
X314961Y216535*
X238962*
X238275Y216505*
X237594Y216416*
X236924Y216267*
X236269Y216061*
X235634Y215798*
X235025Y215480*
X234445Y215111*
X233900Y214693*
X233394Y214229*
X232930Y213723*
X232512Y213178*
X232143Y212598*
X231853Y212046*
X224416Y194495*
X218538Y176362*
X214262Y157786*
X211622Y138907*
X210637Y119871*
X211315Y100821*
X213651Y81903*
X217627Y63260*
X218630Y59527*
Y59526*
X218843Y58873*
X219111Y58241*
X219435Y57635*
X219809Y57059*
X220233Y56518*
X220701Y56016*
X221212Y55557*
X221761Y55144*
X222344Y54781*
X222957Y54469*
X223594Y54213*
X224251Y54012*
X224923Y53870*
X225605Y53787*
X226291Y53764*
X226977Y53800*
X227657Y53896*
X228279Y54038*
G54D114*
X271654Y-212598D02*
G01Y-131890D01*
X271639Y-131547*
X271594Y-131206*
X271519Y-130871*
X271416Y-130543*
X271285Y-130226*
X271126Y-129921*
X270942Y-129632*
X270732Y-129359*
X270500Y-129106*
X270247Y-128874*
X269975Y-128665*
X269685Y-128480*
X269380Y-128322*
X269063Y-128190*
X268736Y-128087*
X268400Y-128013*
X268060Y-127968*
X267717Y-127953*
X220472*
X220129Y-127968*
X219789Y-128013*
X219453Y-128087*
X219126Y-128190*
X218809Y-128322*
X218504Y-128480*
X218214Y-128665*
X217942Y-128874*
X217689Y-129106*
X217457Y-129359*
X217247Y-129632*
X217063Y-129921*
X216904Y-130226*
X216773Y-130543*
X216670Y-130871*
X216595Y-131206*
X216550Y-131547*
X216535Y-131890*
Y-212598*
X216550Y-212942*
X216595Y-213282*
X216670Y-213617*
X216773Y-213945*
X216904Y-214262*
X217063Y-214567*
X217247Y-214857*
X217457Y-215129*
X217689Y-215382*
X217942Y-215614*
X218214Y-215823*
X218504Y-216008*
X218809Y-216167*
X219126Y-216298*
X219453Y-216401*
X219789Y-216476*
X220129Y-216520*
X220472Y-216535*
X267717*
X268060Y-216520*
X268400Y-216476*
X268736Y-216401*
X269063Y-216298*
X269380Y-216167*
X269685Y-216008*
X269975Y-215823*
X270247Y-215614*
X270500Y-215382*
X270732Y-215129*
X270942Y-214857*
X271126Y-214567*
X271285Y-214262*
X271416Y-213945*
X271519Y-213617*
X271594Y-213282*
X271639Y-212942*
X271654Y-212598*
X232283Y-64031D02*
G01X206852D01*
X232283D02*
G01Y-120079D01*
X279528*
Y-224409*
X65474*
Y-206400*
X51097Y-210251D02*
G01Y-224409D01*
X-104388*
X-152717Y-176081*
Y-167803*
X-136857*
X150418Y155607D02*
G01Y182259D01*
X108268Y224409*
X-98467*
X-170632Y152244*
Y133313*
X-181189Y118567D02*
G01X-216535D01*
Y240157*
X-212598Y244094D02*
G75*
G03X-216535Y240157J-3937D01*
X-212598Y244094D02*
G01X318898D01*
X322835Y240157D02*
G03X318898Y244094I-3937D01*
X322835Y240157D02*
G01Y224409D01*
X202756*
Y161417*
X166843*
Y138025*
X318898Y-244094D02*
G03X322835Y-240157J3937D01*
Y-240157D02*
G01Y-7874D01*
X232283*
Y-43540*
X212113*
X-160917Y-144890D02*
G01Y-151575D01*
X-216535*
Y-240157*
Y-240157D02*
G03X-212598Y-244094I3937D01*
Y-244094D02*
G01X318898D01*
G54D21*
X-196850Y-37795D02*
G01Y25197D01*
X-196865Y25540*
X-196910Y25880*
X-196985Y26216*
X-197088Y26543*
X-197219Y26861*
X-197378Y27165*
X-197562Y27455*
X-197772Y27728*
X-198004Y27981*
X-198257Y28213*
X-198529Y28422*
X-198819Y28606*
X-199124Y28765*
X-199441Y28896*
X-199769Y29000*
X-200104Y29074*
X-200444Y29119*
X-200787Y29134*
X-210011*
X-210281Y29143*
X-210623Y29182*
X-210959Y29250*
X-211289Y29347*
X-211609Y29473*
X-211916Y29626*
X-212209Y29805*
X-212485Y30009*
X-212743Y30236*
X-212980Y30485*
X-213194Y30754*
X-213383Y31040*
X-213548Y31342*
X-213685Y31657*
X-213794Y31982*
X-213874Y32316*
X-213926Y32656*
X-213947Y32999*
X-213938Y33342*
X-213900Y33683*
X-212459Y41820*
X-208005Y60178*
X-201969Y78078*
X-194395Y95384*
X-185343Y111963*
X-174879Y127691*
X-163084Y142447*
X-150049Y156119*
X-135871Y168602*
X-120659Y179802*
X-104530Y189634*
X-87604Y198023*
X-70012Y204905*
X-51887Y210227*
X-33367Y213949*
X-14593Y216043*
X4292Y216493*
X23144Y215295*
X41820Y212459*
X60178Y208005*
X78078Y201969*
X78984Y201586*
X80206Y200957*
X81368Y200225*
X82462Y199394*
X83480Y198471*
X84413Y197463*
X85255Y196377*
X85998Y195222*
X86639Y194006*
X87171Y192740*
X87591Y191431*
X87895Y190092*
X88081Y188731*
X88148Y187359*
X88094Y185986*
X87922Y184623*
X87631Y183280*
X87341Y181937*
X87168Y180574*
X87115Y179202*
X87181Y177829*
X87368Y176468*
X87672Y175128*
X88091Y173820*
X88623Y172554*
X89264Y171338*
X90008Y170183*
X90850Y169097*
X91783Y168089*
X92800Y167166*
X93894Y166335*
X95026Y165620*
X103309Y160583*
X104496Y159891*
X105739Y159305*
X107028Y158830*
X108353Y158468*
X109705Y158224*
X111073Y158098*
X112447Y158092*
X113816Y158205*
X115170Y158438*
X116498Y158787*
X117792Y159252*
X119039Y159827*
X120232Y160508*
X121361Y161291*
X122391Y162146*
X123141Y162782*
X124252Y163591*
X125429Y164299*
X126663Y164902*
X127946Y165395*
X129266Y165774*
X130615Y166037*
X131981Y166182*
X133354Y166207*
X134725Y166112*
X136082Y165898*
X137415Y165566*
X138715Y165120*
X139970Y164562*
X141172Y163896*
X142311Y163129*
X143380Y162265*
X157307Y148802*
X169678Y134526*
X180756Y119225*
X190460Y103018*
X198714Y86026*
X205455Y68380*
X210633Y50213*
X214208Y31664*
X216152Y12874*
X216452Y-6014*
X215104Y-24856*
X212119Y-43509*
X207520Y-61831*
X201421Y-79451*
X200315Y-82205*
X197835Y-87992*
X195354Y-93386*
X191575Y-100906*
X189094Y-105472*
X183031Y-115669*
X179921Y-120472*
X177953Y-123346*
X172559Y-130787*
X168425Y-136063*
X163543Y-141890*
X156260Y-149882*
X152913Y-153307*
X150984Y-155197*
X149961Y-156181*
X147087Y-158898*
X142165Y-163307*
X136890Y-167756*
X131299Y-172165*
X124963Y-176808*
X109028Y-163437*
X108483Y-163019*
X107904Y-162650*
X107295Y-162333*
X106660Y-162070*
X106005Y-161863*
X105334Y-161715*
X104654Y-161625*
X103967Y-161595*
X103281Y-161625*
X102600Y-161715*
X101929Y-161863*
X101274Y-162070*
X100639Y-162333*
X100030Y-162650*
X99850Y-162757*
X87711Y-169607*
X86519Y-170291*
X85392Y-171076*
X84337Y-171957*
X83363Y-172925*
X82477Y-173976*
X81686Y-175099*
X80996Y-176287*
X80412Y-177530*
X79939Y-178820*
X79579Y-180146*
X79337Y-181498*
X79214Y-182867*
X79210Y-184240*
X79326Y-185609*
X79553Y-186928*
X79731Y-187895*
X79878Y-189261*
X79905Y-190635*
X79813Y-192006*
X79601Y-193363*
X79272Y-194697*
X78828Y-195997*
X78272Y-197253*
X77609Y-198456*
X76843Y-199597*
X75981Y-200667*
X75029Y-201657*
X73994Y-202561*
X72885Y-203371*
X71709Y-204082*
X70476Y-204687*
X69194Y-205182*
X56166Y-209124*
X37726Y-213224*
X18998Y-215700*
X18653Y-215716*
X18310Y-215700*
X17969Y-215656*
X17634Y-215581*
X17306Y-215478*
X16989Y-215347*
X16685Y-215188*
X16395Y-215004*
X16122Y-214794*
X15869Y-214563*
X15637Y-214309*
X15428Y-214037*
X15243Y-213747*
X15085Y-213443*
X14954Y-213125*
X14850Y-212798*
X14776Y-212462*
X14731Y-212122*
X14716Y-211779*
X14731Y-211435*
X14776Y-211095*
X14850Y-210759*
X14954Y-210432*
X28099Y-174315*
X28150Y-174152*
X28187Y-173984*
X28210Y-173814*
X28217Y-173642*
X28210Y-173471*
X28187Y-173300*
X28150Y-173133*
X28099Y-172969*
X28033Y-172810*
X27954Y-172658*
X27861Y-172513*
X27757Y-172377*
X27641Y-172250*
X27514Y-172134*
X27378Y-172030*
X27233Y-171937*
X27081Y-171858*
X26922Y-171793*
X26758Y-171741*
X26591Y-171704*
X26420Y-171681*
X26249Y-171674*
X26078Y-171681*
X25907Y-171704*
X25739Y-171741*
X25576Y-171793*
X25417Y-171858*
X25265Y-171937*
X25120Y-172030*
X24983Y-172134*
X24857Y-172250*
X24741Y-172377*
X24637Y-172513*
X24544Y-172658*
X24465Y-172810*
X24399Y-172969*
X-18886Y-157215*
X-18834Y-157051*
X-18797Y-156883*
X-18775Y-156713*
X-18767Y-156541*
X-18775Y-156370*
X-18797Y-156199*
X-18834Y-156032*
X-18886Y-155868*
X-18952Y-155709*
X-19031Y-155557*
X-19123Y-155412*
X-19228Y-155276*
X-19344Y-155149*
X-19470Y-155033*
X-19607Y-154929*
X-19752Y-154837*
X-19904Y-154757*
X-20062Y-154691*
X-20226Y-154640*
X-20394Y-154603*
X-20564Y-154580*
X-20736Y-154573*
X-20907Y-154580*
X-21078Y-154603*
X-21245Y-154640*
X-21409Y-154691*
X-21568Y-154757*
X-21720Y-154837*
X-21865Y-154929*
X-22001Y-155033*
X-22128Y-155149*
X-22244Y-155276*
X-22348Y-155412*
X-22441Y-155557*
X-22520Y-155709*
X-22585Y-155868*
X-39552Y-202483*
X-39683Y-202800*
X-39842Y-203105*
X-40026Y-203394*
X-40235Y-203667*
X-40467Y-203920*
X-40721Y-204152*
X-40993Y-204361*
X-41283Y-204546*
X-41587Y-204704*
X-41905Y-204836*
X-42232Y-204939*
X-42568Y-205013*
X-42908Y-205058*
X-43251Y-205073*
X-43594Y-205058*
X-43935Y-205013*
X-44270Y-204939*
X-44598Y-204836*
X-48852Y-203287*
X-49180Y-203184*
X-49515Y-203109*
X-49856Y-203065*
X-50199Y-203050*
X-50542Y-203065*
X-50883Y-203109*
X-51218Y-203184*
X-51546Y-203287*
X-51863Y-203419*
X-52167Y-203577*
X-52457Y-203762*
X-52730Y-203971*
X-52983Y-204203*
X-53215Y-204456*
X-53424Y-204729*
X-53609Y-205018*
X-53767Y-205323*
X-53898Y-205640*
X-54015Y-205961*
X-54033Y-206009*
X-54169Y-206325*
X-54331Y-206628*
X-54520Y-206915*
X-54732Y-207185*
X-54968Y-207435*
X-55224Y-207663*
X-55499Y-207869*
X-55791Y-208050*
X-56098Y-208204*
X-56417Y-208331*
X-56746Y-208430*
X-57082Y-208500*
X-57423Y-208541*
X-57767Y-208551*
X-58109Y-208531*
X-58449Y-208482*
X-58784Y-208404*
X-71187Y-204499*
X-88740Y-197517*
X-105617Y-189031*
X-121690Y-179106*
X-136837Y-167819*
X-150943Y-155254*
X-163900Y-141508*
X-164371Y-141008*
X-164884Y-140551*
X-165435Y-140141*
X-166019Y-139780*
X-166633Y-139471*
X-167271Y-139217*
X-167929Y-139020*
X-168602Y-138881*
X-169284Y-138801*
X-169860Y-138780*
X-182087*
X-182773Y-138750*
X-183454Y-138660*
X-184124Y-138511*
X-184780Y-138305*
X-185414Y-138042*
X-186024Y-137724*
X-186603Y-137356*
X-187148Y-136937*
X-187654Y-136473*
X-188119Y-135967*
X-188537Y-135422*
X-188906Y-134843*
X-189223Y-134233*
X-189486Y-133598*
X-189692Y-132943*
X-189841Y-132273*
X-189931Y-131592*
X-189961Y-130906*
Y-115170*
X-189906Y-113862*
X-189732Y-112499*
X-189441Y-111157*
X-189033Y-109845*
X-188512Y-108573*
X-187883Y-107352*
X-187149Y-106191*
X-186317Y-105097*
X-185393Y-104080*
X-184384Y-103148*
X-183298Y-102307*
X-182142Y-101565*
X-179710Y-100286*
X-178554Y-99543*
X-177468Y-98702*
X-176459Y-97770*
X-175535Y-96754*
X-174703Y-95660*
X-173969Y-94498*
X-173340Y-93277*
X-172819Y-92006*
X-172411Y-90694*
X-172120Y-89352*
X-171946Y-87989*
X-171891Y-86616*
X-171957Y-85244*
X-172142Y-83882*
X-172445Y-82542*
X-172863Y-81233*
X-173343Y-80076*
X-176733Y-72287*
X-177308Y-71039*
X-177990Y-69846*
X-178773Y-68717*
X-179651Y-67661*
X-180619Y-66685*
X-181667Y-65797*
X-182789Y-65004*
X-183976Y-64312*
X-185218Y-63726*
X-186507Y-63250*
X-187832Y-62889*
X-189184Y-62644*
X-190552Y-62519*
X-191926Y-62512*
X-193260Y-62622*
X-194239Y-62713*
X-195613Y-62737*
X-196983Y-62643*
X-198341Y-62428*
X-199674Y-62097*
X-200973Y-61650*
X-202228Y-61093*
X-203430Y-60427*
X-204570Y-59660*
X-205638Y-58796*
X-206627Y-57842*
X-207529Y-56806*
X-208337Y-55695*
X-209045Y-54518*
X-209648Y-53283*
X-210141Y-52001*
X-210521Y-50681*
X-211480Y-46515*
X-211513Y-46353*
X-211557Y-46013*
X-211572Y-45669*
X-211557Y-45326*
X-211513Y-44986*
X-211438Y-44650*
X-211335Y-44323*
X-211204Y-44006*
X-211045Y-43701*
X-210860Y-43411*
X-210651Y-43139*
X-210419Y-42885*
X-210166Y-42654*
X-209893Y-42444*
X-209604Y-42260*
X-209299Y-42101*
X-208982Y-41970*
X-208654Y-41867*
X-208319Y-41792*
X-207978Y-41747*
X-207635Y-41732*
X-200787*
X-200444Y-41717*
X-200104Y-41672*
X-199769Y-41598*
X-199441Y-41495*
X-199124Y-41363*
X-198819Y-41205*
X-198529Y-41020*
X-198257Y-40811*
X-198004Y-40579*
X-197772Y-40326*
X-197562Y-40054*
X-197378Y-39764*
X-197219Y-39459*
X-197088Y-39142*
X-196985Y-38814*
X-196910Y-38479*
X-196865Y-38139*
X-196850Y-37795*
M02*
