___lwdiv@dividend 70 0 BANK0 1
__CFG_XINST$OFF 0 0 ABS 0
___lldiv@counter 76 0 BANK0 1
__size_of_EUSART1_SetErrorHandler 0 0 ABS 0
_i D7 0 BANK0 1
_s D6 0 BANK0 1
__end_of_EUSART1_SetRxInterruptHandler 5960 0 CODE 0
_CTMU_Acquisition 5706 0 CODE 0
___lwdiv@counter 74 0 BANK0 1
__end_of_CTMU_GetVoltage 4E78 0 CODE 0
_CTMUCONLbits F44 0 ABS 0
i2printf@f 13 0 COMRAM 1
_CTMUICONbits F43 0 ABS 0
_EUSART1_Receive_ISR 4B1A 0 CODE 0
__end_ofi2_DATAEE_WriteByte 55A0 0 CODE 0
__size_of_I2C2_Stop 0 0 ABS 0
___fldiv@rem 76 0 BANK0 1
__S0 30000E 0 ABS 0
__S1 611 0 ABS 0
__size_of_CTMU_ChannelEvaluation 0 0 ABS 0
__S2 0 0 ABS 0
_PCA9685_ALL_LED_WHITE_ON 5152 0 CODE 0
__end_ofi2_printf 3BA2 0 CODE 0
__Hintentry 0 0 ABS 0
__Lintentry 0 0 ABS 0
__size_ofi2_CTMU_Acquisition 0 0 ABS 0
CTMU_WriteButtonEE@s_add 10 0 COMRAM 1
__size_ofi2_TMR0_GetRegValues 0 0 ABS 0
_abs 5732 0 CODE 0
_TMR0_DefaultInterruptHandler 59C8 0 CODE 0
CTMU_ChannelProximity@button_pressed B3 0 BANK0 1
DATAEE_WriteByte@bData 6C 0 BANK0 1
___fladd@signs 91 0 BANK0 1
_TMR1 FCE 0 ABS 0
_LATA F89 0 ABS 0
_LATB F8A 0 ABS 0
Serial_Monitor@SM_State 159 0 BANK1 1
_LATC F8B 0 ABS 0
_LATD F8C 0 ABS 0
_LATE F8D 0 ABS 0
_WPUB F61 0 ABS 0
__size_of_CTMU_GetVoltage 0 0 ABS 0
__end_of_PIN_MANAGER_Initialize 53FC 0 CODE 0
__size_of_INTERRUPT_InterruptManagerLow 0 0 ABS 0
abs@a 6A 0 BANK0 1
CTMU_SetCalibValue@overHys 18 0 COMRAM 1
__end_of_TMR1_Initialize 5888 0 CODE 0
_flag 155 0 BANK1 1
EUSART1_Read@readValue 1 0 COMRAM 1
_flag_enable_Mec EA 0 BANK0 1
CTMU_ChannelCalibs@var C0 0 BANK0 1
?_abs 6A 0 BANK0 1
_main 55D8 0 CODE 0
__end_ofi2_TMR0_StopTimer 59C0 0 CODE 0
Mech_Buttons_Get_Port@check 7B 0 BANK0 1
___sp 0 0 STACK 2
_regs 13B 0 BANK1 1
btemp 5F 0 COMRAM 1
_I2C2_BusCollisionISR 59B8 0 CODE 0
?___fladd 85 0 BANK0 1
start 5C 0 CODE 0
__end_ofi2_abs 57FE 0 CODE 0
___fltol@f1 9D 0 BANK0 1
__end_of_PCA9685_ALL_LED_BLUE_ON 5224 0 CODE 0
__end_of_PCA9685_SET_LED_BLUE_ON 4F80 0 CODE 0
_p_i2c2_current 147 0 BANK1 1
_TMR0H FD7 0 ABS 0
_PWM_1 139 0 BANK1 1
_TMR1H FCF 0 ABS 0
printf@ap 82 0 BANK0 1
_PWM_2 137 0 BANK1 1
i2_CTMU_Print 461A 0 CODE 0
_keyboard_old_mec 13D 0 BANK1 1
_CTMU_Enabling 597E 0 CODE 0
_TMR0L FD6 0 ABS 0
_TMR1L FCE 0 ABS 0
i2___flge 454A 0 CODE 0
_TRISA F92 0 ABS 0
_TRISB F93 0 ABS 0
CTMU_SetCalibValue@current 14 0 COMRAM 1
__size_of_EUSART1_RxDataHandler 0 0 ABS 0
_TRISC F94 0 ABS 0
i2_CTMU_Acquisition 57AE 0 CODE 0
_TRISD F95 0 ABS 0
__Hirdata 0 0 CODE 0
_TRISE F96 0 ABS 0
__Lirdata 0 0 CODE 0
__HRAM 0 0 ABS 0
_EEADR FA9 0 ABS 0
__LRAM 1 0 ABS 0
_T0CON FD5 0 ABS 0
_T1CON FCD 0 ABS 0
_eusart1RxBuffer 126 0 BANK1 1
__size_ofi2_DATAEE_WriteByte 0 0 ABS 0
_ADRES FC3 0 ABS 0
__end_of_CTMU_Enabling 5988 0 CODE 0
_EUSART1_Write 5932 0 CODE 0
__end_of_CTMU_SetCalibValue 40A0 0 CODE 0
ttemp5 60 0 COMRAM 1
i2CTMU_Print@i 23 0 COMRAM 1
ttemp6 63 0 COMRAM 1
ttemp7 67 0 COMRAM 1
wtemp8 60 0 COMRAM 1
__end_of_EUSART1_Initialize 4E1C 0 CODE 0
CTMU_ChannelEvaluation@delta_stop_th C2 0 BANK0 1
__CFG_WDTPS$32768 0 0 ABS 0
_eusart1TxBuffer 11E 0 BANK1 1
__Hconfig 30000E 0 CONFIG 0
i2CTMU_WriteMatrixEE@count_add 27 0 COMRAM 1
__Lconfig 300000 0 CONFIG 0
_PWM_1_HIGH 15C 0 BANK1 1
_PWM_2_HIGH 15A 0 BANK1 1
_Serial_Config_Driver D2 0 BANK0 1
I2C2_Stop@completion_code 62 0 BANK0 1
__size_of_I2C2_ISR 0 0 ABS 0
?___lwmod 77 0 BANK0 1
__size_of_DATAEE_ReadByte 0 0 ABS 0
?___flsub 95 0 BANK0 1
__Hbigram 0 0 ABS 0
__end_ofi2_putch 5992 0 CODE 0
__Lbigram 0 0 ABS 0
__end_of_TMR0_SetInterruptHandler 5956 0 CODE 0
__Hrparam 0 0 COMRAM 1
__Lrparam 0 0 COMRAM 1
EUSART1_SetOverrunErrorHandler@interruptHandler 6A 0 BANK0 1
__Hram 0 0 ABS 0
__Lram 0 0 ABS 0
i2_abs 57D6 0 CODE 0
__Hcomram 0 0 ABS 0
_putch 5924 0 CODE 0
__Lcomram 0 0 ABS 0
PCA9685_ALL_LED_BLUE_OFF@Serial_Config_Variable_1 7B 0 BANK0 1
PCA9685_ALL_LED_BLUE_OFF@Serial_Config_Variable_2 7A 0 BANK0 1
__Hsfr 0 0 ABS 0
__end_of_CTMU_ChannelProximity 4858 0 CODE 0
___flge@ff1 6A 0 BANK0 1
__Lsfr 0 0 ABS 0
__Hbss 0 0 RAM 1
__CFG_STVREN$ON 0 0 ABS 0
__Lbss 0 0 RAM 1
___param_bank 0 0 ABS 0
__Hnvrram 0 0 COMRAM 1
_delay 1CF 0 BANK1 1
__Lnvrram 0 0 COMRAM 1
__size_of_I2C2_MasterWrite 0 0 ABS 0
i2_printf 3A4A 0 CODE 0
_cap_limite_ins 183 0 BANK1 1
__size_of_ADC_SelectChannel 0 0 ABS 0
__end_ofi2_CTMU_ChannelCalibs 27D8 0 CODE 0
__size_ofi2_CTMU_WriteMatrixEE 0 0 ABS 0
i2CTMU_ChannelCalibs@VadcLimH 22 0 COMRAM 1
int$flags 5F 0 COMRAM 1
__size_of_CTMU_Inizialize_MatrixCapSense 0 0 ABS 0
___xxtofl 3CF6 0 CODE 0
__end_of_abs 575C 0 CODE 0
__size_ofi2_abs 0 0 ABS 0
_RCREG1 FAE 0 ABS 0
_RCSTA1 FAB 0 ABS 0
_TXREG1 FAD 0 ABS 0
___flge@ff2 6E 0 BANK0 1
_SPBRG1 FAF 0 ABS 0
_TXSTA1 FAC 0 ABS 0
CTMU_SetCalibValue@numSampleCheck 16 0 COMRAM 1
_EECON2 FA7 0 ABS 0
_PCA9685_SET_MODE1 552C 0 CODE 0
_PCA9685_SET_MODE2 54F2 0 CODE 0
?___fltol 9D 0 BANK0 1
__end_of_putch 5932 0 CODE 0
__size_of_EUSART1_DefaultOverrunErrorHandler 0 0 ABS 0
DATAEE_ReadByte@bAdd 1 0 COMRAM 1
__size_ofi2_putch 0 0 ABS 0
_PIE1bits F9D 0 ABS 0
_PIE3bits FA3 0 ABS 0
__Heeprom_data 0 0 EEDATA 0
__Leeprom_data 0 0 EEDATA 0
PCA9685_ALL_LED_WHITE_ON@Serial_Config_Variable_1 7B 0 BANK0 1
PCA9685_ALL_LED_WHITE_ON@Serial_Config_Variable_2 7A 0 BANK0 1
_PIR1bits F9E 0 ABS 0
_IPR1bits F9F 0 ABS 0
_PIR2bits FA1 0 ABS 0
_PIR3bits FA4 0 ABS 0
_IPR3bits FA5 0 ABS 0
_PIR4bits F7B 0 ABS 0
i2___wmul 57FE 0 CODE 0
_CCPR5H F56 0 ABS 0
_LATCbits F8B 0 ABS 0
__Hintsave_regs 0 0 BIGRAM 1
__Lintsave_regs 0 0 BIGRAM 1
__size_of_CTMU_Print 0 0 ABS 0
CTMU_Acquisition@i CB 0 BANK0 1
_CTMU_ReadMatrixEE 40A0 0 CODE 0
_ANSELA F38 0 ABS 0
?___fldiv 6A 0 BANK0 1
_RCONbits FD0 0 ABS 0
__end_of_I2C2_BusCollisionISR 59BC 0 CODE 0
_EEDATA FA8 0 ABS 0
_ANSELB F39 0 ABS 0
Serial_Monitor@error 41 0 COMRAM 1
__end_of_EUSART1_DefaultErrorHandler 59B0 0 CODE 0
?___lldiv 6A 0 BANK0 1
_CCPR5L F55 0 ABS 0
_ANSELC F3A 0 ABS 0
__size_of_CTMU_Acquisition 0 0 ABS 0
_ANSELD F3B 0 ABS 0
i2___lwmod@dividend E 0 COMRAM 1
__Hbigbss 0 0 BIGRAM 1
__Lbigbss 0 0 BIGRAM 1
_ANSELE F3C 0 ABS 0
ShowVersion@F6294 200 0 BANK2 1
__Hintret 0 0 ABS 0
_I2C2_FunctionComplete 58A4 0 CODE 0
__Lintret 0 0 ABS 0
__Hramtop 1000 0 RAM 0
__Lramtop 1000 0 RAM 0
__Hstruct 0 0 COMRAM 1
__Lstruct 0 0 COMRAM 1
__Hbigdata 0 0 BIGRAM 1
__Lbigdata 0 0 BIGRAM 1
__Hmediumconst 0 0 MEDIUMCONST 0
__end_of_ADC_Initialize 5706 0 CODE 0
__Lmediumconst 0 0 MEDIUMCONST 0
__size_of_CTMU_ChannelProximity 0 0 ABS 0
?___lwdiv 70 0 BANK0 1
_EEADRH FAA 0 ABS 0
__Hfarbss 0 0 FARRAM 0
__Lfarbss 0 0 FARRAM 0
__end_of_Mech_Buttons_Get_Port 3CF6 0 CODE 0
__end_of_ShowVersion 543C 0 CODE 0
__Hintcode E 0 CODE 0
__Lintcode 8 0 CODE 0
__Hfardata 0 0 FARRAM 0
_ADRESH FC4 0 ABS 0
__Lfardata 0 0 FARRAM 0
__end_of_CTMU_Acquisition 5732 0 CODE 0
_T1GCON FCC 0 ABS 0
__pintcode 8 0 CODE 0
CTMU_ChannelCalibs@channel A9 0 BANK0 1
_OSCCON FD3 0 ABS 0
_TABLAT FF5 0 ABS 0
__Habs1 0 0 ABS 0
__Labs1 0 0 ABS 0
_ADRESL FC3 0 ABS 0
__end_ofi2_CTMU_Enabling 599C 0 CODE 0
__CFG_EBTR0$OFF 0 0 ABS 0
__Htext100 0 0 ABS 0
__Ltext100 0 0 ABS 0
_cap_Hyst 239 0 BANK2 1
__ptext100 5824 0 CODE 0
i2___lwmod@counter 12 0 COMRAM 1
_capsense_param_change 58 0 COMRAM 1
_PLLRDY 7E97 0 ABS 0
CTMU_ChannelCalibs@Vsum B9 0 BANK0 1
__Htext101 0 0 ABS 0
__Ltext101 0 0 ABS 0
__HnvFARRAM 0 0 FARRAM 0
__LnvFARRAM 0 0 FARRAM 0
_Serial_Config_Variable_1 57 0 COMRAM 1
__ptext101 4B1A 0 CODE 0
_Serial_Config_Variable_2 D5 0 BANK0 1
printf@val 85 0 BANK0 1
__CFG_EBTR1$OFF 0 0 ABS 0
__Htext102 0 0 ABS 0
_DATAEE_ReadByte 58D8 0 CODE 0
__Ltext102 0 0 ABS 0
I2C2_MasterWriteTRBBuild@length 6E 0 BANK0 1
I2C2_ISR@i2c_10bit_address_restart D8 0 BANK0 1
__ptext102 59A4 0 CODE 0
i2___xxtofl@exp 17 0 COMRAM 1
CTMU_ChannelCalibs@num_element B5 0 BANK0 1
__end_ofi2_TMR0_StartTimer 59C4 0 CODE 0
__end_of___fltol 479E 0 CODE 0
__Htext103 0 0 ABS 0
EUSART1_SetRxInterruptHandler@interruptHandler 6A 0 BANK0 1
__Ltext103 0 0 ABS 0
i2abs@a 1 0 COMRAM 1
__CFG_CCP2MX$PORTC1 0 0 ABS 0
_EUSART1_OverrunErrorHandler 14D 0 BANK1 1
__ptext103 59CA 0 CODE 0
_EUSART1_Initialize 4DB6 0 CODE 0
__end_of_PCA9685_SET_PRESCALE 54F2 0 CODE 0
__CFG_EBTR2$OFF 0 0 ABS 0
__Htext104 0 0 ABS 0
__end_of___flsub 510A 0 CODE 0
__Ltext104 0 0 ABS 0
__size_of___fldiv 0 0 ABS 0
__size_of_CTMU_SetCalibValue 0 0 ABS 0
I2C2_MasterWrite@trBlock 179 0 BANK1 1
__CFG_CCP3MX$PORTB5 0 0 ABS 0
__ptext104 59AA 0 CODE 0
i2DATAEE_WriteByte@GIEBitValue 4 0 COMRAM 1
i2___lwmod 537A 0 CODE 0
__end_of_dpowers 100B 0 SMALLCONST 0
?i2___xxtofl E 0 COMRAM 1
__end_of___flge 447A 0 CODE 0
_eusart1RxCount 5B 0 COMRAM 1
__Htext105 0 0 ABS 0
__Ltext105 0 0 ABS 0
_writeBuffer 16A 0 BANK1 1
__end_of_TMR0_StopTimer 59B4 0 CODE 0
CTMU_ButtonEvaluation@avg_cap 1F7 0 BANK1 1
__ptext105 584A 0 CODE 0
i2CTMU_ChannelCalibs@channel 1E 0 COMRAM 1
__size_of_DATAEE_WriteByte 0 0 ABS 0
__end_ofi2___lwdiv 5026 0 CODE 0
__Hdata 0 0 ABS 0
__Ldata 0 0 ABS 0
__end_of_Serial_Config_PCA9685 3044 0 CODE 0
__CFG_EBTR3$OFF 0 0 ABS 0
__size_of_I2C2_Initialize 0 0 ABS 0
__Htext106 0 0 ABS 0
___flge 43A8 0 CODE 0
__Ltext106 0 0 ABS 0
__ptext106 59C4 0 CODE 0
CTMU_Print@i 8C 0 BANK0 1
Serial_Monitor@RXcode_1 53 0 COMRAM 1
Serial_Monitor@RXcode_2 52 0 COMRAM 1
?i2_abs 1 0 COMRAM 1
stackhi F37 0 ABS 0
Serial_Monitor@RXcode_3 158 0 BANK1 1
i2CTMU_Print@j 24 0 COMRAM 1
Serial_Monitor@RXcode_4 157 0 BANK1 1
i2CTMU_ChannelCalibs@i 37 0 COMRAM 1
_keyboard_actual_mec 13F 0 BANK1 1
___fldiv@new_exp 7B 0 BANK0 1
__Htext107 0 0 ABS 0
__Ltext107 0 0 ABS 0
__HcstackBANK0 0 0 ABS 0
__LcstackBANK0 0 0 ABS 0
i2___wmul@product 5 0 COMRAM 1
_printf 38E8 0 CODE 0
__ptext107 0 0 CODE 0
__pcstackBANK0 60 0 BANK0 1
_buffer 141 0 BANK1 1
i2CTMU_ChannelCalibs@Vread 2C 0 COMRAM 1
__Htemp 60 0 COMRAM 1
__Ltemp 5F 0 COMRAM 1
stacklo 611 0 ABS 0
__Hrbit 0 0 COMRAM 1
__Lrbit 0 0 COMRAM 1
_i2c2_object 12E 0 BANK1 1
__Hinit 60 0 CODE 0
__Linit 5C 0 CODE 0
__Hintcodelo 5C 0 CODE 0
__Lintcodelo 18 0 CODE 0
___wmul 5786 0 CODE 0
I2C2_MasterWrite@address 76 0 BANK0 1
__Hrbss 0 0 COMRAM 1
__end_of_main 560C 0 CODE 0
__Lrbss 0 0 COMRAM 1
?i2_printf 13 0 COMRAM 1
__pintcodelo 18 0 CODE 0
__end_of_EUSART1_SetFramingErrorHandler 5974 0 CODE 0
PCA9685_ALL_LED_BLUE_ON@Serial_Config_Variable_2 7A 0 BANK0 1
__Htext 0 0 ABS 0
__Ltext 0 0 ABS 0
__end_of___fldiv 32CE 0 CODE 0
_Serial_Monitor 102C 0 CODE 0
__end_of_INTERRUPT_Initialize 5924 0 CODE 0
I2C2_MasterRead@trBlock 174 0 BANK1 1
_status E9 0 BANK0 1
i2CTMU_Acquisition@i 40 0 COMRAM 1
__size_ofi2_ADC_SelectChannel 0 0 ABS 0
?_CTMU_GetVoltage 78 0 BANK0 1
___wmul@multiplier 6A 0 BANK0 1
_TMR0_GetRegValues 510A 0 CODE 0
__size_of_INTERRUPT_InterruptManagerHigh 0 0 ABS 0
__size_ofi2___flge 0 0 ABS 0
__HdataBANK0 0 0 ABS 0
__LdataBANK0 0 0 ABS 0
i2___lldiv@dividend 1 0 COMRAM 1
?___xxtofl 77 0 BANK0 1
__CFG_LVP$ON 0 0 ABS 0
__pdataBANK0 EA 0 BANK0 1
end_of_initialization 4C3E 0 CODE 0
_MatrixCapSense 509 0 BIGRAM 1
CTMU_Print@j 8D 0 BANK0 1
i2___fltol@f1 1 0 COMRAM 1
___fldiv@sign 7A 0 BANK0 1
__size_ofi2___fltol 0 0 ABS 0
I2C2_ISR@i2c_address 5D 0 COMRAM 1
__end_of_CTMU_WriteButtonEE 38E8 0 CODE 0
i2CTMU_ChannelCalibs@Vsum 2E 0 COMRAM 1
_EUSART1_RxDefaultInterruptHandler 153 0 BANK1 1
_I2C2_Stop 5338 0 CODE 0
CTMU_SetCalibValue@VadcLimitH 1A 0 COMRAM 1
__size_of_abs 0 0 ABS 0
I2C2_MasterTRBInsert@ptrb_list 6A 0 BANK0 1
_SPBRGH1 FB0 0 ABS 0
i2___lwdiv@dividend 7 0 COMRAM 1
?i2_CTMU_GetVoltage F 0 COMRAM 1
i2DATAEE_WriteByte@bAdd 1 0 COMRAM 1
__size_of_EUSART1_SetFramingErrorHandler 0 0 ABS 0
i2CTMU_ChannelCalibs@calib_ok 3D 0 COMRAM 1
_TMR0_StartTimer 59B4 0 CODE 0
i2___lldiv@counter D 0 COMRAM 1
__size_of_TMR0_SetInterruptHandler 0 0 ABS 0
CTMU_ChannelCalibs@current BF 0 BANK0 1
___wmul@multiplicand 6C 0 BANK0 1
ShowVersion@version 2 0 COMRAM 1
_OSCCON2 FD2 0 ABS 0
printf@flag 84 0 BANK0 1
i2___fltol 4858 0 CODE 0
_buffer_mec E3 0 BANK0 1
i2___lwdiv@counter D 0 COMRAM 1
CTMU_ChannelEvaluation@num_element B9 0 BANK0 1
PCA9685_SET_MODE1@Serial_Config_Command 7B 0 BANK0 1
PCA9685_SET_MODE2@Serial_Config_Command 7B 0 BANK0 1
__end_of_CTMU_WriteMatrixEE 42AC 0 CODE 0
__end_of_I2C2_FunctionComplete 58C0 0 CODE 0
__HdataBANK1 0 0 ABS 0
__CFG_FOSC$HSMP 0 0 ABS 0
CTMU_ChannelCalibs@buttons A7 0 BANK0 1
__LdataBANK1 0 0 ABS 0
__size_of_putch 0 0 ABS 0
CTMU_ButtonEvaluation@ok_button_pressed 1FC 0 BANK1 1
__size_ofi2_EUSART1_Write 0 0 ABS 0
printf@prec 81 0 BANK0 1
__pdataBANK1 183 0 BANK1 1
_SSP2ADD F6E 0 ABS 0
i2printf@flag 1B 0 COMRAM 1
i2___xxtofl@val E 0 COMRAM 1
?i2___wmul 1 0 COMRAM 1
__size_of_ASCIItoHEX 0 0 ABS 0
i2TMR0_GetRegValues@counter B 0 COMRAM 1
i2printf@ap 19 0 COMRAM 1
__end_ofi2_CTMU_Acquisition 57D6 0 CODE 0
__end_ofi2_TMR0_GetRegValues 5338 0 CODE 0
_TRISAbits F92 0 ABS 0
_TRISBbits F93 0 ABS 0
_PORTAbits F80 0 ABS 0
PCA9685_SET_LED_WHITE_ON@Serial_Config_Variable_1 7A 0 BANK0 1
__end_of_PCA9685_SET_MODE1 5566 0 CODE 0
PCA9685_SET_LED_WHITE_ON@Serial_Config_Variable_2 7B 0 BANK0 1
_PORTBbits F81 0 ABS 0
_TRISEbits F96 0 ABS 0
_PORTCbits F82 0 ABS 0
_PORTDbits F83 0 ABS 0
_T0CONbits FD5 0 ABS 0
_T1CONbits FCD 0 ABS 0
_Serial_Config_PCA9685 2DA6 0 CODE 0
i2_CTMU_Enabling 5992 0 CODE 0
CTMU_WriteMatrixEE@i 93 0 BANK0 1
CTMU_WriteMatrixEE@j 94 0 BANK0 1
EUSART1_BufferWrite@num_elem 7A 0 BANK0 1
i2EUSART1_Write@txData 1 0 COMRAM 1
i2___lldiv 4CCC 0 CODE 0
__end_of_PCA9685_SET_MODE2 552C 0 CODE 0
___fladd@grs 94 0 BANK0 1
PCA9685_SET_LED_WHITE_ON@Serial_Index_LED 7C 0 BANK0 1
__size_ofi2___lldiv 0 0 ABS 0
i2CTMU_ChannelCalibs@num_element 2A 0 COMRAM 1
_SSP2BUF F6F 0 ABS 0
_SYSTEM_Initialize 5674 0 CODE 0
__Hibigdata 0 0 CODE 0
i2___lwdiv 4FD4 0 CODE 0
__Libigdata 0 0 CODE 0
_CTMU_ChannelCalibs 1EF0 0 CODE 0
__HdataBANK2 0 0 ABS 0
__LdataBANK2 0 0 ABS 0
__size_of_I2C2_BusCollisionISR 0 0 ABS 0
_OSCTUNE F9B 0 ABS 0
__size_of_Serial_Monitor 0 0 ABS 0
__pdataBANK2 200 0 BANK2 1
__HbssBIGRAM 0 0 ABS 0
_Serial_Config_Start 15E 0 BANK1 1
__LbssBIGRAM 0 0 ABS 0
_CCP5CON F54 0 ABS 0
__pbssBIGRAM 2B1 0 BIGRAM 1
__Hifardata 0 0 CODE 0
__Lifardata 0 0 CODE 0
__Hbank0 0 0 ABS 0
__Lbank0 0 0 ABS 0
__Hbank1 0 0 ABS 0
__Lbank1 0 0 ABS 0
_TBLPTRH FF7 0 ABS 0
_PCA9685_SET_LED_WHITE_ON 4ED4 0 CODE 0
__end_ofi2___wmul 5824 0 CODE 0
PCA9685_ALL_LED_WHITE_OFF@Serial_Config_Variable_1 7B 0 BANK0 1
PCA9685_ALL_LED_WHITE_OFF@Serial_Config_Variable_2 7A 0 BANK0 1
__Hbank2 0 0 ABS 0
__Lbank2 0 0 ABS 0
CTMU_GetVoltage@Vread 7A 0 BANK0 1
_TMR0_SetInterruptHandler 594C 0 CODE 0
__Hbank3 0 0 ABS 0
__Lbank3 0 0 ABS 0
__Hbank4 0 0 ABS 0
__Lbank4 0 0 ABS 0
__size_of_Mech_Buttons_Get_Port 0 0 ABS 0
_I2C2_MasterWrite 5026 0 CODE 0
__Hbank5 0 0 ABS 0
__Lbank5 0 0 ABS 0
_TBLPTRL FF6 0 ABS 0
CTMU_GetVoltage@delay 78 0 BANK0 1
__Hpowerup 5C 0 CODE 0
__Lpowerup 5C 0 CODE 0
__Hbank6 0 0 ABS 0
__Lbank6 0 0 ABS 0
CTMU_ButtonEvaluation@vect_cap 1EB 0 BANK1 1
__Hbank7 0 0 ABS 0
__Lbank7 0 0 ABS 0
i2printf@prec 18 0 COMRAM 1
__end_ofi2_CTMU_WriteMatrixEE 43A8 0 CODE 0
__Hbank8 0 0 ABS 0
__Lbank8 0 0 ABS 0
i2_EUSART1_Write 5940 0 CODE 0
__Htext0 0 0 ABS 0
__Ltext0 0 0 ABS 0
__Hbank9 0 0 ABS 0
__Lbank9 0 0 ABS 0
__size_ofi2_TMR0_StopTimer 0 0 ABS 0
__Htext1 0 0 ABS 0
__Ltext1 0 0 ABS 0
__size_of_I2C2_MasterTRBInsert 0 0 ABS 0
__ptext0 55D8 0 CODE 0
_ADC_ISR 59C4 0 CODE 0
_INTCON2bits FF1 0 ABS 0
_ShowVersion 53FC 0 CODE 0
i2CTMU_ChannelCalibs@iTrim 32 0 COMRAM 1
__Htext2 0 0 ABS 0
_Multi_PWMLeds_enabled 56 0 COMRAM 1
__Ltext2 0 0 ABS 0
__ptext1 2DA6 0 CODE 0
__Htext3 0 0 ABS 0
__Ltext3 0 0 ABS 0
i2___xxtofl@sign 16 0 COMRAM 1
__ptext2 54B8 0 CODE 0
___fldiv@grs 7D 0 BANK0 1
__Htext4 0 0 ABS 0
__Ltext4 0 0 ABS 0
__ptext3 54F2 0 CODE 0
__Htext5 0 0 ABS 0
__CFG_P2BMX$PORTD2 0 0 ABS 0
__Ltext5 0 0 ABS 0
__ptext4 552C 0 CODE 0
_TBLPTRU FF8 0 ABS 0
CTMU_ChannelEvaluation@channel C8 0 BANK0 1
_PCA9685_SET_PRESCALE 54B8 0 CODE 0
__Htext6 0 0 ABS 0
__Ltext6 0 0 ABS 0
__ptext5 4ED4 0 CODE 0
__size_ofi2_printf 0 0 ABS 0
_INTERRUPT_InterruptManagerLow 18 0 CODE 0
__Htext7 0 0 ABS 0
__Ltext7 0 0 ABS 0
__ptext6 5152 0 CODE 0
__HbssCOMRAM 0 0 ABS 0
__LbssCOMRAM 0 0 ABS 0
CTMU_ButtonEvaluation@i 1FF 0 BANK1 1
_channel_to_calibrate 59 0 COMRAM 1
__end_of_CTMU_ButtonEvaluation 1EF0 0 CODE 0
__Htext8 0 0 ABS 0
__Ltext8 0 0 ABS 0
CTMU_ButtonEvaluation@j 1FD 0 BANK1 1
__ptext7 5198 0 CODE 0
__pbssCOMRAM 50 0 COMRAM 1
__Htext9 0 0 ABS 0
__HcstackBANK1 0 0 ABS 0
__Ltext9 0 0 ABS 0
__LcstackBANK1 0 0 ABS 0
__ptext8 51DE 0 CODE 0
__CFG_T3CMX$PORTC0 0 0 ABS 0
__size_of_CTMU_ChannelCalibs 0 0 ABS 0
__ptext9 5224 0 CODE 0
__pcstackBANK1 1EB 0 BANK1 1
CTMU_ChannelCalibs@Vread B7 0 BANK0 1
__end_ofi2___lwmod 53BC 0 CODE 0
__end_ofi2___fltol 4912 0 CODE 0
__Hclrtext 0 0 ABS 0
_EUSART1_SetFramingErrorHandler 596A 0 CODE 0
__Lclrtext 0 0 ABS 0
_TMR0_InterruptHandler 151 0 BANK1 1
__size_of_TMR0_ISR 0 0 ABS 0
CTMU_ChannelCalibs@calib_ok C8 0 BANK0 1
__size_of_printf 0 0 ABS 0
_cap_overHyst 269 0 BANK2 1
__end_of_TMR0_DefaultInterruptHandler 59CA 0 CODE 0
__CFG_HFOFST$ON 0 0 ABS 0
__size_of_CTMU_Initialize 0 0 ABS 0
__end_ofi2___lldiv 4D4E 0 CODE 0
__end_of_DATAEE_WriteByte 547A 0 CODE 0
printf@c 87 0 BANK0 1
_Serial_Config_Command D3 0 BANK0 1
PCA9685_SET_LED_BLUE_ON@Serial_Config_Variable_2 7B 0 BANK0 1
__end_of__initialization 4C3E 0 CODE 0
CTMU_ChannelCalibs@iTrim BD 0 BANK0 1
__CFG_PRICLKEN$ON 0 0 ABS 0
i2CTMU_ChannelCalibs@VadcLimL 26 0 COMRAM 1
ShowVersion@i 3B 0 COMRAM 1
_cap_sample 251 0 BANK2 1
__size_of___xxtofl 0 0 ABS 0
i2___fltol@exp1 A 0 COMRAM 1
printf@f 7C 0 BANK0 1
___rparam_used 1 0 ABS 0
i2___lwmod@divisor 10 0 COMRAM 1
CTMU_ChannelEvaluation@i B7 0 BANK0 1
__end_of___lwdiv 4FD4 0 CODE 0
__size_of_CCP5_Initialize 0 0 ABS 0
__size_of_TMR0_StartTimer 0 0 ABS 0
_I2C2_MasterWriteTRBBuild 526A 0 CODE 0
__end_ofi2___flge 461A 0 CODE 0
_i2c2_state 5A 0 COMRAM 1
?i2___lwmod E 0 COMRAM 1
__end_of_CTMU_Print 454A 0 CODE 0
I2C2_ISR@pi2c_buf_ptr 145 0 BANK1 1
CTMU_ChannelCalibs@delay C9 0 BANK0 1
i2ADC_SelectChannel@channel 2 0 COMRAM 1
i2CTMU_ChannelCalibs@delay 3E 0 COMRAM 1
CTMU_WriteButtonEE@i E 0 COMRAM 1
__end_of_I2C2_MasterWriteTRBBuild 52B0 0 CODE 0
__size_of___flge 0 0 ABS 0
CTMU_ButtonEvaluation@premuto 1FE 0 BANK1 1
__size_of_EUSART1_SetRxInterruptHandler 0 0 ABS 0
_I2C2_Initialize 560C 0 CODE 0
__size_of_TMR0_DefaultInterruptHandler 0 0 ABS 0
___fladd 27D8 0 CODE 0
_cur_ix_cap 135 0 BANK1 1
CTMU_ChannelEvaluation@Vread BF 0 BANK0 1
_cur_jx_cap 1CB 0 BANK1 1
_CCP5_Initialize 58F0 0 CODE 0
_TMR0_Initialize 55A0 0 CODE 0
_TMR1_Initialize 586C 0 CODE 0
__end_of_ASCIItoHEX 584A 0 CODE 0
_cap_vad 2B1 0 BIGRAM 1
__Hidata 0 0 CODE 0
__Lidata 0 0 CODE 0
__Hrdata 0 0 COMRAM 1
__Lrdata 0 0 COMRAM 1
__size_of_ShowVersion 0 0 ABS 0
__end_of_CTMU_Inizialize_Port 5674 0 CODE 0
__Hidloc 200008 0 IDLOC 0
_CTMU_ButtonEvaluation 1A50 0 CODE 0
__Lidloc 200000 0 IDLOC 0
_CTMU_Initialize 56A6 0 CODE 0
CTMU_ChannelProximity@channel B4 0 BANK0 1
EUSART1_Write@txData 6A 0 BANK0 1
__end_of_Serial_Monitor 1A50 0 CODE 0
__end_of_TMR0_StartTimer 59B8 0 CODE 0
__CFG_PWRTEN$OFF 0 0 ABS 0
__end_of_CTMU_ChannelEvaluation 2DA6 0 CODE 0
CTMU_ChannelProximity@Vadc_H AF 0 BANK0 1
__Hstack 0 0 STACK 2
__Lstack 0 0 STACK 2
int_func 4912 0 CODE 0
__end_of___lldiv 4CCC 0 CODE 0
i2_putch 5988 0 CODE 0
___lwmod 52B0 0 CODE 0
__Hparam 0 0 COMRAM 1
__Lparam 0 0 COMRAM 1
__Hspace_0 30000E 0 ABS 0
___flsub 50C2 0 CODE 0
__HcstackCOMRAM 0 0 ABS 0
__Lspace_0 0 0 ABS 0
__LcstackCOMRAM 0 0 ABS 0
i2_CTMU_WriteMatrixEE 42AC 0 CODE 0
__end_of_EUSART1_Read 54B8 0 CODE 0
__pcstackCOMRAM 1 0 COMRAM 1
i2CTMU_GetVoltage@Vread 11 0 COMRAM 1
_ASCIItoHEX 5824 0 CODE 0
?_printf 7C 0 BANK0 1
i2___flge@ff1 1 0 COMRAM 1
__Hspace_1 611 0 ABS 0
__Lspace_1 0 0 ABS 0
__end_of_PCA9685_ALL_LED_BLUE_OFF 526A 0 CODE 0
CTMU_Inizialize_MatrixCapSense@i 72 0 BANK0 1
__Hsmallconst 102C 0 SMALLCONST 0
__Lsmallconst 1000 0 SMALLCONST 0
__size_of_PCA9685_SET_PRESCALE 0 0 ABS 0
_EUSART1_RxDataHandler 584A 0 CODE 0
__psmallconst 1000 0 SMALLCONST 0
___fltol 46E2 0 CODE 0
__Hspace_2 0 0 ABS 0
__Lspace_2 0 0 ABS 0
__end_ofi2_EUSART1_Write 594C 0 CODE 0
_i2c2_tr_queue 17E 0 BANK1 1
__Hnvbit 0 0 COMRAM 1
__Lnvbit 0 0 COMRAM 1
?___wmul 6A 0 BANK0 1
i2_TMR0_StopTimer 59BC 0 CODE 0
__Hcinit 0 0 ABS 0
__Lcinit 0 0 ABS 0
_CTMU_WriteMatrixEE 41AA 0 CODE 0
___fldiv 3044 0 CODE 0
___lldiv 4C48 0 CODE 0
_I2C2_WaitForLastPacketToComplete 599C 0 CODE 0
__pcinit 4BB4 0 CODE 0
__CFG_EBTRB$OFF 0 0 ABS 0
__size_ofi2_CTMU_ChannelCalibs 0 0 ABS 0
_PCA9685_ALL_LED_BLUE_ON 51DE 0 CODE 0
_eusart1RxHead DC 0 BANK0 1
__ramtop 1000 0 RAM 0
CTMU_ChannelEvaluation@ok_button_pressed C1 0 BANK0 1
CTMU_ChannelProximity@Vread A7 0 BANK0 1
__mediumconst 0 0 MEDIUMCONST 0
___lwdiv 4F80 0 CODE 0
__end_of_EUSART1_SetOverrunErrorHandler 596A 0 CODE 0
i2CTMU_GetVoltage@delay F 0 COMRAM 1
__size_of_main 0 0 ABS 0
__end_of_EUSART1_BufferWrite 50C2 0 CODE 0
_dpowers 1001 0 SMALLCONST 0
_buttons 1D3 0 BANK1 1
__Hconst 0 0 CONST 0
__Lconst 0 0 CONST 0
_val_hys 15D 0 BANK1 1
___xxtofl@sign 7F 0 BANK0 1
__size_of_EUSART1_DefaultErrorHandler 0 0 ABS 0
_TMR0_StopTimer 59B0 0 CODE 0
I2C2_MasterWriteTRBBuild@ptrb 6A 0 BANK0 1
_EUSART1_SetErrorHandler 5974 0 CODE 0
CTMU_ChannelCalibs@Vread_med C2 0 BANK0 1
i2DATAEE_WriteByte@bData 3 0 COMRAM 1
PCA9685_ALL_LED_BLUE_ON@Serial_Config_Variable_1 7B 0 BANK0 1
__size_of_TMR0_Initialize 0 0 ABS 0
_PIN_MANAGER_Initialize 53BC 0 CODE 0
i2_ADC_SelectChannel 58C0 0 CODE 0
PCA9685_SET_PRESCALE@PCA9685_Address 7A 0 BANK0 1
CTMU_WriteMatrixEE@val_mem 92 0 BANK0 1
__size_of_EUSART1_DefaultFramingErrorHandler 0 0 ABS 0
___fltol@exp1 A6 0 BANK0 1
__CFG_PLLCFG$ON 0 0 ABS 0
i2___lldiv@divisor 5 0 COMRAM 1
__HidataBANK0 0 0 ABS 0
CTMU_ReadMatrixEE@col F 0 COMRAM 1
__LidataBANK0 0 0 ABS 0
i2___xxtofl 3E3A 0 CODE 0
CTMU_ButtonEvaluation@check 1FB 0 BANK1 1
__pidataBANK0 59CC 0 CODE 0
CTMU_ReadMatrixEE@row E 0 COMRAM 1
CTMU_WriteButtonEE@col 11 0 COMRAM 1
__end_of_EUSART1_SetErrorHandler 597E 0 CODE 0
_CTMU_GetVoltage 4E1C 0 CODE 0
i2___lwdiv@divisor 9 0 COMRAM 1
__end_of_EUSART1_Write 5940 0 CODE 0
__CFG_DEBUG$OFF 0 0 ABS 0
__CFG_WRT0$OFF 0 0 ABS 0
i2_TMR0_StartTimer 59C0 0 CODE 0
_flag_analysis_CapSense 1D1 0 BANK1 1
__size_of_SYSTEM_Initialize 0 0 ABS 0
_CTMU_WriteButtonEE 3762 0 CODE 0
i2putch@txData 2 0 COMRAM 1
__CFG_WRT1$OFF 0 0 ABS 0
i2___flge@ff2 5 0 COMRAM 1
__end_of_I2C2_ISR 351E 0 CODE 0
__size_of___lwdiv 0 0 ABS 0
_count_data_CTMU 55 0 COMRAM 1
__size_of_INTERRUPT_Initialize 0 0 ABS 0
putch@txData 6B 0 BANK0 1
__HbssBANK0 0 0 ABS 0
__LbssBANK0 0 0 ABS 0
_SSP2CON1 F6C 0 ABS 0
__CFG_MCLRE$EXTMCLR 0 0 ABS 0
__size_of___flsub 0 0 ABS 0
__CFG_WRT2$OFF 0 0 ABS 0
__Hbank10 0 0 ABS 0
i2_TMR0_GetRegValues 52F4 0 CODE 0
__pbssBANK0 D0 0 BANK0 1
_ADC_SelectChannel 5888 0 CODE 0
__Lbank10 0 0 ABS 0
CTMU_SetCalibValue@VadcLimitL 1B 0 COMRAM 1
_BAUDCON1 FB8 0 ABS 0
_CTMU_ChannelEvaluation 2AE6 0 CODE 0
CTMU_ChannelEvaluation@Vsum BB 0 BANK0 1
__end_of_EUSART1_Receive_ISR 4BB4 0 CODE 0
__Hbank11 0 0 ABS 0
__Lbank11 0 0 ABS 0
CTMU_ChannelCalibs@VadcLimH AD 0 BANK0 1
__end_of_OSCILLATOR_Initialize 5916 0 CODE 0
_SSP2CON3 F69 0 ABS 0
__CFG_WRT3$OFF 0 0 ABS 0
__CFG_FCMEN$OFF 0 0 ABS 0
_EUSART1_ErrorHandler 14B 0 BANK1 1
__Hbank12 0 0 ABS 0
__Lbank12 0 0 ABS 0
__end_of_SYSTEM_Initialize 56A6 0 CODE 0
_EUSART1_SetRxInterruptHandler 5956 0 CODE 0
_CTMU_ChannelProximity 479E 0 CODE 0
_EUSART1_Read 547A 0 CODE 0
__end_of___fladd 2AE6 0 CODE 0
__Hbank13 0 0 ABS 0
__Lbank13 0 0 ABS 0
_EUSART1_FramingErrorHandler 14F 0 BANK1 1
i2_DATAEE_WriteByte 5566 0 CODE 0
__HbssBANK1 0 0 ABS 0
__LbssBANK1 0 0 ABS 0
_INTERRUPT_Initialize 5916 0 CODE 0
?i2___fltol 1 0 COMRAM 1
_CTMU_Inizialize_Port 5640 0 CODE 0
___xxtofl@arg 81 0 BANK0 1
__Hbank14 0 0 ABS 0
__pbssBANK1 100 0 BANK1 1
__Lbank14 0 0 ABS 0
_EUSART1_DefaultFramingErrorHandler 59CA 0 CODE 0
i2___wmul@multiplier 1 0 COMRAM 1
__Htext10 0 0 ABS 0
__Ltext10 0 0 ABS 0
__end_ofi2___xxtofl 3F7A 0 CODE 0
__Htext20 0 0 ABS 0
I2C2_MasterTRBInsert@pflag 6C 0 BANK0 1
__Ltext20 0 0 ABS 0
__ptext10 5674 0 CODE 0
CTMU_ReadMatrixEE@val_mem D 0 COMRAM 1
__Hbank15 0 0 ABS 0
__Lbank15 0 0 ABS 0
__Htext30 0 0 ABS 0
__Htext11 0 0 ABS 0
__Ltext30 0 0 ABS 0
__Ltext11 0 0 ABS 0
__ptext20 5960 0 CODE 0
__Htext40 0 0 ABS 0
__Htext21 0 0 ABS 0
__Ltext40 0 0 ABS 0
__Ltext21 0 0 ABS 0
__ptext11 586C 0 CODE 0
__ptext30 3044 0 CODE 0
__Htext50 0 0 ABS 0
__Htext31 0 0 ABS 0
__Htext12 0 0 ABS 0
__Ltext50 0 0 ABS 0
__Ltext31 0 0 ABS 0
__Ltext12 0 0 ABS 0
TMR0_GetRegValues@reg 76 0 BANK0 1
__ptext21 596A 0 CODE 0
__ptext40 27D8 0 CODE 0
__Htext60 0 0 ABS 0
__Htext41 0 0 ABS 0
__Htext22 0 0 ABS 0
__Ltext60 0 0 ABS 0
__Ltext41 0 0 ABS 0
__Ltext22 0 0 ABS 0
__ptext12 55A0 0 CODE 0
__ptext31 4F2A 0 CODE 0
__ptext50 5732 0 CODE 0
__size_ofi2_CTMU_Enabling 0 0 ABS 0
__Htext70 0 0 ABS 0
__Htext51 0 0 ABS 0
__Htext32 0 0 ABS 0
__Htext13 0 0 ABS 0
__Ltext70 0 0 ABS 0
__Ltext51 0 0 ABS 0
__Ltext32 0 0 ABS 0
__Ltext13 0 0 ABS 0
__ptext22 5974 0 CODE 0
__ptext41 479E 0 CODE 0
__ptext60 5786 0 CODE 0
_EUSART1_DefaultOverrunErrorHandler 59A4 0 CODE 0
_RCSTA1bits FAB 0 ABS 0
__Htext80 0 0 ABS 0
__Htext61 0 0 ABS 0
__Htext42 0 0 ABS 0
__Htext23 0 0 ABS 0
__Ltext80 0 0 ABS 0
__Ltext61 0 0 ABS 0
__Ltext42 0 0 ABS 0
__Ltext23 0 0 ABS 0
__ptext13 594C 0 CODE 0
__ptext32 5026 0 CODE 0
__ptext51 3CF6 0 CODE 0
__ptext70 59C8 0 CODE 0
_TXSTA1bits FAC 0 ABS 0
_ADCON0bits FC2 0 ABS 0
__Htext90 0 0 ABS 0
__Htext71 0 0 ABS 0
__Htext52 0 0 ABS 0
__Htext33 0 0 ABS 0
__Htext14 0 0 ABS 0
__Ltext90 0 0 ABS 0
__Ltext71 0 0 ABS 0
__Ltext52 0 0 ABS 0
__Ltext33 0 0 ABS 0
__Ltext14 0 0 ABS 0
_ADCON1bits FC1 0 ABS 0
__ptext23 5640 0 CODE 0
__ptext42 5706 0 CODE 0
__ptext61 597E 0 CODE 0
__ptext80 3E3A 0 CODE 0
_EECON1bits FA6 0 ABS 0
__HidataBANK1 0 0 ABS 0
__end_of_PCA9685_ALL_LED_WHITE_ON 5198 0 CODE 0
__LidataBANK1 0 0 ABS 0
_ADCON2bits FC0 0 ABS 0
_EUSART1_BufferWrite 5076 0 CODE 0
__end_of_PCA9685_SET_LED_WHITE_ON 4F2A 0 CODE 0
__Htext81 0 0 ABS 0
__Htext62 0 0 ABS 0
__Htext43 0 0 ABS 0
__Htext24 0 0 ABS 0
__Ltext81 0 0 ABS 0
__Ltext62 0 0 ABS 0
__Ltext43 0 0 ABS 0
__Ltext24 0 0 ABS 0
__ptext14 53BC 0 CODE 0
__ptext33 526A 0 CODE 0
__ptext52 4F80 0 CODE 0
__ptext71 102C 0 CODE 0
__ptext90 5992 0 CODE 0
__end_ofi2_CTMU_Print 46E2 0 CODE 0
__end_of_PCA9685_ALL_LED_WHITE_OFF 51DE 0 CODE 0
__pidataBANK1 4D4E 0 CODE 0
__Htext91 0 0 ABS 0
__Htext72 0 0 ABS 0
__Htext53 0 0 ABS 0
__Htext34 0 0 ABS 0
__Htext15 0 0 ABS 0
__Ltext91 0 0 ABS 0
__Ltext72 0 0 ABS 0
__Ltext53 0 0 ABS 0
__Ltext34 0 0 ABS 0
__Ltext15 0 0 ABS 0
__ptext24 351E 0 CODE 0
__ptext43 41AA 0 CODE 0
__ptext62 5888 0 CODE 0
__ptext81 4FD4 0 CODE 0
__size_of_EUSART1_Read 0 0 ABS 0
__Htext82 0 0 ABS 0
__Htext44 0 0 ABS 0
__Htext25 0 0 ABS 0
__Ltext82 0 0 ABS 0
__Ltext44 0 0 ABS 0
__Ltext25 0 0 ABS 0
__ptext15 5904 0 CODE 0
__ptext34 4A7A 0 CODE 0
__ptext53 4C48 0 CODE 0
__ptext72 461A 0 CODE 0
__ptext91 58C0 0 CODE 0
___inthi_sp 0 0 STACK 2
__Htext92 0 0 ABS 0
__Htext73 0 0 ABS 0
__Htext54 0 0 ABS 0
__Htext35 0 0 ABS 0
__Htext16 0 0 ABS 0
__Ltext92 0 0 ABS 0
__Ltext73 0 0 ABS 0
__Ltext54 0 0 ABS 0
__Ltext35 0 0 ABS 0
__Ltext16 0 0 ABS 0
__ptext25 56A6 0 CODE 0
__ptext44 38E8 0 CODE 0
__ptext82 4CCC 0 CODE 0
i2CTMU_ChannelCalibs@var 34 0 COMRAM 1
__Htext83 0 0 ABS 0
__Htext64 0 0 ABS 0
__Htext45 0 0 ABS 0
__Htext26 0 0 ABS 0
__Ltext83 0 0 ABS 0
__Ltext64 0 0 ABS 0
__Ltext45 0 0 ABS 0
__Ltext26 0 0 ABS 0
__ptext16 5916 0 CODE 0
__ptext35 599C 0 CODE 0
__ptext54 46E2 0 CODE 0
__ptext73 57AE 0 CODE 0
__ptext92 53FC 0 CODE 0
CTMU_ChannelProximity@Vadc_L B1 0 BANK0 1
__size_ofi2_CTMU_Print 0 0 ABS 0
__Htext93 0 0 ABS 0
__Htext74 0 0 ABS 0
__Htext55 0 0 ABS 0
__Htext36 0 0 ABS 0
__Htext17 0 0 ABS 0
__Ltext93 0 0 ABS 0
__Ltext74 0 0 ABS 0
__Ltext55 0 0 ABS 0
__Ltext36 0 0 ABS 0
__Ltext17 0 0 ABS 0
PCA9685_SET_LED_BLUE_ON@Serial_Index_LED 7C 0 BANK0 1
__ptext26 58F0 0 CODE 0
__ptext45 5924 0 CODE 0
__ptext64 32CE 0 CODE 0
__ptext83 4858 0 CODE 0
__size_of_I2C2_FunctionComplete 0 0 ABS 0
_I2C2_MasterTRBInsert 4A7A 0 CODE 0
__Htext84 0 0 ABS 0
__Htext65 0 0 ABS 0
__Htext46 0 0 ABS 0
__Htext27 0 0 ABS 0
__Ltext84 0 0 ABS 0
__Ltext65 0 0 ABS 0
__Ltext46 0 0 ABS 0
__Ltext27 0 0 ABS 0
__end_of_printf 3A4A 0 CODE 0
__ptext17 560C 0 CODE 0
__ptext36 5076 0 CODE 0
__ptext55 43A8 0 CODE 0
__ptext74 42AC 0 CODE 0
__ptext93 5940 0 CODE 0
_PCA9685_ALL_LED_WHITE_OFF 5198 0 CODE 0
_ANSELAbits F38 0 ABS 0
__Htext94 0 0 ABS 0
__Htext75 0 0 ABS 0
__Htext56 0 0 ABS 0
__Htext37 0 0 ABS 0
__end_of___lwmod 52F4 0 CODE 0
__Htext18 0 0 ABS 0
__Ltext94 0 0 ABS 0
__Ltext75 0 0 ABS 0
__Ltext56 0 0 ABS 0
__Ltext37 0 0 ABS 0
__Ltext18 0 0 ABS 0
__end_of_INTERRUPT_InterruptManagerLow 5C 0 CODE 0
_ANSELBbits F39 0 ABS 0
__ptext27 56D6 0 CODE 0
__ptext46 5932 0 CODE 0
__ptext65 5338 0 CODE 0
__ptext84 454A 0 CODE 0
___lwmod@divisor 79 0 BANK0 1
_eusart1RxStatusBuffer 116 0 BANK1 1
__Htext85 0 0 ABS 0
__Htext66 0 0 ABS 0
__Htext47 0 0 ABS 0
__Htext28 0 0 ABS 0
__Ltext85 0 0 ABS 0
__Ltext66 0 0 ABS 0
__Ltext47 0 0 ABS 0
__Ltext28 0 0 ABS 0
__ptext18 4DB6 0 CODE 0
__ptext37 447A 0 CODE 0
__ptext56 4E1C 0 CODE 0
__ptext75 3A4A 0 CODE 0
__ptext94 547A 0 CODE 0
___fltol@sign1 A5 0 BANK0 1
_ANSELEbits F3C 0 ABS 0
__Htext95 0 0 ABS 0
_EUSART1_SetOverrunErrorHandler 5960 0 CODE 0
__Htext76 0 0 ABS 0
__Htext57 0 0 ABS 0
__Htext38 0 0 ABS 0
__Htext19 0 0 ABS 0
__Ltext95 0 0 ABS 0
__Ltext76 0 0 ABS 0
__Ltext57 0 0 ABS 0
__Ltext38 0 0 ABS 0
__Ltext19 0 0 ABS 0
__ptext28 3BA2 0 CODE 0
__ptext47 52B0 0 CODE 0
__ptext66 58A4 0 CODE 0
__ptext85 4E78 0 CODE 0
__CFG_WDTEN$OFF 0 0 ABS 0
__Htext86 0 0 ABS 0
__Htext67 0 0 ABS 0
__Htext48 0 0 ABS 0
__Htext29 0 0 ABS 0
__Ltext86 0 0 ABS 0
__Ltext67 0 0 ABS 0
__Ltext48 0 0 ABS 0
__Ltext29 0 0 ABS 0
__ptext19 5956 0 CODE 0
__ptext38 2AE6 0 CODE 0
__ptext57 59B0 0 CODE 0
__ptext76 5988 0 CODE 0
__ptext95 3F7A 0 CODE 0
___intlo_sp 0 0 STACK 2
_eusart1RxTail 5C 0 COMRAM 1
__Htext96 0 0 ABS 0
__Htext77 0 0 ABS 0
__Htext58 0 0 ABS 0
__Htext39 0 0 ABS 0
__Ltext96 0 0 ABS 0
__Ltext77 0 0 ABS 0
__Ltext58 0 0 ABS 0
__Ltext39 0 0 ABS 0
__ptext29 1A50 0 CODE 0
__ptext48 543C 0 CODE 0
__ptext67 59B8 0 CODE 0
__ptext86 59BC 0 CODE 0
__Htext87 0 0 ABS 0
__Htext49 0 0 ABS 0
__size_of_I2C2_WaitForLastPacketToComplete 0 0 ABS 0
__Ltext87 0 0 ABS 0
__Ltext49 0 0 ABS 0
__ptext39 50C2 0 CODE 0
__ptext58 59B4 0 CODE 0
__ptext77 537A 0 CODE 0
__ptext96 3762 0 CODE 0
_T1GCONbits FCC 0 ABS 0
__Htext97 0 0 ABS 0
__Htext78 0 0 ABS 0
__Htext59 0 0 ABS 0
__Ltext97 0 0 ABS 0
__Ltext78 0 0 ABS 0
__Ltext59 0 0 ABS 0
__ptext49 1EF0 0 CODE 0
__ptext87 59C0 0 CODE 0
_timer0ReloadVal 50 0 COMRAM 1
__end_ofi2_ADC_SelectChannel 58D8 0 CODE 0
_timer1ReloadVal 143 0 BANK1 1
_INTCONbits FF2 0 ABS 0
__Htext88 0 0 ABS 0
__Htext69 0 0 ABS 0
__Ltext88 0 0 ABS 0
__Ltext69 0 0 ABS 0
__ptext59 510A 0 CODE 0
__ptext78 237A 0 CODE 0
__ptext97 5566 0 CODE 0
__size_of_CTMU_Inizialize_Port 0 0 ABS 0
__end_of_EUSART1_RxDataHandler 586C 0 CODE 0
_eusart1TxTail DB 0 BANK0 1
__Htext98 0 0 ABS 0
__Htext79 0 0 ABS 0
__Ltext98 0 0 ABS 0
__Ltext79 0 0 ABS 0
__ptext69 575C 0 CODE 0
__ptext88 52F4 0 CODE 0
__Htext89 0 0 ABS 0
__Ltext89 0 0 ABS 0
__ptext79 57D6 0 CODE 0
__ptext98 40A0 0 CODE 0
?i2___lldiv 1 0 COMRAM 1
CTMU_ChannelCalibs@VadcLimL B1 0 BANK0 1
i2___xxtofl@arg 18 0 COMRAM 1
__Htext99 0 0 ABS 0
__Ltext99 0 0 ABS 0
__ptext89 57FE 0 CODE 0
__end_of_EUSART1_DefaultOverrunErrorHandler 59AA 0 CODE 0
__ptext99 58D8 0 CODE 0
___lldiv@divisor 6E 0 BANK0 1
__size_of___lldiv 0 0 ABS 0
I2C2_MasterWriteTRBBuild@pdata 6C 0 BANK0 1
__size_ofi2_TMR0_StartTimer 0 0 ABS 0
CTMU_WriteButtonEE@val_mem D 0 COMRAM 1
___lwdiv@divisor 72 0 BANK0 1
_ADC_Initialize 56D6 0 CODE 0
_CTMU_Print 447A 0 CODE 0
i2CTMU_WriteMatrixEE@val_mem 29 0 COMRAM 1
CTMU_WriteButtonEE@channel 12 0 COMRAM 1
_data_CTMU 10C 0 BANK1 1
__end_of_CTMU_ChannelCalibs 237A 0 CODE 0
__size_of_ADC_ISR 0 0 ABS 0
_p_i2c2_trb_current 149 0 BANK1 1
__size_of___fladd 0 0 ABS 0
_PWM_1_LOW D0 0 BANK0 1
_PWM_2_LOW 15B 0 BANK1 1
EUSART1_SetErrorHandler@interruptHandler 6A 0 BANK0 1
_INTERRUPT_InterruptManagerHigh 8 0 CODE 0
__size_ofi2___xxtofl 0 0 ABS 0
__size_of_TMR1_Initialize 0 0 ABS 0
_OSCILLATOR_Initialize 5904 0 CODE 0
__CFG_CP0$OFF 0 0 ABS 0
__smallconst 1000 0 SMALLCONST 0
?i2___lwdiv 7 0 COMRAM 1
__size_of_EUSART1_BufferWrite 0 0 ABS 0
i2CTMU_ChannelCalibs@current 36 0 COMRAM 1
i2___wmul@multiplicand 3 0 COMRAM 1
_CTMU_SetCalibValue 3F7A 0 CODE 0
__CFG_CP1$OFF 0 0 ABS 0
__size_of___wmul 0 0 ABS 0
__size_of_CTMU_WriteButtonEE 0 0 ABS 0
__Hreset_vec 4 0 CODE 0
__end_of_ADC_ISR 59C8 0 CODE 0
__Lreset_vec 0 0 CODE 0
__size_of_PIN_MANAGER_Initialize 0 0 ABS 0
__CFG_CP2$OFF 0 0 ABS 0
__HidataBANK2 0 0 ABS 0
__LidataBANK2 0 0 ABS 0
i2TMR0_GetRegValues@delay 7 0 COMRAM 1
i2CTMU_WriteMatrixEE@i 2A 0 COMRAM 1
__end_of_I2C2_MasterWrite 5076 0 CODE 0
i2CTMU_WriteMatrixEE@j 2B 0 COMRAM 1
__pidataBANK2 49C8 0 CODE 0
EUSART1_SetFramingErrorHandler@interruptHandler 6A 0 BANK0 1
__CFG_CP3$OFF 0 0 ABS 0
_Mech_Buttons_Get_Port 3BA2 0 CODE 0
PCA9685_SET_LED_BLUE_ON@Serial_Config_Variable_1 7A 0 BANK0 1
___xxtofl@exp 80 0 BANK0 1
__end_of_I2C2_Initialize 5640 0 CODE 0
__end_of_I2C2_Stop 537A 0 CODE 0
__size_of_EUSART1_Initialize 0 0 ABS 0
__size_of_PCA9685_ALL_LED_WHITE_ON 0 0 ABS 0
__size_of_PCA9685_SET_LED_WHITE_ON 0 0 ABS 0
__CFG_BORV$190 0 0 ABS 0
_count_data_PWM D1 0 BANK0 1
__size_of_PCA9685_ALL_LED_WHITE_OFF 0 0 ABS 0
__size_of_TMR0_GetRegValues 0 0 ABS 0
EUSART1_BufferWrite@buff 78 0 BANK0 1
__accesstop 60 0 ABS 0
TMR0_GetRegValues@counter 74 0 BANK0 1
__Hintcode_body 0 0 ABS 0
__Lintcode_body 0 0 ABS 0
_Parameters_LEDs 160 0 BANK1 1
__size_of_PCA9685_SET_MODE1 0 0 ABS 0
__pintcode_body 4912 0 CODE 0
__CFG_PBADEN$ON 0 0 ABS 0
I2C2_MasterWrite@pflag 78 0 BANK0 1
I2C2_MasterWrite@pdata 73 0 BANK0 1
intlevel0 0 0 CODE 0
__end_of_TMR0_ISR 5786 0 CODE 0
_buffer_cap_sense DD 0 BANK0 1
__size_of_Serial_Config_PCA9685 0 0 ABS 0
intlevel1 0 0 CODE 0
_SSP2STAT F6D 0 ABS 0
___xxtofl@val 77 0 BANK0 1
__CFG_WRTB$OFF 0 0 ABS 0
CTMU_SetCalibValue@hysteresis 17 0 COMRAM 1
__end_ofi2_CTMU_GetVoltage 4ED4 0 CODE 0
intlevel2 0 0 CODE 0
__end_of_CTMU_Inizialize_MatrixCapSense 3762 0 CODE 0
__size_ofi2___wmul 0 0 ABS 0
_DATAEE_WriteByte 543C 0 CODE 0
intlevel3 0 0 CODE 0
__size_of_PCA9685_SET_MODE2 0 0 ABS 0
_cap_vadcH 299 0 BANK2 1
__CFG_WRTC$OFF 0 0 ABS 0
_SSP2CON1bits F6C 0 ABS 0
__size_of_CTMU_WriteMatrixEE 0 0 ABS 0
_SSP2CON2bits F6B 0 ABS 0
__CFG_WRTD$OFF 0 0 ABS 0
__end_of_INTERRUPT_InterruptManagerHigh 49C8 0 CODE 0
__size_of_CTMU_Enabling 0 0 ABS 0
CTMU_ReadMatrixEE@count_add B 0 COMRAM 1
_I2C2_ISR 32CE 0 CODE 0
_TMR0_ISR 575C 0 CODE 0
__end_of_ADC_SelectChannel 58A4 0 CODE 0
i2CTMU_ChannelCalibs@buttons 1C 0 COMRAM 1
__size_of_EUSART1_Write 0 0 ABS 0
_Serial_Index_LED D4 0 BANK0 1
__size_of___lwmod 0 0 ABS 0
__size_of___fltol 0 0 ABS 0
___fladd@aexp 92 0 BANK0 1
__CFG_CPB$OFF 0 0 ABS 0
CTMU_SetCalibValue@W_EE 1C 0 COMRAM 1
_EUSART1_DefaultErrorHandler 59AA 0 CODE 0
i2TMR0_GetRegValues@reg D 0 COMRAM 1
_CCPTMRS1bits F48 0 ABS 0
_hys_CTMU 54 0 COMRAM 1
__end_of_TMR0_GetRegValues 5152 0 CODE 0
_cap_vadcL 281 0 BANK2 1
__end_of_I2C2_WaitForLastPacketToComplete 59A4 0 CODE 0
__end_of___wmul 57AE 0 CODE 0
___fladd@bexp 93 0 BANK0 1
__CFG_CPD$OFF 0 0 ABS 0
start_initialization 4BB4 0 CODE 0
i2_CTMU_GetVoltage 4E78 0 CODE 0
___lldiv@quotient 72 0 BANK0 1
___lwdiv@quotient 75 0 BANK0 1
i2CTMU_ChannelCalibs@Vread_med 39 0 COMRAM 1
_i2c2_trb_count DA 0 BANK0 1
Serial_Monitor@i 42 0 COMRAM 1
TMR0_SetInterruptHandler@InterruptHandler 6A 0 BANK0 1
_Led_status 1CD 0 BANK1 1
__CFG_BOREN$SBORDIS 0 0 ABS 0
i2printf@val 1C 0 COMRAM 1
Serial_Config_PCA9685@row 7E 0 BANK0 1
i2_CTMU_ChannelCalibs 237A 0 CODE 0
__end_of_CTMU_Initialize 56D6 0 CODE 0
__size_of_PCA9685_ALL_LED_BLUE_ON 0 0 ABS 0
__end_of_DATAEE_ReadByte 58F0 0 CODE 0
ASCIItoHEX@LSB 1 0 COMRAM 1
__end_of___xxtofl 3E3A 0 CODE 0
__CFG_IESO$OFF 0 0 ABS 0
__size_of_PCA9685_ALL_LED_BLUE_OFF 0 0 ABS 0
__size_of_PCA9685_SET_LED_BLUE_ON 0 0 ABS 0
___fladd@a 89 0 BANK0 1
Serial_Monitor@Index 156 0 BANK1 1
__size_of_ADC_Initialize 0 0 ABS 0
__size_of_TMR0_StopTimer 0 0 ABS 0
i2___lldiv@quotient 9 0 COMRAM 1
__end_of_CCP5_Initialize 5904 0 CODE 0
__size_of_OSCILLATOR_Initialize 0 0 ABS 0
__size_of_CTMU_ButtonEvaluation 0 0 ABS 0
__size_of_EUSART1_SetOverrunErrorHandler 0 0 ABS 0
I2C2_MasterWriteTRBBuild@address 6F 0 BANK0 1
TMR0_GetRegValues@delay 70 0 BANK0 1
I2C2_MasterTRBInsert@count 6F 0 BANK0 1
PCA9685_SET_MODE1@PCA9685_Address 7A 0 BANK0 1
PCA9685_SET_MODE2@PCA9685_Address 7A 0 BANK0 1
___fladd@b 85 0 BANK0 1
__size_of_EUSART1_Receive_ISR 0 0 ABS 0
_CTMU_Inizialize_MatrixCapSense 351E 0 CODE 0
PCA9685_SET_PRESCALE@Serial_Config_Command 7B 0 BANK0 1
_cap_trimH 19B 0 BANK1 1
i2___lwdiv@quotient B 0 COMRAM 1
___fldiv@aexp 82 0 BANK0 1
__end_of_I2C2_MasterTRBInsert 4B1A 0 CODE 0
__initialization 4BB4 0 CODE 0
_PCA9685_ALL_LED_BLUE_OFF 5224 0 CODE 0
DATAEE_WriteByte@GIEBitValue 6D 0 BANK0 1
__size_ofi2___lwmod 0 0 ABS 0
___flsub@a 99 0 BANK0 1
__size_ofi2___lwdiv 0 0 ABS 0
CTMU_WriteMatrixEE@count_add 90 0 BANK0 1
___fldiv@bexp 81 0 BANK0 1
ADC_SelectChannel@channel 6B 0 BANK0 1
CTMU_ChannelCalibs@i C6 0 BANK0 1
i2___fltol@sign1 9 0 COMRAM 1
ASCIItoHEX@MSB 3 0 COMRAM 1
___flsub@b 95 0 BANK0 1
CTMU_SetCalibValue@time 13 0 COMRAM 1
__end_of_CTMU_ReadMatrixEE 41AA 0 CODE 0
CTMU_SetCalibValue@channel 21 0 COMRAM 1
___lwmod@dividend 77 0 BANK0 1
__activetblptr 3 0 ABS 0
__size_of_CTMU_ReadMatrixEE 0 0 ABS 0
DATAEE_WriteByte@bAdd 6A 0 BANK0 1
CTMU_SetCalibValue@Trim 15 0 COMRAM 1
___wmul@product 6E 0 BANK0 1
___lwmod@counter 7B 0 BANK0 1
__size_ofi2_CTMU_GetVoltage 0 0 ABS 0
___fldiv@a 6E 0 BANK0 1
I2C2_MasterWrite@length 75 0 BANK0 1
__end_of_TMR0_Initialize 55D8 0 CODE 0
i2printf@c 1E 0 COMRAM 1
I2C2_ISR@i2c_bytes_left D9 0 BANK0 1
_cap_trimL 1B3 0 BANK1 1
_PCA9685_SET_LED_BLUE_ON 4F2A 0 CODE 0
_flag_enable_CapSense 1D2 0 BANK1 1
__end_of_EUSART1_DefaultFramingErrorHandler 59CC 0 CODE 0
_CTMUCONHbits F45 0 ABS 0
___fldiv@b 6A 0 BANK0 1
_eusart1RxLastError 15F 0 BANK1 1
CTMU_ChannelEvaluation@Vread_med C4 0 BANK0 1
___lldiv@dividend 6A 0 BANK0 1
__size_of_I2C2_MasterWriteTRBBuild 0 0 ABS 0
%segments
reset_vec 0 3 CODE 0 0
intcode 8 D CODE 8 0
intcodelo 18 5F CODE 18 0
smallconst 1000 102B SMALLCONST 1000 0
config 300000 30000D CONFIG 300000 0
idloc 200000 200007 IDLOC 200000 0
cstackCOMRAM 1 5F COMRAM 1 1
cstackBANK0 60 EA BANK0 60 1
dataBANK2 200 2B0 BANK2 200 1
bssBANK1 100 1FF BANK1 100 1
bssBIGRAM 2B1 610 BIGRAM 2B1 1
text71 102C 4A78 CODE 102C 0
text34 4A7A 59CC CODE 4A7A 0
%locals
dist/default/production\Bentwood_Tastiera.X.production.o
C:\Program Files (x86)\Microchip\xc8\v2.05\pic\include\pic18f46k22.h
C:\Users\firmware\AppData\Local\Temp\s7jk.
8996 4BB4 0 CODE 0
8998 4BB4 0 CODE 0
9001 4BB4 0 CODE 0
9314 4BB4 0 CODE 0
9315 4BB6 0 CODE 0
9316 4BB8 0 CODE 0
9317 4BBA 0 CODE 0
9318 4BBC 0 CODE 0
9319 4BBE 0 CODE 0
9320 4BC0 0 CODE 0
9321 4BC4 0 CODE 0
9322 4BC8 0 CODE 0
9323 4BC8 0 CODE 0
9324 4BCA 0 CODE 0
9325 4BCE 0 CODE 0
9326 4BD0 0 CODE 0
9327 4BD2 0 CODE 0
9331 4BD4 0 CODE 0
9332 4BD6 0 CODE 0
9333 4BD8 0 CODE 0
9334 4BDA 0 CODE 0
9335 4BDC 0 CODE 0
9336 4BDE 0 CODE 0
9337 4BE0 0 CODE 0
9338 4BE4 0 CODE 0
9339 4BE8 0 CODE 0
9340 4BE8 0 CODE 0
9341 4BEA 0 CODE 0
9342 4BEE 0 CODE 0
9343 4BF0 0 CODE 0
9344 4BF2 0 CODE 0
9348 4BF4 0 CODE 0
9349 4BF6 0 CODE 0
9350 4BF8 0 CODE 0
9351 4BFA 0 CODE 0
9352 4BFC 0 CODE 0
9353 4BFE 0 CODE 0
9354 4C00 0 CODE 0
9355 4C02 0 CODE 0
9359 4C06 0 CODE 0
9360 4C0A 0 CODE 0
9361 4C0E 0 CODE 0
9362 4C0E 0 CODE 0
9363 4C10 0 CODE 0
9364 4C12 0 CODE 0
9365 4C14 0 CODE 0
9366 4C16 0 CODE 0
9367 4C18 0 CODE 0
9370 4C1A 0 CODE 0
9371 4C1E 0 CODE 0
9372 4C20 0 CODE 0
9373 4C20 0 CODE 0
9374 4C22 0 CODE 0
9375 4C24 0 CODE 0
9378 4C26 0 CODE 0
9379 4C2A 0 CODE 0
9380 4C2C 0 CODE 0
9381 4C2C 0 CODE 0
9382 4C2E 0 CODE 0
9383 4C30 0 CODE 0
9386 4C32 0 CODE 0
9387 4C36 0 CODE 0
9388 4C38 0 CODE 0
9389 4C38 0 CODE 0
9390 4C3A 0 CODE 0
9391 4C3C 0 CODE 0
9397 4C3E 0 CODE 0
9399 4C3E 0 CODE 0
9400 4C40 0 CODE 0
9401 4C42 0 CODE 0
9402 4C44 0 CODE 0
main.c
57 55D8 0 CODE 0
60 55D8 0 CODE 0
67 55DC 0 CODE 0
70 55DE 0 CODE 0
73 55E0 0 CODE 0
83 55E2 0 CODE 0
84 55E4 0 CODE 0
85 55E6 0 CODE 0
87 55EA 0 CODE 0
102 55FA 0 CODE 0
106 55FE 0 CODE 0
107 5602 0 CODE 0
108 5606 0 CODE 0
Serial_Monitor.c
706 2DA6 0 CODE 0
710 2DA6 0 CODE 0
713 2DBE 0 CODE 0
719 2DC4 0 CODE 0
721 2DC8 0 CODE 0
723 2DE4 0 CODE 0
724 2DEA 0 CODE 0
726 2DEE 0 CODE 0
728 2DFE 0 CODE 0
729 2E08 0 CODE 0
730 2E0E 0 CODE 0
719 2E14 0 CODE 0
736 2E20 0 CODE 0
738 2E28 0 CODE 0
741 2E32 0 CODE 0
743 2E3C 0 CODE 0
746 2E46 0 CODE 0
748 2E50 0 CODE 0
751 2E5A 0 CODE 0
753 2E64 0 CODE 0
756 2E6E 0 CODE 0
758 2E78 0 CODE 0
761 2E82 0 CODE 0
764 2E8C 0 CODE 0
765 2E92 0 CODE 0
766 2E96 0 CODE 0
767 2E9E 0 CODE 0
768 2EA2 0 CODE 0
769 2EAA 0 CODE 0
770 2EAE 0 CODE 0
771 2EB6 0 CODE 0
772 2EBA 0 CODE 0
774 2EC2 0 CODE 0
775 2ECA 0 CODE 0
776 2ECE 0 CODE 0
778 2ECE 0 CODE 0
783 2EDC 0 CODE 0
784 2EE2 0 CODE 0
785 2EE6 0 CODE 0
786 2EEC 0 CODE 0
789 2EEE 0 CODE 0
795 2EF4 0 CODE 0
797 2EF8 0 CODE 0
799 2F14 0 CODE 0
800 2F1A 0 CODE 0
802 2F1E 0 CODE 0
804 2F2E 0 CODE 0
805 2F38 0 CODE 0
806 2F3E 0 CODE 0
795 2F44 0 CODE 0
809 2F4E 0 CODE 0
810 2F52 0 CODE 0
811 2F56 0 CODE 0
814 2F58 0 CODE 0
816 2F60 0 CODE 0
819 2F6A 0 CODE 0
821 2F74 0 CODE 0
824 2F7E 0 CODE 0
826 2F88 0 CODE 0
829 2F92 0 CODE 0
832 2F9C 0 CODE 0
835 2FA6 0 CODE 0
837 2FB0 0 CODE 0
840 2FBA 0 CODE 0
843 2FC4 0 CODE 0
844 2FCA 0 CODE 0
845 2FCE 0 CODE 0
846 2FD6 0 CODE 0
847 2FDA 0 CODE 0
848 2FE2 0 CODE 0
849 2FE6 0 CODE 0
850 2FEE 0 CODE 0
851 2FF2 0 CODE 0
853 2FFA 0 CODE 0
854 3002 0 CODE 0
855 3006 0 CODE 0
857 3006 0 CODE 0
858 3014 0 CODE 0
867 3016 0 CODE 0
868 301A 0 CODE 0
869 301E 0 CODE 0
870 3022 0 CODE 0
871 3026 0 CODE 0
872 302A 0 CODE 0
873 3030 0 CODE 0
711 3032 0 CODE 0
PCA9685.c
73 54B8 0 CODE 0
75 54BC 0 CODE 0
76 54C2 0 CODE 0
78 54C6 0 CODE 0
79 54E6 0 CODE 0
PCA9685.c
64 54F2 0 CODE 0
66 54F6 0 CODE 0
67 54FC 0 CODE 0
69 5500 0 CODE 0
70 5520 0 CODE 0
PCA9685.c
55 552C 0 CODE 0
57 5530 0 CODE 0
58 5536 0 CODE 0
60 553A 0 CODE 0
61 555A 0 CODE 0
PCA9685.c
128 4ED4 0 CODE 0
131 4ED8 0 CODE 0
132 4EE6 0 CODE 0
133 4EEA 0 CODE 0
134 4EEE 0 CODE 0
135 4EF2 0 CODE 0
137 4EFC 0 CODE 0
138 4F1E 0 CODE 0
PCA9685.c
93 5152 0 CODE 0
95 5156 0 CODE 0
96 515C 0 CODE 0
98 5160 0 CODE 0
100 516A 0 CODE 0
101 518C 0 CODE 0
PCA9685.c
104 5198 0 CODE 0
107 519C 0 CODE 0
108 51A2 0 CODE 0
110 51A6 0 CODE 0
112 51B0 0 CODE 0
113 51D2 0 CODE 0
PCA9685.c
82 51DE 0 CODE 0
84 51E2 0 CODE 0
85 51E8 0 CODE 0
86 51EC 0 CODE 0
88 51F6 0 CODE 0
89 5218 0 CODE 0
PCA9685.c
115 5224 0 CODE 0
120 5228 0 CODE 0
121 522E 0 CODE 0
122 5232 0 CODE 0
124 523C 0 CODE 0
125 525E 0 CODE 0
mcc_generated_files/mcc.c
51 5674 0 CODE 0
54 5674 0 CODE 0
55 5678 0 CODE 0
56 567C 0 CODE 0
57 5680 0 CODE 0
58 5684 0 CODE 0
59 5688 0 CODE 0
60 568C 0 CODE 0
61 5690 0 CODE 0
62 5694 0 CODE 0
63 5698 0 CODE 0
64 569C 0 CODE 0
66 56A0 0 CODE 0
67 56A4 0 CODE 0
mcc_generated_files/tmr1.c
64 586C 0 CODE 0
69 586C 0 CODE 0
72 5870 0 CODE 0
75 5874 0 CODE 0
78 5878 0 CODE 0
81 5880 0 CODE 0
84 5882 0 CODE 0
85 5886 0 CODE 0
mcc_generated_files/tmr0.c
71 55A0 0 CODE 0
76 55A0 0 CODE 0
79 55A2 0 CODE 0
82 55A4 0 CODE 0
86 55A8 0 CODE 0
89 55C0 0 CODE 0
92 55C2 0 CODE 0
95 55C4 0 CODE 0
98 55D0 0 CODE 0
100 55D4 0 CODE 0
101 55D6 0 CODE 0
mcc_generated_files/tmr0.c
167 594C 0 CODE 0
168 594C 0 CODE 0
169 5954 0 CODE 0
mcc_generated_files/pin_manager.c
55 53BC 0 CODE 0
60 53BC 0 CODE 0
61 53C0 0 CODE 0
62 53C4 0 CODE 0
63 53C8 0 CODE 0
64 53CC 0 CODE 0
69 53D0 0 CODE 0
70 53D4 0 CODE 0
71 53D6 0 CODE 0
72 53D8 0 CODE 0
73 53DC 0 CODE 0
78 53DE 0 CODE 0
79 53E4 0 CODE 0
80 53E8 0 CODE 0
81 53EC 0 CODE 0
82 53F0 0 CODE 0
87 53F4 0 CODE 0
88 53F8 0 CODE 0
98 53FA 0 CODE 0
mcc_generated_files/mcc.c
69 5904 0 CODE 0
72 5904 0 CODE 0
74 5908 0 CODE 0
76 590C 0 CODE 0
80 5910 0 CODE 0
78 5910 0 CODE 0
mcc_generated_files/interrupt_manager.c
54 5916 0 CODE 0
57 5916 0 CODE 0
62 5918 0 CODE 0
65 591A 0 CODE 0
68 591C 0 CODE 0
72 591E 0 CODE 0
75 5920 0 CODE 0
77 5922 0 CODE 0
mcc_generated_files/i2c2.c
198 560C 0 CODE 0
200 560C 0 CODE 0
201 5616 0 CODE 0
202 561E 0 CODE 0
203 5620 0 CODE 0
205 5622 0 CODE 0
208 5626 0 CODE 0
210 562A 0 CODE 0
212 562E 0 CODE 0
214 5632 0 CODE 0
217 5636 0 CODE 0
218 5638 0 CODE 0
221 563A 0 CODE 0
222 563C 0 CODE 0
224 563E 0 CODE 0
mcc_generated_files/eusart1.c
84 4DB6 0 CODE 0
87 4DB6 0 CODE 0
88 4DB8 0 CODE 0
92 4DC6 0 CODE 0
95 4DCA 0 CODE 0
98 4DCE 0 CODE 0
101 4DD2 0 CODE 0
104 4DD6 0 CODE 0
107 4DDA 0 CODE 0
108 4DE8 0 CODE 0
109 4DF6 0 CODE 0
111 4E04 0 CODE 0
114 4E0A 0 CODE 0
115 4E10 0 CODE 0
116 4E14 0 CODE 0
119 4E18 0 CODE 0
120 4E1A 0 CODE 0
mcc_generated_files/eusart1.c
259 5956 0 CODE 0
260 5956 0 CODE 0
261 595E 0 CODE 0
mcc_generated_files/eusart1.c
250 5960 0 CODE 0
251 5960 0 CODE 0
252 5968 0 CODE 0
mcc_generated_files/eusart1.c
246 596A 0 CODE 0
247 596A 0 CODE 0
248 5972 0 CODE 0
mcc_generated_files/eusart1.c
254 5974 0 CODE 0
255 5974 0 CODE 0
256 597C 0 CODE 0
CTMU.c
217 5640 0 CODE 0
224 5640 0 CODE 0
225 5642 0 CODE 0
227 5646 0 CODE 0
228 5648 0 CODE 0
230 564A 0 CODE 0
231 564C 0 CODE 0
233 564E 0 CODE 0
234 5650 0 CODE 0
236 5652 0 CODE 0
237 5654 0 CODE 0
239 5656 0 CODE 0
240 5658 0 CODE 0
242 565A 0 CODE 0
243 565C 0 CODE 0
245 565E 0 CODE 0
246 5660 0 CODE 0
248 5662 0 CODE 0
249 5664 0 CODE 0
251 5666 0 CODE 0
252 5668 0 CODE 0
254 566A 0 CODE 0
255 566C 0 CODE 0
257 566E 0 CODE 0
258 5670 0 CODE 0
259 5672 0 CODE 0
CTMU.c
198 351E 0 CODE 0
200 351E 0 CODE 0
202 3528 0 CODE 0
203 355E 0 CODE 0
204 3588 0 CODE 0
205 35B2 0 CODE 0
206 35DC 0 CODE 0
207 3606 0 CODE 0
208 3642 0 CODE 0
209 367E 0 CODE 0
210 36A8 0 CODE 0
211 36E4 0 CODE 0
212 3720 0 CODE 0
200 374A 0 CODE 0
215 3760 0 CODE 0
CTMU.c
121 56A6 0 CODE 0
128 56A6 0 CODE 0
129 56AA 0 CODE 0
132 56AC 0 CODE 0
135 56AE 0 CODE 0
138 56B0 0 CODE 0
141 56B2 0 CODE 0
144 56B4 0 CODE 0
155 56B6 0 CODE 0
158 56B8 0 CODE 0
161 56BC 0 CODE 0
164 56BE 0 CODE 0
167 56C2 0 CODE 0
170 56C4 0 CODE 0
175 56C6 0 CODE 0
185 56CA 0 CODE 0
192 56D2 0 CODE 0
196 56D4 0 CODE 0
mcc_generated_files/ccp5.c
58 58F0 0 CODE 0
63 58F0 0 CODE 0
66 58F6 0 CODE 0
69 58FA 0 CODE 0
72 58FE 0 CODE 0
74 5902 0 CODE 0
mcc_generated_files/adc.c
60 56D6 0 CODE 0
66 56D6 0 CODE 0
75 56DA 0 CODE 0
79 56DC 0 CODE 0
85 56DE 0 CODE 0
88 56E0 0 CODE 0
93 56E4 0 CODE 0
101 56E8 0 CODE 0
103 56EA 0 CODE 0
108 56F2 0 CODE 0
114 56FA 0 CODE 0
117 56FE 0 CODE 0
120 5702 0 CODE 0
121 5704 0 CODE 0
Mech_Buttons.c
73 3BA2 0 CODE 0
75 3BA2 0 CODE 0
77 3BA8 0 CODE 0
78 3BAC 0 CODE 0
80 3BB0 0 CODE 0
81 3BB8 0 CODE 0
82 3BBC 0 CODE 0
83 3BC2 0 CODE 0
84 3BC6 0 CODE 0
86 3BCE 0 CODE 0
87 3BD2 0 CODE 0
88 3BD8 0 CODE 0
90 3BDC 0 CODE 0
91 3BDE 0 CODE 0
94 3BE4 0 CODE 0
95 3BE8 0 CODE 0
96 3BEE 0 CODE 0
98 3BF2 0 CODE 0
100 3BFA 0 CODE 0
101 3BFE 0 CODE 0
102 3C04 0 CODE 0
103 3C08 0 CODE 0
105 3C10 0 CODE 0
106 3C14 0 CODE 0
107 3C1A 0 CODE 0
108 3C1E 0 CODE 0
110 3C26 0 CODE 0
111 3C2A 0 CODE 0
112 3C30 0 CODE 0
113 3C34 0 CODE 0
115 3C3C 0 CODE 0
116 3C40 0 CODE 0
117 3C46 0 CODE 0
118 3C4A 0 CODE 0
120 3C52 0 CODE 0
121 3C56 0 CODE 0
122 3C5C 0 CODE 0
123 3C60 0 CODE 0
125 3C68 0 CODE 0
126 3C6C 0 CODE 0
127 3C72 0 CODE 0
128 3C76 0 CODE 0
130 3C7E 0 CODE 0
131 3C82 0 CODE 0
132 3C88 0 CODE 0
133 3C8C 0 CODE 0
134 3C94 0 CODE 0
136 3C94 0 CODE 0
137 3C9A 0 CODE 0
138 3C9E 0 CODE 0
139 3CA4 0 CODE 0
143 3CA8 0 CODE 0
144 3CBE 0 CODE 0
145 3CC2 0 CODE 0
146 3CC6 0 CODE 0
147 3CCA 0 CODE 0
148 3CD8 0 CODE 0
149 3CE2 0 CODE 0
151 3CF4 0 CODE 0
CTMU.c
665 1A50 0 CODE 0
667 1A50 0 CODE 0
670 1A5C 0 CODE 0
671 1A62 0 CODE 0
677 1A66 0 CODE 0
680 1A8C 0 CODE 0
682 1A92 0 CODE 0
684 1AA2 0 CODE 0
685 1AA6 0 CODE 0
684 1B22 0 CODE 0
687 1B2C 0 CODE 0
690 1B82 0 CODE 0
691 1B8E 0 CODE 0
692 1B9E 0 CODE 0
693 1BC0 0 CODE 0
694 1BD4 0 CODE 0
696 1BD8 0 CODE 0
698 1BDE 0 CODE 0
699 1BE6 0 CODE 0
700 1BF4 0 CODE 0
702 1BF8 0 CODE 0
704 1BFE 0 CODE 0
705 1C06 0 CODE 0
706 1C14 0 CODE 0
707 1C18 0 CODE 0
709 1C20 0 CODE 0
710 1C28 0 CODE 0
711 1C36 0 CODE 0
712 1C3A 0 CODE 0
714 1C42 0 CODE 0
715 1C4A 0 CODE 0
716 1C58 0 CODE 0
717 1C5C 0 CODE 0
719 1C64 0 CODE 0
720 1C6C 0 CODE 0
722 1C7C 0 CODE 0
724 1C84 0 CODE 0
725 1C8C 0 CODE 0
726 1C9A 0 CODE 0
727 1C9E 0 CODE 0
729 1CA6 0 CODE 0
730 1CAE 0 CODE 0
731 1CBC 0 CODE 0
732 1CC0 0 CODE 0
734 1CC8 0 CODE 0
735 1CD0 0 CODE 0
736 1CDE 0 CODE 0
737 1CE2 0 CODE 0
739 1CEA 0 CODE 0
740 1CF2 0 CODE 0
741 1D00 0 CODE 0
742 1D06 0 CODE 0
744 1D10 0 CODE 0
745 1D18 0 CODE 0
747 1D28 0 CODE 0
749 1D30 0 CODE 0
750 1D38 0 CODE 0
754 1D48 0 CODE 0
755 1D50 0 CODE 0
763 1D60 0 CODE 0
764 1D66 0 CODE 0
765 1D6E 0 CODE 0
766 1D74 0 CODE 0
767 1D7C 0 CODE 0
768 1D84 0 CODE 0
769 1D8C 0 CODE 0
770 1D94 0 CODE 0
771 1D9C 0 CODE 0
772 1DA4 0 CODE 0
773 1DAC 0 CODE 0
774 1DB4 0 CODE 0
775 1DBC 0 CODE 0
776 1DC4 0 CODE 0
777 1DCC 0 CODE 0
778 1DD4 0 CODE 0
779 1DDC 0 CODE 0
780 1DE6 0 CODE 0
781 1DEE 0 CODE 0
782 1DF6 0 CODE 0
783 1DFE 0 CODE 0
784 1E06 0 CODE 0
786 1E0E 0 CODE 0
787 1E16 0 CODE 0
805 1E16 0 CODE 0
806 1E20 0 CODE 0
680 1E32 0 CODE 0
812 1E3C 0 CODE 0
814 1E62 0 CODE 0
815 1E72 0 CODE 0
816 1E78 0 CODE 0
817 1E7C 0 CODE 0
818 1E80 0 CODE 0
819 1E8E 0 CODE 0
820 1E98 0 CODE 0
824 1EAA 0 CODE 0
825 1EB4 0 CODE 0
826 1EB8 0 CODE 0
827 1ED2 0 CODE 0
828 1EE0 0 CODE 0
831 1EEE 0 CODE 0
C:\Program Files (x86)\Microchip\xc8\v2.05\pic\sources\c90\common\sprcdiv.c
11 3044 0 CODE 0
26 3044 0 CODE 0
27 304C 0 CODE 0
28 3052 0 CODE 0
29 3054 0 CODE 0
33 3056 0 CODE 0
35 305C 0 CODE 0
37 3062 0 CODE 0
40 3072 0 CODE 0
42 3074 0 CODE 0
46 3076 0 CODE 0
49 3086 0 CODE 0
50 308C 0 CODE 0
51 3092 0 CODE 0
52 3094 0 CODE 0
56 3096 0 CODE 0
58 309C 0 CODE 0
60 30A2 0 CODE 0
63 30B2 0 CODE 0
65 30B4 0 CODE 0
69 30B6 0 CODE 0
75 30C6 0 CODE 0
76 30D2 0 CODE 0
77 30E2 0 CODE 0
78 30EA 0 CODE 0
79 30EE 0 CODE 0
83 3100 0 CODE 0
85 3106 0 CODE 0
89 3118 0 CODE 0
92 3132 0 CODE 0
93 3142 0 CODE 0
94 3152 0 CODE 0
96 3162 0 CODE 0
97 3166 0 CODE 0
100 3168 0 CODE 0
101 316E 0 CODE 0
102 3178 0 CODE 0
103 3182 0 CODE 0
104 3184 0 CODE 0
106 3186 0 CODE 0
112 3190 0 CODE 0
115 31A4 0 CODE 0
116 31A6 0 CODE 0
118 31B6 0 CODE 0
119 31B8 0 CODE 0
97 31B8 0 CODE 0
122 31BE 0 CODE 0
123 31CA 0 CODE 0
128 31CE 0 CODE 0
129 31D8 0 CODE 0
130 31DA 0 CODE 0
132 31DC 0 CODE 0
133 31E6 0 CODE 0
127 31EC 0 CODE 0
139 31F0 0 CODE 0
140 31F4 0 CODE 0
141 31F8 0 CODE 0
142 321C 0 CODE 0
143 3220 0 CODE 0
144 3222 0 CODE 0
145 3222 0 CODE 0
149 3226 0 CODE 0
150 3226 0 CODE 0
151 322C 0 CODE 0
152 3238 0 CODE 0
153 323C 0 CODE 0
154 3266 0 CODE 0
159 326A 0 CODE 0
160 3278 0 CODE 0
161 327E 0 CODE 0
165 328E 0 CODE 0
166 329C 0 CODE 0
167 32A4 0 CODE 0
169 32B4 0 CODE 0
173 32B8 0 CODE 0
175 32BC 0 CODE 0
176 32C0 0 CODE 0
177 32C2 0 CODE 0
180 32C4 0 CODE 0
182 32C6 0 CODE 0
PCA9685.c
141 4F2A 0 CODE 0
143 4F2E 0 CODE 0
144 4F3C 0 CODE 0
145 4F40 0 CODE 0
146 4F44 0 CODE 0
147 4F48 0 CODE 0
149 4F52 0 CODE 0
150 4F74 0 CODE 0
mcc_generated_files/i2c2.c
600 5026 0 CODE 0
609 5026 0 CODE 0
611 502C 0 CODE 0
612 504E 0 CODE 0
613 5066 0 CODE 0
616 5068 0 CODE 0
619 5074 0 CODE 0
mcc_generated_files/i2c2.c
721 526A 0 CODE 0
727 526A 0 CODE 0
728 528A 0 CODE 0
729 529A 0 CODE 0
730 52AE 0 CODE 0
mcc_generated_files/i2c2.c
654 4A7A 0 CODE 0
655 4A7A 0 CODE 0
661 4A7E 0 CODE 0
663 4A84 0 CODE 0
665 4A90 0 CODE 0
666 4AA4 0 CODE 0
667 4AB0 0 CODE 0
668 4AC4 0 CODE 0
671 4ACC 0 CODE 0
674 4ADA 0 CODE 0
679 4AE2 0 CODE 0
682 4AE4 0 CODE 0
685 4AF2 0 CODE 0
691 4AF6 0 CODE 0
695 4B02 0 CODE 0
697 4B12 0 CODE 0
702 4B16 0 CODE 0
706 4B18 0 CODE 0
mcc_generated_files/i2c2.c
644 599C 0 CODE 0
646 599C 0 CODE 0
mcc_generated_files/eusart1.c
172 5076 0 CODE 0
174 5076 0 CODE 0
176 5078 0 CODE 0
177 508A 0 CODE 0
178 5098 0 CODE 0
179 509C 0 CODE 0
180 509E 0 CODE 0
181 50A2 0 CODE 0
182 50A6 0 CODE 0
174 50AA 0 CODE 0
184 50B4 0 CODE 0
185 50C0 0 CODE 0
CTMU.c
623 447A 0 CODE 0
625 447A 0 CODE 0
626 4488 0 CODE 0
629 448E 0 CODE 0
631 4492 0 CODE 0
632 449A 0 CODE 0
633 44DA 0 CODE 0
634 44DC 0 CODE 0
629 451C 0 CODE 0
638 4526 0 CODE 0
626 4532 0 CODE 0
640 453C 0 CODE 0
642 4548 0 CODE 0
CTMU.c
503 2AE6 0 CODE 0
505 2AEA 0 CODE 0
506 2AFC 0 CODE 0
509 2B04 0 CODE 0
512 2B08 0 CODE 0
514 2B1E 0 CODE 0
515 2B44 0 CODE 0
525 2B6E 0 CODE 0
526 2B80 0 CODE 0
532 2B98 0 CODE 0
534 2BA2 0 CODE 0
536 2BC6 0 CODE 0
537 2BD4 0 CODE 0
538 2BEC 0 CODE 0
540 2BEE 0 CODE 0
541 2BF4 0 CODE 0
532 2BF4 0 CODE 0
543 2C14 0 CODE 0
545 2C5A 0 CODE 0
546 2CC6 0 CODE 0
547 2CCC 0 CODE 0
549 2CE6 0 CODE 0
551 2D04 0 CODE 0
552 2D4C 0 CODE 0
556 2D4C 0 CODE 0
560 2D74 0 CODE 0
572 2DA2 0 CODE 0
573 2DA4 0 CODE 0
C:\Program Files (x86)\Microchip\xc8\v2.05\pic\sources\c90\common\sprcadd.c
245 50C2 0 CODE 0
248 50C2 0 CODE 0
249 50D4 0 CODE 0
250 5108 0 CODE 0
C:\Program Files (x86)\Microchip\xc8\v2.05\pic\sources\c90\common\sprcadd.c
10 27D8 0 CODE 0
21 27D8 0 CODE 0
22 27E0 0 CODE 0
23 27E6 0 CODE 0
24 27E8 0 CODE 0
28 27EA 0 CODE 0
30 27F0 0 CODE 0
32 27F6 0 CODE 0
35 2806 0 CODE 0
37 2808 0 CODE 0
41 280A 0 CODE 0
44 281A 0 CODE 0
46 2820 0 CODE 0
47 2826 0 CODE 0
49 2828 0 CODE 0
50 282E 0 CODE 0
51 2830 0 CODE 0
55 2832 0 CODE 0
57 2838 0 CODE 0
59 283E 0 CODE 0
62 284E 0 CODE 0
64 2850 0 CODE 0
68 2852 0 CODE 0
75 2862 0 CODE 0
77 286A 0 CODE 0
78 286E 0 CODE 0
81 2872 0 CODE 0
82 2876 0 CODE 0
83 287A 0 CODE 0
84 287E 0 CODE 0
85 2882 0 CODE 0
86 2886 0 CODE 0
87 288A 0 CODE 0
88 288E 0 CODE 0
89 2892 0 CODE 0
90 2896 0 CODE 0
91 289A 0 CODE 0
92 289E 0 CODE 0
93 28A2 0 CODE 0
94 28A6 0 CODE 0
95 28AA 0 CODE 0
98 28AE 0 CODE 0
100 28B2 0 CODE 0
101 28D0 0 CODE 0
102 28E4 0 CODE 0
103 28F4 0 CODE 0
104 28F8 0 CODE 0
106 28FA 0 CODE 0
109 28FA 0 CODE 0
110 28FE 0 CODE 0
111 2906 0 CODE 0
113 2908 0 CODE 0
115 290C 0 CODE 0
116 290E 0 CODE 0
118 2910 0 CODE 0
119 291A 0 CODE 0
120 291C 0 CODE 0
106 291C 0 CODE 0
124 2924 0 CODE 0
127 2928 0 CODE 0
128 292E 0 CODE 0
132 2940 0 CODE 0
134 2950 0 CODE 0
135 2954 0 CODE 0
136 2958 0 CODE 0
137 2960 0 CODE 0
139 2962 0 CODE 0
141 2966 0 CODE 0
142 2968 0 CODE 0
144 296A 0 CODE 0
145 2974 0 CODE 0
153 2978 0 CODE 0
154 2994 0 CODE 0
155 29C4 0 CODE 0
156 29C8 0 CODE 0
157 29CA 0 CODE 0
158 29D0 0 CODE 0
162 29DE 0 CODE 0
163 29EE 0 CODE 0
166 29EE 0 CODE 0
167 2A00 0 CODE 0
172 2A12 0 CODE 0
173 2A1C 0 CODE 0
174 2A1E 0 CODE 0
176 2A20 0 CODE 0
177 2A24 0 CODE 0
180 2A28 0 CODE 0
182 2A2C 0 CODE 0
183 2A30 0 CODE 0
171 2A32 0 CODE 0
192 2A36 0 CODE 0
193 2A3A 0 CODE 0
194 2A3E 0 CODE 0
195 2A4A 0 CODE 0
196 2A4E 0 CODE 0
197 2A50 0 CODE 0
198 2A50 0 CODE 0
202 2A54 0 CODE 0
203 2A54 0 CODE 0
204 2A5A 0 CODE 0
205 2A66 0 CODE 0
206 2A6A 0 CODE 0
207 2A94 0 CODE 0
208 2A98 0 CODE 0
215 2A9A 0 CODE 0
216 2AA6 0 CODE 0
218 2AB6 0 CODE 0
219 2ABC 0 CODE 0
225 2AC0 0 CODE 0
226 2AC4 0 CODE 0
227 2AC6 0 CODE 0
230 2AC8 0 CODE 0
232 2ACA 0 CODE 0
233 2AD0 0 CODE 0
234 2AD2 0 CODE 0
236 2AD4 0 CODE 0
237 2AE4 0 CODE 0
CTMU.c
473 479E 0 CODE 0
475 47A2 0 CODE 0
477 47A8 0 CODE 0
478 47EE 0 CODE 0
490 4834 0 CODE 0
491 4840 0 CODE 0
493 4844 0 CODE 0
494 4850 0 CODE 0
496 4854 0 CODE 0
497 4856 0 CODE 0
CTMU.c
598 5706 0 CODE 0
604 5706 0 CODE 0
606 570C 0 CODE 0
604 571C 0 CODE 0
608 5726 0 CODE 0
611 572A 0 CODE 0
620 5730 0 CODE 0
CTMU.c
834 41AA 0 CODE 0
835 41AA 0 CODE 0
838 41B4 0 CODE 0
839 41B8 0 CODE 0
840 41C4 0 CODE 0
841 41CA 0 CODE 0
845 41D2 0 CODE 0
846 41D8 0 CODE 0
847 421A 0 CODE 0
848 4222 0 CODE 0
851 4254 0 CODE 0
855 4284 0 CODE 0
856 4294 0 CODE 0
840 429A 0 CODE 0
838 42A2 0 CODE 0
C:\Program Files (x86)\Microchip\xc8\v2.05\pic\sources\c90\common\doprnt.c
472 38E8 0 CODE 0
545 38E8 0 CODE 0
548 38F2 0 CODE 0
550 38F4 0 CODE 0
553 38FC 0 CODE 0
554 3902 0 CODE 0
560 3904 0 CODE 0
654 3908 0 CODE 0
837 390A 0 CODE 0
838 390C 0 CODE 0
654 390E 0 CODE 0
841 393E 0 CODE 0
1270 393E 0 CODE 0
1278 3942 0 CODE 0
1280 395A 0 CODE 0
1281 395E 0 CODE 0
1282 3962 0 CODE 0
1305 396C 0 CODE 0
1324 3984 0 CODE 0
1325 3988 0 CODE 0
1324 39AE 0 CODE 0
1457 39B8 0 CODE 0
1458 39C4 0 CODE 0
1491 39CA 0 CODE 0
1493 39CE 0 CODE 0
1508 39D0 0 CODE 0
1543 3A1C 0 CODE 0
1493 3A22 0 CODE 0
548 3A2C 0 CODE 0
mcc_generated_files/eusart1.c
192 5924 0 CODE 0
194 5928 0 CODE 0
195 5930 0 CODE 0
mcc_generated_files/eusart1.c
163 5932 0 CODE 0
165 5936 0 CODE 0
169 593A 0 CODE 0
170 593E 0 CODE 0
C:\Program Files (x86)\Microchip\xc8\v2.05\pic\sources\c90\common\lwmod.c
7 52B0 0 CODE 0
12 52B0 0 CODE 0
13 52BA 0 CODE 0
14 52BE 0 CODE 0
15 52C0 0 CODE 0
16 52C6 0 CODE 0
14 52C8 0 CODE 0
19 52CC 0 CODE 0
20 52D8 0 CODE 0
21 52E0 0 CODE 0
22 52E6 0 CODE 0
23 52EA 0 CODE 0
24 52EA 0 CODE 0
25 52F2 0 CODE 0
mcc_generated_files/memory.c
176 543C 0 CODE 0
178 543C 0 CODE 0
180 5446 0 CODE 0
181 544C 0 CODE 0
182 5450 0 CODE 0
183 5454 0 CODE 0
184 5456 0 CODE 0
185 5458 0 CODE 0
186 545A 0 CODE 0
187 545C 0 CODE 0
188 5460 0 CODE 0
189 5464 0 CODE 0
193 5466 0 CODE 0
191 5466 0 CODE 0
195 546A 0 CODE 0
196 546C 0 CODE 0
197 5478 0 CODE 0
CTMU.c
320 1EF0 0 CODE 0
321 1EF0 0 CODE 0
324 1EF6 0 CODE 0
335 1F06 0 CODE 0
336 1F4E 0 CODE 0
340 1F98 0 CODE 0
345 1FB8 0 CODE 0
346 1FBE 0 CODE 0
348 1FCE 0 CODE 0
349 1FEA 0 CODE 0
351 2006 0 CODE 0
352 2010 0 CODE 0
353 2018 0 CODE 0
354 2030 0 CODE 0
355 2040 0 CODE 0
357 204A 0 CODE 0
359 205E 0 CODE 0
360 206C 0 CODE 0
361 2084 0 CODE 0
363 2086 0 CODE 0
364 208C 0 CODE 0
355 208C 0 CODE 0
366 20AC 0 CODE 0
368 20F2 0 CODE 0
370 2146 0 CODE 0
374 214A 0 CODE 0
376 214E 0 CODE 0
381 2154 0 CODE 0
382 2166 0 CODE 0
383 2180 0 CODE 0
384 2182 0 CODE 0
386 219E 0 CODE 0
352 219E 0 CODE 0
388 21B6 0 CODE 0
348 21BC 0 CODE 0
390 21E4 0 CODE 0
345 21EA 0 CODE 0
393 21F2 0 CODE 0
395 21F8 0 CODE 0
396 221E 0 CODE 0
397 2236 0 CODE 0
398 2254 0 CODE 0
399 226C 0 CODE 0
400 229A 0 CODE 0
403 22C8 0 CODE 0
404 22D0 0 CODE 0
403 2314 0 CODE 0
407 2324 0 CODE 0
415 2378 0 CODE 0
C:\Program Files (x86)\Microchip\xc8\v2.05\pic\sources\c90\common\abs.c
4 5732 0 CODE 0
6 5732 0 CODE 0
7 5738 0 CODE 0
8 5752 0 CODE 0
9 575A 0 CODE 0
C:\Program Files (x86)\Microchip\xc8\v2.05\pic\sources\c90\common\xxtofl.c
10 3CF6 0 CODE 0
15 3CFA 0 CODE 0
16 3D04 0 CODE 0
17 3D36 0 CODE 0
18 3D38 0 CODE 0
19 3D38 0 CODE 0
21 3D48 0 CODE 0
22 3D54 0 CODE 0
23 3D66 0 CODE 0
24 3D6A 0 CODE 0
25 3D6C 0 CODE 0
26 3D6E 0 CODE 0
24 3D78 0 CODE 0
29 3D9E 0 CODE 0
30 3DA0 0 CODE 0
31 3DAC 0 CODE 0
32 3DB6 0 CODE 0
28 3DB6 0 CODE 0
34 3DDC 0 CODE 0
35 3DDE 0 CODE 0
33 3DE8 0 CODE 0
37 3DF2 0 CODE 0
38 3DF4 0 CODE 0
39 3DF6 0 CODE 0
40 3DFA 0 CODE 0
41 3E1E 0 CODE 0
42 3E26 0 CODE 0
43 3E28 0 CODE 0
44 3E38 0 CODE 0
C:\Program Files (x86)\Microchip\xc8\v2.05\pic\sources\c90\common\lwdiv.c
7 4F80 0 CODE 0
13 4F80 0 CODE 0
14 4F8A 0 CODE 0
15 4F92 0 CODE 0
16 4F96 0 CODE 0
17 4F98 0 CODE 0
18 4F9E 0 CODE 0
16 4FA0 0 CODE 0
21 4FA4 0 CODE 0
22 4FAA 0 CODE 0
23 4FB6 0 CODE 0
24 4FBE 0 CODE 0
26 4FC0 0 CODE 0
27 4FC6 0 CODE 0
28 4FCA 0 CODE 0
29 4FCA 0 CODE 0
30 4FD2 0 CODE 0
C:\Program Files (x86)\Microchip\xc8\v2.05\pic\sources\c90\common\__lldiv.c
7 4C48 0 CODE 0
13 4C48 0 CODE 0
14 4C5A 0 CODE 0
15 4C66 0 CODE 0
16 4C6A 0 CODE 0
17 4C6C 0 CODE 0
18 4C76 0 CODE 0
16 4C78 0 CODE 0
21 4C7C 0 CODE 0
22 4C86 0 CODE 0
23 4C9A 0 CODE 0
24 4CAA 0 CODE 0
26 4CAC 0 CODE 0
27 4CB6 0 CODE 0
28 4CBA 0 CODE 0
29 4CBA 0 CODE 0
30 4CCA 0 CODE 0
C:\Program Files (x86)\Microchip\xc8\v2.05\pic\sources\c90\common\fltol.c
43 46E2 0 CODE 0
47 46E2 0 CODE 0
48 46F0 0 CODE 0
49 4702 0 CODE 0
50 4728 0 CODE 0
51 472A 0 CODE 0
52 473A 0 CODE 0
53 473E 0 CODE 0
54 4742 0 CODE 0
57 474C 0 CODE 0
58 4756 0 CODE 0
60 475C 0 CODE 0
63 4764 0 CODE 0
64 476E 0 CODE 0
62 4770 0 CODE 0
67 4776 0 CODE 0
68 477C 0 CODE 0
69 478C 0 CODE 0
70 479C 0 CODE 0
C:\Program Files (x86)\Microchip\xc8\v2.05\pic\sources\c90\common\flge.c
4 43A8 0 CODE 0
7 43A8 0 CODE 0
8 43CE 0 CODE 0
9 43DE 0 CODE 0
10 4402 0 CODE 0
12 4412 0 CODE 0
13 4416 0 CODE 0
14 4428 0 CODE 0
15 442C 0 CODE 0
16 443E 0 CODE 0
17 444E 0 CODE 0
18 445E 0 CODE 0
19 4478 0 CODE 0
CTMU.c
269 4E1C 0 CODE 0
274 4E1C 0 CODE 0
275 4E1E 0 CODE 0
277 4E20 0 CODE 0
278 4E24 0 CODE 0
291 4E28 0 CODE 0
292 4E34 0 CODE 0
293 4E38 0 CODE 0
296 4E3A 0 CODE 0
297 4E46 0 CODE 0
298 4E4A 0 CODE 0
299 4E4C 0 CODE 0
300 4E50 0 CODE 0
303 4E54 0 CODE 0
304 4E58 0 CODE 0
305 4E5A 0 CODE 0
306 4E5C 0 CODE 0
307 4E60 0 CODE 0
308 4E68 0 CODE 0
310 4E6A 0 CODE 0
311 4E6C 0 CODE 0
313 4E6E 0 CODE 0
314 4E76 0 CODE 0
mcc_generated_files/tmr0.c
109 59B0 0 CODE 0
112 59B0 0 CODE 0
113 59B2 0 CODE 0
mcc_generated_files/tmr0.c
103 59B4 0 CODE 0
106 59B4 0 CODE 0
107 59B6 0 CODE 0
mcc_generated_files/tmr0.c
195 510A 0 CODE 0
202 510A 0 CODE 0
204 5128 0 CODE 0
207 5132 0 CODE 0
210 5136 0 CODE 0
213 513A 0 CODE 0
214 5150 0 CODE 0
C:\Program Files (x86)\Microchip\xc8\v2.05\pic\sources\c90\common\Umul16.c
15 5786 0 CODE 0
37 5786 0 CODE 0
38 5794 0 CODE 0
39 579C 0 CODE 0
52 57A4 0 CODE 0
53 57AC 0 CODE 0
CTMU.c
262 597E 0 CODE 0
263 597E 0 CODE 0
264 5982 0 CODE 0
265 5984 0 CODE 0
266 5986 0 CODE 0
mcc_generated_files/adc.c
123 5888 0 CODE 0
140 588C 0 CODE 0
142 58A0 0 CODE 0
143 58A2 0 CODE 0
mcc_generated_files/adc.c
143 18 0 CODE 0
mcc_generated_files/interrupt_manager.c
105 18 0 CODE 0
108 2E 0 CODE 0
110 34 0 CODE 0
111 38 0 CODE 0
112 3A 0 CODE 0
114 40 0 CODE 0
120 44 0 CODE 0
mcc_generated_files/i2c2.c
235 32CE 0 CODE 0
243 32CE 0 CODE 0
247 32D0 0 CODE 0
250 32D4 0 CODE 0
251 32D6 0 CODE 0
252 32DA 0 CODE 0
255 32FC 0 CODE 0
263 3306 0 CODE 0
265 3306 0 CODE 0
268 330C 0 CODE 0
269 3314 0 CODE 0
270 3322 0 CODE 0
272 3338 0 CODE 0
275 3340 0 CODE 0
278 334E 0 CODE 0
283 3356 0 CODE 0
286 3358 0 CODE 0
289 3364 0 CODE 0
290 3366 0 CODE 0
293 3366 0 CODE 0
296 3368 0 CODE 0
313 336E 0 CODE 0
315 336E 0 CODE 0
317 3372 0 CODE 0
318 3376 0 CODE 0
319 337C 0 CODE 0
323 337E 0 CODE 0
326 338E 0 CODE 0
330 3392 0 CODE 0
331 3396 0 CODE 0
335 3398 0 CODE 0
341 339E 0 CODE 0
343 339E 0 CODE 0
345 33A2 0 CODE 0
346 33A6 0 CODE 0
347 33AC 0 CODE 0
348 33AE 0 CODE 0
352 33AE 0 CODE 0
356 33B0 0 CODE 0
359 33D2 0 CODE 0
362 33D4 0 CODE 0
383 33DA 0 CODE 0
386 33E2 0 CODE 0
387 33F2 0 CODE 0
388 3408 0 CODE 0
411 341A 0 CODE 0
414 341A 0 CODE 0
415 341E 0 CODE 0
418 3422 0 CODE 0
419 3426 0 CODE 0
428 3428 0 CODE 0
431 3428 0 CODE 0
434 342C 0 CODE 0
437 3430 0 CODE 0
440 3432 0 CODE 0
442 3438 0 CODE 0
446 343A 0 CODE 0
451 3444 0 CODE 0
454 344E 0 CODE 0
456 3454 0 CODE 0
457 345A 0 CODE 0
458 345C 0 CODE 0
466 345C 0 CODE 0
476 3460 0 CODE 0
481 3474 0 CODE 0
484 3474 0 CODE 0
488 3478 0 CODE 0
491 347C 0 CODE 0
494 3482 0 CODE 0
495 3484 0 CODE 0
496 3486 0 CODE 0
498 3486 0 CODE 0
499 3488 0 CODE 0
508 348E 0 CODE 0
511 3492 0 CODE 0
513 3494 0 CODE 0
518 3496 0 CODE 0
521 34A8 0 CODE 0
528 34B2 0 CODE 0
531 34B4 0 CODE 0
532 34B8 0 CODE 0
533 34BA 0 CODE 0
538 34BA 0 CODE 0
540 34BC 0 CODE 0
544 34C0 0 CODE 0
545 34C2 0 CODE 0
551 34C4 0 CODE 0
552 34CA 0 CODE 0
558 34CC 0 CODE 0
559 34D0 0 CODE 0
560 34D6 0 CODE 0
261 34D8 0 CODE 0
mcc_generated_files/i2c2.c
583 5338 0 CODE 0
586 533C 0 CODE 0
589 533E 0 CODE 0
592 5354 0 CODE 0
596 5374 0 CODE 0
598 5378 0 CODE 0
mcc_generated_files/i2c2.c
565 58A4 0 CODE 0
569 58A4 0 CODE 0
572 58AE 0 CODE 0
574 58B4 0 CODE 0
575 58B8 0 CODE 0
578 58BA 0 CODE 0
581 58BE 0 CODE 0
mcc_generated_files/i2c2.c
742 59B8 0 CODE 0
745 59B8 0 CODE 0
746 59BA 0 CODE 0
mcc_generated_files/i2c2.c
746 8 0 CODE 0
mcc_generated_files/interrupt_manager.c
79 8 0 CODE 0
mcc_generated_files/interrupt_manager.c
79 4912 0 CODE 0
82 4942 0 CODE 0
84 4948 0 CODE 0
85 4960 0 CODE 0
86 4964 0 CODE 0
87 4966 0 CODE 0
89 496C 0 CODE 0
91 4970 0 CODE 0
93 498A 0 CODE 0
95 4990 0 CODE 0
102 4994 0 CODE 0
103 4994 0 CODE 0
mcc_generated_files/tmr0.c
142 575C 0 CODE 0
146 575C 0 CODE 0
150 575E 0 CODE 0
151 5762 0 CODE 0
153 5766 0 CODE 0
155 5770 0 CODE 0
mcc_generated_files/tmr0.c
171 59C8 0 CODE 0
174 59C8 0 CODE 0
Serial_Monitor.c
68 102C 0 CODE 0
71 102C 0 CODE 0
82 1030 0 CODE 0
84 1036 0 CODE 0
92 103A 0 CODE 0
93 103E 0 CODE 0
94 104E 0 CODE 0
95 1052 0 CODE 0
96 1056 0 CODE 0
97 105C 0 CODE 0
98 1060 0 CODE 0
99 1064 0 CODE 0
100 106A 0 CODE 0
105 106C 0 CODE 0
106 1070 0 CODE 0
107 1080 0 CODE 0
108 1084 0 CODE 0
109 1088 0 CODE 0
110 108E 0 CODE 0
111 1092 0 CODE 0
112 1096 0 CODE 0
113 109C 0 CODE 0
118 109E 0 CODE 0
119 10A2 0 CODE 0
120 10B2 0 CODE 0
121 10B6 0 CODE 0
122 10BA 0 CODE 0
123 10C0 0 CODE 0
124 10C4 0 CODE 0
125 10C8 0 CODE 0
126 10CE 0 CODE 0
131 10D0 0 CODE 0
132 10D4 0 CODE 0
133 10E4 0 CODE 0
134 10E8 0 CODE 0
135 10EE 0 CODE 0
136 10F2 0 CODE 0
137 10F6 0 CODE 0
138 10FC 0 CODE 0
139 1100 0 CODE 0
143 1102 0 CODE 0
144 1106 0 CODE 0
148 1108 0 CODE 0
149 110C 0 CODE 0
153 110E 0 CODE 0
154 1112 0 CODE 0
158 1114 0 CODE 0
159 1118 0 CODE 0
160 1128 0 CODE 0
161 112C 0 CODE 0
162 1130 0 CODE 0
163 1136 0 CODE 0
164 113A 0 CODE 0
165 113E 0 CODE 0
166 1144 0 CODE 0
170 1146 0 CODE 0
171 114A 0 CODE 0
175 114C 0 CODE 0
176 1150 0 CODE 0
177 1160 0 CODE 0
178 1164 0 CODE 0
179 116A 0 CODE 0
180 116E 0 CODE 0
181 1172 0 CODE 0
182 1178 0 CODE 0
183 117C 0 CODE 0
187 117E 0 CODE 0
188 1182 0 CODE 0
189 1192 0 CODE 0
190 1196 0 CODE 0
191 119C 0 CODE 0
192 11A0 0 CODE 0
193 11A4 0 CODE 0
194 11AA 0 CODE 0
195 11AE 0 CODE 0
199 11B0 0 CODE 0
200 11B4 0 CODE 0
201 11C4 0 CODE 0
202 11C8 0 CODE 0
203 11CE 0 CODE 0
204 11D2 0 CODE 0
205 11D6 0 CODE 0
206 11DC 0 CODE 0
208 11E0 0 CODE 0
214 11E2 0 CODE 0
215 11E6 0 CODE 0
216 11F6 0 CODE 0
217 11FA 0 CODE 0
218 1200 0 CODE 0
219 1204 0 CODE 0
220 1208 0 CODE 0
221 120E 0 CODE 0
222 1212 0 CODE 0
227 1214 0 CODE 0
228 1218 0 CODE 0
229 121E 0 CODE 0
230 122E 0 CODE 0
231 1232 0 CODE 0
232 1238 0 CODE 0
233 123C 0 CODE 0
234 1240 0 CODE 0
235 1246 0 CODE 0
236 124A 0 CODE 0
240 124C 0 CODE 0
241 1250 0 CODE 0
242 1260 0 CODE 0
243 1264 0 CODE 0
244 126A 0 CODE 0
245 126E 0 CODE 0
246 1272 0 CODE 0
247 1278 0 CODE 0
249 127C 0 CODE 0
87 127E 0 CODE 0
254 12D6 0 CODE 0
257 1356 0 CODE 0
258 135A 0 CODE 0
259 135E 0 CODE 0
260 1360 0 CODE 0
262 1368 0 CODE 0
263 136C 0 CODE 0
265 136E 0 CODE 0
266 1372 0 CODE 0
267 1382 0 CODE 0
268 1386 0 CODE 0
269 138A 0 CODE 0
270 1390 0 CODE 0
271 1394 0 CODE 0
272 1398 0 CODE 0
273 139C 0 CODE 0
274 13A2 0 CODE 0
275 13A6 0 CODE 0
276 13AC 0 CODE 0
277 13AE 0 CODE 0
279 13B6 0 CODE 0
280 13BA 0 CODE 0
282 13BC 0 CODE 0
283 13C0 0 CODE 0
284 13D0 0 CODE 0
285 13D4 0 CODE 0
286 13DA 0 CODE 0
287 13DE 0 CODE 0
288 13E4 0 CODE 0
289 13E8 0 CODE 0
290 13EE 0 CODE 0
291 13F2 0 CODE 0
292 13F6 0 CODE 0
294 13FA 0 CODE 0
297 13FC 0 CODE 0
298 1400 0 CODE 0
299 1410 0 CODE 0
300 1414 0 CODE 0
301 141A 0 CODE 0
302 141E 0 CODE 0
308 1426 0 CODE 0
311 14A6 0 CODE 0
312 14AA 0 CODE 0
314 14B0 0 CODE 0
316 14BC 0 CODE 0
318 14CE 0 CODE 0
320 14D0 0 CODE 0
321 14D6 0 CODE 0
322 14DC 0 CODE 0
323 14E2 0 CODE 0
325 14E4 0 CODE 0
328 14EC 0 CODE 0
345 14F2 0 CODE 0
348 1522 0 CODE 0
349 1526 0 CODE 0
350 152A 0 CODE 0
354 152C 0 CODE 0
355 1530 0 CODE 0
356 1540 0 CODE 0
357 1544 0 CODE 0
358 1548 0 CODE 0
359 154E 0 CODE 0
360 1552 0 CODE 0
366 1558 0 CODE 0
369 1568 0 CODE 0
370 156C 0 CODE 0
371 1572 0 CODE 0
375 1574 0 CODE 0
376 1578 0 CODE 0
377 1588 0 CODE 0
378 158C 0 CODE 0
379 1590 0 CODE 0
380 1596 0 CODE 0
381 159A 0 CODE 0
382 159E 0 CODE 0
393 15A4 0 CODE 0
394 15AA 0 CODE 0
396 15B0 0 CODE 0
397 15B8 0 CODE 0
398 15C4 0 CODE 0
400 15F2 0 CODE 0
404 15F8 0 CODE 0
406 1604 0 CODE 0
408 1612 0 CODE 0
412 1622 0 CODE 0
413 1628 0 CODE 0
414 162C 0 CODE 0
420 163E 0 CODE 0
421 1642 0 CODE 0
422 1652 0 CODE 0
423 1656 0 CODE 0
424 165A 0 CODE 0
425 1660 0 CODE 0
426 1664 0 CODE 0
427 1668 0 CODE 0
428 166C 0 CODE 0
430 1672 0 CODE 0
388 1674 0 CODE 0
475 167E 0 CODE 0
478 16FE 0 CODE 0
479 1702 0 CODE 0
481 1706 0 CODE 0
496 1708 0 CODE 0
499 1788 0 CODE 0
519 178E 0 CODE 0
522 180E 0 CODE 0
523 1812 0 CODE 0
524 1816 0 CODE 0
539 1818 0 CODE 0
542 1898 0 CODE 0
543 189C 0 CODE 0
544 18A0 0 CODE 0
559 18A2 0 CODE 0
562 1922 0 CODE 0
563 1926 0 CODE 0
564 192C 0 CODE 0
565 193A 0 CODE 0
567 193C 0 CODE 0
568 1954 0 CODE 0
571 1956 0 CODE 0
572 195C 0 CODE 0
574 1962 0 CODE 0
578 196A 0 CODE 0
596 1972 0 CODE 0
600 1982 0 CODE 0
601 1992 0 CODE 0
622 1996 0 CODE 0
625 19AE 0 CODE 0
626 19B2 0 CODE 0
627 19B6 0 CODE 0
642 19B8 0 CODE 0
645 19C8 0 CODE 0
662 19CE 0 CODE 0
665 19DE 0 CODE 0
84 19E4 0 CODE 0
CTMU.c
623 461A 0 CODE 0
625 461A 0 CODE 0
626 4626 0 CODE 0
629 462A 0 CODE 0
631 462E 0 CODE 0
632 4636 0 CODE 0
633 4676 0 CODE 0
634 4678 0 CODE 0
629 46B8 0 CODE 0
638 46C0 0 CODE 0
626 46CC 0 CODE 0
640 46D4 0 CODE 0
642 46E0 0 CODE 0
CTMU.c
598 57AE 0 CODE 0
604 57AE 0 CODE 0
606 57B2 0 CODE 0
604 57C2 0 CODE 0
608 57CA 0 CODE 0
611 57CE 0 CODE 0
620 57D4 0 CODE 0
CTMU.c
834 42AC 0 CODE 0
835 42AC 0 CODE 0
838 42B4 0 CODE 0
839 42B8 0 CODE 0
840 42C4 0 CODE 0
841 42C8 0 CODE 0
845 42D0 0 CODE 0
846 42D6 0 CODE 0
847 4318 0 CODE 0
848 4320 0 CODE 0
851 4352 0 CODE 0
855 4382 0 CODE 0
856 4392 0 CODE 0
840 4396 0 CODE 0
838 439E 0 CODE 0
C:\Program Files (x86)\Microchip\xc8\v2.05\pic\sources\c90\common\doprnt.c
472 3A4A 0 CODE 0
545 3A4A 0 CODE 0
548 3A52 0 CODE 0
550 3A54 0 CODE 0
553 3A5C 0 CODE 0
554 3A62 0 CODE 0
560 3A64 0 CODE 0
654 3A68 0 CODE 0
837 3A6A 0 CODE 0
838 3A6C 0 CODE 0
654 3A6E 0 CODE 0
841 3A9E 0 CODE 0
1270 3A9E 0 CODE 0
1278 3AA2 0 CODE 0
1280 3ABA 0 CODE 0
1281 3ABE 0 CODE 0
1282 3AC2 0 CODE 0
1305 3ACC 0 CODE 0
1324 3AE4 0 CODE 0
1325 3AE8 0 CODE 0
1324 3B0E 0 CODE 0
1457 3B18 0 CODE 0
1458 3B24 0 CODE 0
1491 3B2A 0 CODE 0
1493 3B2E 0 CODE 0
1508 3B30 0 CODE 0
1543 3B78 0 CODE 0
1493 3B7E 0 CODE 0
548 3B86 0 CODE 0
mcc_generated_files/eusart1.c
192 5988 0 CODE 0
194 598A 0 CODE 0
195 5990 0 CODE 0
C:\Program Files (x86)\Microchip\xc8\v2.05\pic\sources\c90\common\lwmod.c
7 537A 0 CODE 0
12 537A 0 CODE 0
13 5382 0 CODE 0
14 5386 0 CODE 0
15 5388 0 CODE 0
16 538E 0 CODE 0
14 5390 0 CODE 0
19 5394 0 CODE 0
20 53A0 0 CODE 0
21 53A8 0 CODE 0
22 53AE 0 CODE 0
23 53B2 0 CODE 0
24 53B2 0 CODE 0
25 53BA 0 CODE 0
CTMU.c
320 237A 0 CODE 0
321 237A 0 CODE 0
324 237E 0 CODE 0
335 238E 0 CODE 0
336 23D4 0 CODE 0
340 241A 0 CODE 0
345 2438 0 CODE 0
346 243C 0 CODE 0
348 2448 0 CODE 0
349 2462 0 CODE 0
351 247A 0 CODE 0
352 2482 0 CODE 0
353 248A 0 CODE 0
354 24A2 0 CODE 0
355 24B2 0 CODE 0
357 24BC 0 CODE 0
359 24D0 0 CODE 0
360 24DC 0 CODE 0
361 24F4 0 CODE 0
363 24F6 0 CODE 0
364 24FC 0 CODE 0
355 24FC 0 CODE 0
366 251C 0 CODE 0
368 2562 0 CODE 0
370 25B2 0 CODE 0
374 25B6 0 CODE 0
376 25BA 0 CODE 0
381 25C0 0 CODE 0
382 25D0 0 CODE 0
383 25E8 0 CODE 0
384 25EA 0 CODE 0
386 2606 0 CODE 0
352 2606 0 CODE 0
388 261E 0 CODE 0
348 2624 0 CODE 0
390 264C 0 CODE 0
345 2652 0 CODE 0
393 265A 0 CODE 0
395 2660 0 CODE 0
396 2686 0 CODE 0
397 269E 0 CODE 0
398 26BC 0 CODE 0
399 26D4 0 CODE 0
400 2700 0 CODE 0
403 272C 0 CODE 0
404 2734 0 CODE 0
403 2776 0 CODE 0
407 2786 0 CODE 0
415 27D6 0 CODE 0
C:\Program Files (x86)\Microchip\xc8\v2.05\pic\sources\c90\common\abs.c
4 57D6 0 CODE 0
6 57D6 0 CODE 0
7 57DA 0 CODE 0
8 57F4 0 CODE 0
9 57FC 0 CODE 0
C:\Program Files (x86)\Microchip\xc8\v2.05\pic\sources\c90\common\xxtofl.c
10 3E3A 0 CODE 0
15 3E3C 0 CODE 0
16 3E44 0 CODE 0
17 3E76 0 CODE 0
18 3E78 0 CODE 0
19 3E78 0 CODE 0
21 3E88 0 CODE 0
22 3E94 0 CODE 0
23 3EA6 0 CODE 0
24 3EAA 0 CODE 0
25 3EAC 0 CODE 0
26 3EAE 0 CODE 0
24 3EB8 0 CODE 0
29 3EDE 0 CODE 0
30 3EE0 0 CODE 0
31 3EEC 0 CODE 0
32 3EF6 0 CODE 0
28 3EF6 0 CODE 0
34 3F1C 0 CODE 0
35 3F1E 0 CODE 0
33 3F28 0 CODE 0
37 3F32 0 CODE 0
38 3F34 0 CODE 0
39 3F36 0 CODE 0
40 3F3A 0 CODE 0
41 3F5E 0 CODE 0
42 3F66 0 CODE 0
43 3F68 0 CODE 0
44 3F78 0 CODE 0
C:\Program Files (x86)\Microchip\xc8\v2.05\pic\sources\c90\common\lwdiv.c
7 4FD4 0 CODE 0
13 4FD4 0 CODE 0
14 4FDC 0 CODE 0
15 4FE4 0 CODE 0
16 4FE8 0 CODE 0
17 4FEA 0 CODE 0
18 4FF0 0 CODE 0
16 4FF2 0 CODE 0
21 4FF6 0 CODE 0
22 4FFC 0 CODE 0
23 5008 0 CODE 0
24 5010 0 CODE 0
26 5012 0 CODE 0
27 5018 0 CODE 0
28 501C 0 CODE 0
29 501C 0 CODE 0
30 5024 0 CODE 0
C:\Program Files (x86)\Microchip\xc8\v2.05\pic\sources\c90\common\__lldiv.c
7 4CCC 0 CODE 0
13 4CCC 0 CODE 0
14 4CDC 0 CODE 0
15 4CE8 0 CODE 0
16 4CEC 0 CODE 0
17 4CEE 0 CODE 0
18 4CF8 0 CODE 0
16 4CFA 0 CODE 0
21 4CFE 0 CODE 0
22 4D08 0 CODE 0
23 4D1C 0 CODE 0
24 4D2C 0 CODE 0
26 4D2E 0 CODE 0
27 4D38 0 CODE 0
28 4D3C 0 CODE 0
29 4D3C 0 CODE 0
30 4D4C 0 CODE 0
C:\Program Files (x86)\Microchip\xc8\v2.05\pic\sources\c90\common\fltol.c
43 4858 0 CODE 0
47 4858 0 CODE 0
48 4864 0 CODE 0
49 4876 0 CODE 0
50 489C 0 CODE 0
51 489E 0 CODE 0
52 48AE 0 CODE 0
53 48B2 0 CODE 0
54 48B6 0 CODE 0
57 48C0 0 CODE 0
58 48CA 0 CODE 0
60 48D0 0 CODE 0
63 48D8 0 CODE 0
64 48E2 0 CODE 0
62 48E4 0 CODE 0
67 48EA 0 CODE 0
68 48F0 0 CODE 0
69 4900 0 CODE 0
70 4910 0 CODE 0
C:\Program Files (x86)\Microchip\xc8\v2.05\pic\sources\c90\common\flge.c
4 454A 0 CODE 0
7 454A 0 CODE 0
8 456E 0 CODE 0
9 457E 0 CODE 0
10 45A2 0 CODE 0
12 45B2 0 CODE 0
13 45B6 0 CODE 0
14 45C8 0 CODE 0
15 45CC 0 CODE 0
16 45DE 0 CODE 0
17 45EE 0 CODE 0
18 45FE 0 CODE 0
19 4618 0 CODE 0
CTMU.c
269 4E78 0 CODE 0
274 4E78 0 CODE 0
275 4E7A 0 CODE 0
277 4E7C 0 CODE 0
278 4E80 0 CODE 0
291 4E84 0 CODE 0
292 4E90 0 CODE 0
293 4E94 0 CODE 0
296 4E96 0 CODE 0
297 4EA2 0 CODE 0
298 4EA6 0 CODE 0
299 4EA8 0 CODE 0
300 4EAC 0 CODE 0
303 4EB0 0 CODE 0
304 4EB4 0 CODE 0
305 4EB6 0 CODE 0
306 4EB8 0 CODE 0
307 4EBC 0 CODE 0
308 4EC4 0 CODE 0
310 4EC6 0 CODE 0
311 4EC8 0 CODE 0
313 4ECA 0 CODE 0
314 4ED2 0 CODE 0
mcc_generated_files/tmr0.c
109 59BC 0 CODE 0
112 59BC 0 CODE 0
113 59BE 0 CODE 0
mcc_generated_files/tmr0.c
103 59C0 0 CODE 0
106 59C0 0 CODE 0
107 59C2 0 CODE 0
mcc_generated_files/tmr0.c
195 52F4 0 CODE 0
202 52F4 0 CODE 0
204 5310 0 CODE 0
207 5318 0 CODE 0
210 531C 0 CODE 0
213 5320 0 CODE 0
214 5336 0 CODE 0
C:\Program Files (x86)\Microchip\xc8\v2.05\pic\sources\c90\common\Umul16.c
15 57FE 0 CODE 0
37 57FE 0 CODE 0
38 580A 0 CODE 0
39 5812 0 CODE 0
52 581A 0 CODE 0
53 5822 0 CODE 0
CTMU.c
262 5992 0 CODE 0
263 5992 0 CODE 0
264 5996 0 CODE 0
265 5998 0 CODE 0
266 599A 0 CODE 0
mcc_generated_files/adc.c
123 58C0 0 CODE 0
140 58C2 0 CODE 0
142 58D4 0 CODE 0
143 58D6 0 CODE 0
Serial_Monitor.c
879 53FC 0 CODE 0
882 53FC 0 CODE 0
884 540E 0 CODE 0
886 5416 0 CODE 0
884 5428 0 CODE 0
889 543A 0 CODE 0
mcc_generated_files/eusart1.c
163 5940 0 CODE 0
165 5942 0 CODE 0
169 5946 0 CODE 0
170 594A 0 CODE 0
mcc_generated_files/eusart1.c
141 547A 0 CODE 0
145 547A 0 CODE 0
149 5480 0 CODE 0
151 5492 0 CODE 0
152 54A4 0 CODE 0
154 54AA 0 CODE 0
156 54AE 0 CODE 0
157 54B0 0 CODE 0
158 54B2 0 CODE 0
160 54B4 0 CODE 0
161 54B6 0 CODE 0
CTMU.c
442 3F7A 0 CODE 0
444 3F7C 0 CODE 0
445 3F9A 0 CODE 0
446 3FB6 0 CODE 0
447 3FD4 0 CODE 0
449 4002 0 CODE 0
450 4020 0 CODE 0
451 403E 0 CODE 0
452 4056 0 CODE 0
453 4074 0 CODE 0
455 4092 0 CODE 0
456 409E 0 CODE 0
CTMU.c
891 3762 0 CODE 0
898 3764 0 CODE 0
899 376E 0 CODE 0
900 3778 0 CODE 0
901 3784 0 CODE 0
902 3790 0 CODE 0
903 379C 0 CODE 0
904 37A8 0 CODE 0
905 37B4 0 CODE 0
906 37C0 0 CODE 0
907 37CC 0 CODE 0
908 37D8 0 CODE 0
909 37E4 0 CODE 0
911 37F0 0 CODE 0
912 37F4 0 CODE 0
914 37FC 0 CODE 0
915 3802 0 CODE 0
916 3844 0 CODE 0
917 384C 0 CODE 0
920 387E 0 CODE 0
922 38AE 0 CODE 0
923 38BE 0 CODE 0
924 38C0 0 CODE 0
912 38C8 0 CODE 0
mcc_generated_files/memory.c
176 5566 0 CODE 0
178 5566 0 CODE 0
180 556E 0 CODE 0
181 5574 0 CODE 0
182 5578 0 CODE 0
183 557C 0 CODE 0
184 557E 0 CODE 0
185 5580 0 CODE 0
186 5582 0 CODE 0
187 5584 0 CODE 0
188 5588 0 CODE 0
189 558C 0 CODE 0
193 558E 0 CODE 0
191 558E 0 CODE 0
195 5592 0 CODE 0
196 5594 0 CODE 0
197 559E 0 CODE 0
CTMU.c
863 40A0 0 CODE 0
864 40A0 0 CODE 0
868 40A8 0 CODE 0
870 40AC 0 CODE 0
872 40B0 0 CODE 0
873 40B8 0 CODE 0
875 40C6 0 CODE 0
876 40CC 0 CODE 0
877 4104 0 CODE 0
878 410E 0 CODE 0
879 4158 0 CODE 0
881 415A 0 CODE 0
883 4194 0 CODE 0
870 4198 0 CODE 0
868 41A0 0 CODE 0
mcc_generated_files/memory.c
199 58D8 0 CODE 0
201 58D8 0 CODE 0
202 58DE 0 CODE 0
203 58E2 0 CODE 0
204 58E4 0 CODE 0
205 58E6 0 CODE 0
206 58E8 0 CODE 0
207 58EA 0 CODE 0
209 58EC 0 CODE 0
210 58EE 0 CODE 0
Tip_And_Tricks.c
35 5824 0 CODE 0
37 5826 0 CODE 0
38 5830 0 CODE 0
39 583A 0 CODE 0
40 5848 0 CODE 0
mcc_generated_files/eusart1.c
198 4B1A 0 CODE 0
201 4B1A 0 CODE 0
203 4B2C 0 CODE 0
204 4B30 0 CODE 0
205 4B40 0 CODE 0
208 4B56 0 CODE 0
209 4B5A 0 CODE 0
210 4B6C 0 CODE 0
213 4B82 0 CODE 0
214 4B96 0 CODE 0
216 4BAE 0 CODE 0
220 4BB2 0 CODE 0
mcc_generated_files/eusart1.c
234 59A4 0 CODE 0
237 59A4 0 CODE 0
238 59A6 0 CODE 0
240 59A8 0 CODE 0
mcc_generated_files/eusart1.c
232 59CA 0 CODE 0
mcc_generated_files/eusart1.c
242 59AA 0 CODE 0
243 59AA 0 CODE 0
244 59AE 0 CODE 0
mcc_generated_files/eusart1.c
222 584A 0 CODE 0
224 584A 0 CODE 0
225 585E 0 CODE 0
227 5864 0 CODE 0
229 5868 0 CODE 0
230 586A 0 CODE 0
mcc_generated_files/adc.c
189 59C4 0 CODE 0
192 59C4 0 CODE 0
193 59C6 0 CODE 0
